
G21
G90
G94
F200.00
G00 Z2.0000
M03
G00 X41.4420Y93.0199
G01 Z-2.0000
G01 Z0
G00 Z2.0000
G00 X41.4420Y89.5198
G01 Z-2.0000
G01 Z0
G00 Z2.0000
G00 X40.8781Y12.5019
G01 Z-2.0000
G01 Z0
G00 Z2.0000
G00 X37.3780Y12.5019
G01 Z-2.0000
G01 Z0
G00 Z2.0000
G00 X18.5820Y92.7100
G01 Z-2.0000
G01 Z0
G00 Z2.0000
G00 X18.5820Y89.2099
G01 Z-2.0000
G01 Z0
G00 Z2.0000
G00 X0.0000Y0.0000
M05
M30