
G21
G90
G94
F200.00
G00 Z2.0000
M03
G00 X55.9302Y4.3891
G01 Z-2.0000
G01 Z0
G00 Z2.0000
G00 X55.9251Y102.2248
G01 Z-2.0000
G01 Z0
G00 Z2.0000
G00 X5.0997Y102.2502
G01 Z-2.0000
G01 Z0
G00 Z2.0000
G00 X5.0590Y4.4907
G01 Z-2.0000
G01 Z0
G00 Z2.0000
G00 X0.0000Y0.0000
M05
M30