
G21
G90
G94
F300.00
G00 Z2.0000
M03
G00 X-0.8750Y52.1000
G01 Z-0.0020
G01 X-0.8750Y-0.8750
G01 X61.8750Y-0.8750
G01 X61.8750Y52.1000
G00 X61.8750Y52.1000
G01 Z-0.0040
G01 X61.8750Y-0.8750
G01 X-0.8750Y-0.8750
G01 X-0.8750Y52.1000
G00 X-0.8750Y52.1000
G01 Z-0.0060
G01 X-0.8750Y-0.8750
G01 X61.8750Y-0.8750
G01 X61.8750Y52.1000
G00 X61.8750Y52.1000
G01 Z-0.0080
G01 X61.8750Y-0.8750
G01 X-0.8750Y-0.8750
G01 X-0.8750Y52.1000
G00 X-0.8750Y52.1000
G01 Z-0.0100
G01 X-0.8750Y-0.8750
G01 X61.8750Y-0.8750
G01 X61.8750Y52.1000
G00 X61.8750Y52.1000
G01 Z-0.0120
G01 X61.8750Y-0.8750
G01 X-0.8750Y-0.8750
G01 X-0.8750Y52.1000
G00 X-0.8750Y52.1000
G01 Z-0.0140
G01 X-0.8750Y-0.8750
G01 X61.8750Y-0.8750
G01 X61.8750Y52.1000
G00 X61.8750Y52.1000
G01 Z-0.0160
G01 X61.8750Y-0.8750
G01 X-0.8750Y-0.8750
G01 X-0.8750Y52.1000
G00 X-0.8750Y52.1000
G01 Z-0.0180
G01 X-0.8750Y-0.8750
G01 X61.8750Y-0.8750
G01 X61.8750Y52.1000
G00 X61.8750Y52.1000
G01 Z-0.0200
G01 X61.8750Y-0.8750
G01 X-0.8750Y-0.8750
G01 X-0.8750Y52.1000
G00 X-0.8750Y52.1000
G01 Z-0.0220
G01 X-0.8750Y-0.8750
G01 X61.8750Y-0.8750
G01 X61.8750Y52.1000
G00 X61.8750Y52.1000
G01 Z-0.0240
G01 X61.8750Y-0.8750
G01 X-0.8750Y-0.8750
G01 X-0.8750Y52.1000
G00 X-0.8750Y52.1000
G01 Z-0.0260
G01 X-0.8750Y-0.8750
G01 X61.8750Y-0.8750
G01 X61.8750Y52.1000
G00 X61.8750Y52.1000
G01 Z-0.0280
G01 X61.8750Y-0.8750
G01 X-0.8750Y-0.8750
G01 X-0.8750Y52.1000
G00 X-0.8750Y52.1000
G01 Z-0.0300
G01 X-0.8750Y-0.8750
G01 X61.8750Y-0.8750
G01 X61.8750Y52.1000
G00 X61.8750Y52.1000
G01 Z-0.0320
G01 X61.8750Y-0.8750
G01 X-0.8750Y-0.8750
G01 X-0.8750Y52.1000
G00 X-0.8750Y52.1000
G01 Z-0.0340
G01 X-0.8750Y-0.8750
G01 X61.8750Y-0.8750
G01 X61.8750Y52.1000
G00 X61.8750Y52.1000
G01 Z-0.0360
G01 X61.8750Y-0.8750
G01 X-0.8750Y-0.8750
G01 X-0.8750Y52.1000
G00 X-0.8750Y52.1000
G01 Z-0.0380
G01 X-0.8750Y-0.8750
G01 X61.8750Y-0.8750
G01 X61.8750Y52.1000
G00 X61.8750Y52.1000
G01 Z-0.0400
G01 X61.8750Y-0.8750
G01 X-0.8750Y-0.8750
G01 X-0.8750Y52.1000
G00 X-0.8750Y52.1000
G01 Z-0.0420
G01 X-0.8750Y-0.8750
G01 X61.8750Y-0.8750
G01 X61.8750Y52.1000
G00 X61.8750Y52.1000
G01 Z-0.0440
G01 X61.8750Y-0.8750
G01 X-0.8750Y-0.8750
G01 X-0.8750Y52.1000
G00 X-0.8750Y52.1000
G01 Z-0.0460
G01 X-0.8750Y-0.8750
G01 X61.8750Y-0.8750
G01 X61.8750Y52.1000
G00 X61.8750Y52.1000
G01 Z-0.0480
G01 X61.8750Y-0.8750
G01 X-0.8750Y-0.8750
G01 X-0.8750Y52.1000
G00 X-0.8750Y52.1000
G01 Z-0.0500
G01 X-0.8750Y-0.8750
G01 X61.8750Y-0.8750
G01 X61.8750Y52.1000
G00 X61.8750Y52.1000
G01 Z-0.0520
G01 X61.8750Y-0.8750
G01 X-0.8750Y-0.8750
G01 X-0.8750Y52.1000
G00 X-0.8750Y52.1000
G01 Z-0.0540
G01 X-0.8750Y-0.8750
G01 X61.8750Y-0.8750
G01 X61.8750Y52.1000
G00 X61.8750Y52.1000
G01 Z-0.0560
G01 X61.8750Y-0.8750
G01 X-0.8750Y-0.8750
G01 X-0.8750Y52.1000
G00 X-0.8750Y52.1000
G01 Z-0.0580
G01 X-0.8750Y-0.8750
G01 X61.8750Y-0.8750
G01 X61.8750Y52.1000
G00 X61.8750Y52.1000
G01 Z-0.0600
G01 X61.8750Y-0.8750
G01 X-0.8750Y-0.8750
G01 X-0.8750Y52.1000
G00 X-0.8750Y52.1000
G01 Z-0.0620
G01 X-0.8750Y-0.8750
G01 X61.8750Y-0.8750
G01 X61.8750Y52.1000
G00 X61.8750Y52.1000
G01 Z-0.0640
G01 X61.8750Y-0.8750
G01 X-0.8750Y-0.8750
G01 X-0.8750Y52.1000
G00 X-0.8750Y52.1000
G01 Z-0.0660
G01 X-0.8750Y-0.8750
G01 X61.8750Y-0.8750
G01 X61.8750Y52.1000
G00 X61.8750Y52.1000
G01 Z-0.0680
G01 X61.8750Y-0.8750
G01 X-0.8750Y-0.8750
G01 X-0.8750Y52.1000
G00 X-0.8750Y52.1000
G01 Z-0.0700
G01 X-0.8750Y-0.8750
G01 X61.8750Y-0.8750
G01 X61.8750Y52.1000
G00 X61.8750Y52.1000
G01 Z-0.0720
G01 X61.8750Y-0.8750
G01 X-0.8750Y-0.8750
G01 X-0.8750Y52.1000
G00 X-0.8750Y52.1000
G01 Z-0.0740
G01 X-0.8750Y-0.8750
G01 X61.8750Y-0.8750
G01 X61.8750Y52.1000
G00 X61.8750Y52.1000
G01 Z-0.0760
G01 X61.8750Y-0.8750
G01 X-0.8750Y-0.8750
G01 X-0.8750Y52.1000
G00 X-0.8750Y52.1000
G01 Z-0.0780
G01 X-0.8750Y-0.8750
G01 X61.8750Y-0.8750
G01 X61.8750Y52.1000
G00 X61.8750Y52.1000
G01 Z-0.0800
G01 X61.8750Y-0.8750
G01 X-0.8750Y-0.8750
G01 X-0.8750Y52.1000
G00 X-0.8750Y52.1000
G01 Z-0.0820
G01 X-0.8750Y-0.8750
G01 X61.8750Y-0.8750
G01 X61.8750Y52.1000
G00 X61.8750Y52.1000
G01 Z-0.0840
G01 X61.8750Y-0.8750
G01 X-0.8750Y-0.8750
G01 X-0.8750Y52.1000
G00 X-0.8750Y52.1000
G01 Z-0.0860
G01 X-0.8750Y-0.8750
G01 X61.8750Y-0.8750
G01 X61.8750Y52.1000
G00 X61.8750Y52.1000
G01 Z-0.0880
G01 X61.8750Y-0.8750
G01 X-0.8750Y-0.8750
G01 X-0.8750Y52.1000
G00 X-0.8750Y52.1000
G01 Z-0.0900
G01 X-0.8750Y-0.8750
G01 X61.8750Y-0.8750
G01 X61.8750Y52.1000
G00 X61.8750Y52.1000
G01 Z-0.0920
G01 X61.8750Y-0.8750
G01 X-0.8750Y-0.8750
G01 X-0.8750Y52.1000
G00 X-0.8750Y52.1000
G01 Z-0.0940
G01 X-0.8750Y-0.8750
G01 X61.8750Y-0.8750
G01 X61.8750Y52.1000
G00 X61.8750Y52.1000
G01 Z-0.0960
G01 X61.8750Y-0.8750
G01 X-0.8750Y-0.8750
G01 X-0.8750Y52.1000
G00 X-0.8750Y52.1000
G01 Z-0.0980
G01 X-0.8750Y-0.8750
G01 X61.8750Y-0.8750
G01 X61.8750Y52.1000
G00 X61.8750Y52.1000
G01 Z-0.1000
G01 X61.8750Y-0.8750
G01 X-0.8750Y-0.8750
G01 X-0.8750Y52.1000
G00 X-0.8750Y52.1000
G01 Z-0.1020
G01 X-0.8750Y-0.8750
G01 X61.8750Y-0.8750
G01 X61.8750Y52.1000
G00 X61.8750Y52.1000
G01 Z-0.1040
G01 X61.8750Y-0.8750
G01 X-0.8750Y-0.8750
G01 X-0.8750Y52.1000
G00 X-0.8750Y52.1000
G01 Z-0.1060
G01 X-0.8750Y-0.8750
G01 X61.8750Y-0.8750
G01 X61.8750Y52.1000
G00 X61.8750Y52.1000
G01 Z-0.1080
G01 X61.8750Y-0.8750
G01 X-0.8750Y-0.8750
G01 X-0.8750Y52.1000
G00 X-0.8750Y52.1000
G01 Z-0.1100
G01 X-0.8750Y-0.8750
G01 X61.8750Y-0.8750
G01 X61.8750Y52.1000
G00 X61.8750Y52.1000
G01 Z-0.1120
G01 X61.8750Y-0.8750
G01 X-0.8750Y-0.8750
G01 X-0.8750Y52.1000
G00 X-0.8750Y52.1000
G01 Z-0.1140
G01 X-0.8750Y-0.8750
G01 X61.8750Y-0.8750
G01 X61.8750Y52.1000
G00 X61.8750Y52.1000
G01 Z-0.1160
G01 X61.8750Y-0.8750
G01 X-0.8750Y-0.8750
G01 X-0.8750Y52.1000
G00 X-0.8750Y52.1000
G01 Z-0.1180
G01 X-0.8750Y-0.8750
G01 X61.8750Y-0.8750
G01 X61.8750Y52.1000
G00 X61.8750Y52.1000
G01 Z-0.1200
G01 X61.8750Y-0.8750
G01 X-0.8750Y-0.8750
G01 X-0.8750Y52.1000
G00 X-0.8750Y52.1000
G01 Z-0.1220
G01 X-0.8750Y-0.8750
G01 X61.8750Y-0.8750
G01 X61.8750Y52.1000
G00 X61.8750Y52.1000
G01 Z-0.1240
G01 X61.8750Y-0.8750
G01 X-0.8750Y-0.8750
G01 X-0.8750Y52.1000
G00 X-0.8750Y52.1000
G01 Z-0.1260
G01 X-0.8750Y-0.8750
G01 X61.8750Y-0.8750
G01 X61.8750Y52.1000
G00 X61.8750Y52.1000
G01 Z-0.1280
G01 X61.8750Y-0.8750
G01 X-0.8750Y-0.8750
G01 X-0.8750Y52.1000
G00 X-0.8750Y52.1000
G01 Z-0.1300
G01 X-0.8750Y-0.8750
G01 X61.8750Y-0.8750
G01 X61.8750Y52.1000
G00 X61.8750Y52.1000
G01 Z-0.1320
G01 X61.8750Y-0.8750
G01 X-0.8750Y-0.8750
G01 X-0.8750Y52.1000
G00 X-0.8750Y52.1000
G01 Z-0.1340
G01 X-0.8750Y-0.8750
G01 X61.8750Y-0.8750
G01 X61.8750Y52.1000
G00 X61.8750Y52.1000
G01 Z-0.1360
G01 X61.8750Y-0.8750
G01 X-0.8750Y-0.8750
G01 X-0.8750Y52.1000
G00 X-0.8750Y52.1000
G01 Z-0.1380
G01 X-0.8750Y-0.8750
G01 X61.8750Y-0.8750
G01 X61.8750Y52.1000
G00 X61.8750Y52.1000
G01 Z-0.1400
G01 X61.8750Y-0.8750
G01 X-0.8750Y-0.8750
G01 X-0.8750Y52.1000
G00 X-0.8750Y52.1000
G01 Z-0.1420
G01 X-0.8750Y-0.8750
G01 X61.8750Y-0.8750
G01 X61.8750Y52.1000
G00 X61.8750Y52.1000
G01 Z-0.1440
G01 X61.8750Y-0.8750
G01 X-0.8750Y-0.8750
G01 X-0.8750Y52.1000
G00 X-0.8750Y52.1000
G01 Z-0.1460
G01 X-0.8750Y-0.8750
G01 X61.8750Y-0.8750
G01 X61.8750Y52.1000
G00 X61.8750Y52.1000
G01 Z-0.1480
G01 X61.8750Y-0.8750
G01 X-0.8750Y-0.8750
G01 X-0.8750Y52.1000
G00 X-0.8750Y52.1000
G01 Z-0.1500
G01 X-0.8750Y-0.8750
G01 X61.8750Y-0.8750
G01 X61.8750Y52.1000
G00 X61.8750Y52.1000
G01 Z-0.1520
G01 X61.8750Y-0.8750
G01 X-0.8750Y-0.8750
G01 X-0.8750Y52.1000
G00 X-0.8750Y52.1000
G01 Z-0.1540
G01 X-0.8750Y-0.8750
G01 X61.8750Y-0.8750
G01 X61.8750Y52.1000
G00 X61.8750Y52.1000
G01 Z-0.1560
G01 X61.8750Y-0.8750
G01 X-0.8750Y-0.8750
G01 X-0.8750Y52.1000
G00 X-0.8750Y52.1000
G01 Z-0.1580
G01 X-0.8750Y-0.8750
G01 X61.8750Y-0.8750
G01 X61.8750Y52.1000
G00 X61.8750Y52.1000
G01 Z-0.1600
G01 X61.8750Y-0.8750
G01 X-0.8750Y-0.8750
G01 X-0.8750Y52.1000
G00 X-0.8750Y52.1000
G01 Z-0.1620
G01 X-0.8750Y-0.8750
G01 X61.8750Y-0.8750
G01 X61.8750Y52.1000
G00 X61.8750Y52.1000
G01 Z-0.1640
G01 X61.8750Y-0.8750
G01 X-0.8750Y-0.8750
G01 X-0.8750Y52.1000
G00 X-0.8750Y52.1000
G01 Z-0.1660
G01 X-0.8750Y-0.8750
G01 X61.8750Y-0.8750
G01 X61.8750Y52.1000
G00 X61.8750Y52.1000
G01 Z-0.1680
G01 X61.8750Y-0.8750
G01 X-0.8750Y-0.8750
G01 X-0.8750Y52.1000
G00 X-0.8750Y52.1000
G01 Z-0.1700
G01 X-0.8750Y-0.8750
G01 X61.8750Y-0.8750
G01 X61.8750Y52.1000
G00 X61.8750Y52.1000
G01 Z-0.1720
G01 X61.8750Y-0.8750
G01 X-0.8750Y-0.8750
G01 X-0.8750Y52.1000
G00 X-0.8750Y52.1000
G01 Z-0.1740
G01 X-0.8750Y-0.8750
G01 X61.8750Y-0.8750
G01 X61.8750Y52.1000
G00 X61.8750Y52.1000
G01 Z-0.1760
G01 X61.8750Y-0.8750
G01 X-0.8750Y-0.8750
G01 X-0.8750Y52.1000
G00 X-0.8750Y52.1000
G01 Z-0.1780
G01 X-0.8750Y-0.8750
G01 X61.8750Y-0.8750
G01 X61.8750Y52.1000
G00 X61.8750Y52.1000
G01 Z-0.1800
G01 X61.8750Y-0.8750
G01 X-0.8750Y-0.8750
G01 X-0.8750Y52.1000
G00 X-0.8750Y52.1000
G01 Z-0.1820
G01 X-0.8750Y-0.8750
G01 X61.8750Y-0.8750
G01 X61.8750Y52.1000
G00 X61.8750Y52.1000
G01 Z-0.1840
G01 X61.8750Y-0.8750
G01 X-0.8750Y-0.8750
G01 X-0.8750Y52.1000
G00 X-0.8750Y52.1000
G01 Z-0.1860
G01 X-0.8750Y-0.8750
G01 X61.8750Y-0.8750
G01 X61.8750Y52.1000
G00 X61.8750Y52.1000
G01 Z-0.1880
G01 X61.8750Y-0.8750
G01 X-0.8750Y-0.8750
G01 X-0.8750Y52.1000
G00 X-0.8750Y52.1000
G01 Z-0.1900
G01 X-0.8750Y-0.8750
G01 X61.8750Y-0.8750
G01 X61.8750Y52.1000
G00 X61.8750Y52.1000
G01 Z-0.1920
G01 X61.8750Y-0.8750
G01 X-0.8750Y-0.8750
G01 X-0.8750Y52.1000
G00 X-0.8750Y52.1000
G01 Z-0.1940
G01 X-0.8750Y-0.8750
G01 X61.8750Y-0.8750
G01 X61.8750Y52.1000
G00 X61.8750Y52.1000
G01 Z-0.1960
G01 X61.8750Y-0.8750
G01 X-0.8750Y-0.8750
G01 X-0.8750Y52.1000
G00 X-0.8750Y52.1000
G01 Z-0.1980
G01 X-0.8750Y-0.8750
G01 X61.8750Y-0.8750
G01 X61.8750Y52.1000
G00 X61.8750Y52.1000
G01 Z-0.2000
G01 X61.8750Y-0.8750
G01 X-0.8750Y-0.8750
G01 X-0.8750Y52.1000
G00 Z2.0000
G00 X-0.8750Y54.6000
G01 Z-0.0020
G01 X-0.8750Y107.5750
G01 X61.8750Y107.5750
G01 X61.8750Y54.6000
G00 X61.8750Y54.6000
G01 Z-0.0040
G01 X61.8750Y107.5750
G01 X-0.8750Y107.5750
G01 X-0.8750Y54.6000
G00 X-0.8750Y54.6000
G01 Z-0.0060
G01 X-0.8750Y107.5750
G01 X61.8750Y107.5750
G01 X61.8750Y54.6000
G00 X61.8750Y54.6000
G01 Z-0.0080
G01 X61.8750Y107.5750
G01 X-0.8750Y107.5750
G01 X-0.8750Y54.6000
G00 X-0.8750Y54.6000
G01 Z-0.0100
G01 X-0.8750Y107.5750
G01 X61.8750Y107.5750
G01 X61.8750Y54.6000
G00 X61.8750Y54.6000
G01 Z-0.0120
G01 X61.8750Y107.5750
G01 X-0.8750Y107.5750
G01 X-0.8750Y54.6000
G00 X-0.8750Y54.6000
G01 Z-0.0140
G01 X-0.8750Y107.5750
G01 X61.8750Y107.5750
G01 X61.8750Y54.6000
G00 X61.8750Y54.6000
G01 Z-0.0160
G01 X61.8750Y107.5750
G01 X-0.8750Y107.5750
G01 X-0.8750Y54.6000
G00 X-0.8750Y54.6000
G01 Z-0.0180
G01 X-0.8750Y107.5750
G01 X61.8750Y107.5750
G01 X61.8750Y54.6000
G00 X61.8750Y54.6000
G01 Z-0.0200
G01 X61.8750Y107.5750
G01 X-0.8750Y107.5750
G01 X-0.8750Y54.6000
G00 X-0.8750Y54.6000
G01 Z-0.0220
G01 X-0.8750Y107.5750
G01 X61.8750Y107.5750
G01 X61.8750Y54.6000
G00 X61.8750Y54.6000
G01 Z-0.0240
G01 X61.8750Y107.5750
G01 X-0.8750Y107.5750
G01 X-0.8750Y54.6000
G00 X-0.8750Y54.6000
G01 Z-0.0260
G01 X-0.8750Y107.5750
G01 X61.8750Y107.5750
G01 X61.8750Y54.6000
G00 X61.8750Y54.6000
G01 Z-0.0280
G01 X61.8750Y107.5750
G01 X-0.8750Y107.5750
G01 X-0.8750Y54.6000
G00 X-0.8750Y54.6000
G01 Z-0.0300
G01 X-0.8750Y107.5750
G01 X61.8750Y107.5750
G01 X61.8750Y54.6000
G00 X61.8750Y54.6000
G01 Z-0.0320
G01 X61.8750Y107.5750
G01 X-0.8750Y107.5750
G01 X-0.8750Y54.6000
G00 X-0.8750Y54.6000
G01 Z-0.0340
G01 X-0.8750Y107.5750
G01 X61.8750Y107.5750
G01 X61.8750Y54.6000
G00 X61.8750Y54.6000
G01 Z-0.0360
G01 X61.8750Y107.5750
G01 X-0.8750Y107.5750
G01 X-0.8750Y54.6000
G00 X-0.8750Y54.6000
G01 Z-0.0380
G01 X-0.8750Y107.5750
G01 X61.8750Y107.5750
G01 X61.8750Y54.6000
G00 X61.8750Y54.6000
G01 Z-0.0400
G01 X61.8750Y107.5750
G01 X-0.8750Y107.5750
G01 X-0.8750Y54.6000
G00 X-0.8750Y54.6000
G01 Z-0.0420
G01 X-0.8750Y107.5750
G01 X61.8750Y107.5750
G01 X61.8750Y54.6000
G00 X61.8750Y54.6000
G01 Z-0.0440
G01 X61.8750Y107.5750
G01 X-0.8750Y107.5750
G01 X-0.8750Y54.6000
G00 X-0.8750Y54.6000
G01 Z-0.0460
G01 X-0.8750Y107.5750
G01 X61.8750Y107.5750
G01 X61.8750Y54.6000
G00 X61.8750Y54.6000
G01 Z-0.0480
G01 X61.8750Y107.5750
G01 X-0.8750Y107.5750
G01 X-0.8750Y54.6000
G00 X-0.8750Y54.6000
G01 Z-0.0500
G01 X-0.8750Y107.5750
G01 X61.8750Y107.5750
G01 X61.8750Y54.6000
G00 X61.8750Y54.6000
G01 Z-0.0520
G01 X61.8750Y107.5750
G01 X-0.8750Y107.5750
G01 X-0.8750Y54.6000
G00 X-0.8750Y54.6000
G01 Z-0.0540
G01 X-0.8750Y107.5750
G01 X61.8750Y107.5750
G01 X61.8750Y54.6000
G00 X61.8750Y54.6000
G01 Z-0.0560
G01 X61.8750Y107.5750
G01 X-0.8750Y107.5750
G01 X-0.8750Y54.6000
G00 X-0.8750Y54.6000
G01 Z-0.0580
G01 X-0.8750Y107.5750
G01 X61.8750Y107.5750
G01 X61.8750Y54.6000
G00 X61.8750Y54.6000
G01 Z-0.0600
G01 X61.8750Y107.5750
G01 X-0.8750Y107.5750
G01 X-0.8750Y54.6000
G00 X-0.8750Y54.6000
G01 Z-0.0620
G01 X-0.8750Y107.5750
G01 X61.8750Y107.5750
G01 X61.8750Y54.6000
G00 X61.8750Y54.6000
G01 Z-0.0640
G01 X61.8750Y107.5750
G01 X-0.8750Y107.5750
G01 X-0.8750Y54.6000
G00 X-0.8750Y54.6000
G01 Z-0.0660
G01 X-0.8750Y107.5750
G01 X61.8750Y107.5750
G01 X61.8750Y54.6000
G00 X61.8750Y54.6000
G01 Z-0.0680
G01 X61.8750Y107.5750
G01 X-0.8750Y107.5750
G01 X-0.8750Y54.6000
G00 X-0.8750Y54.6000
G01 Z-0.0700
G01 X-0.8750Y107.5750
G01 X61.8750Y107.5750
G01 X61.8750Y54.6000
G00 X61.8750Y54.6000
G01 Z-0.0720
G01 X61.8750Y107.5750
G01 X-0.8750Y107.5750
G01 X-0.8750Y54.6000
G00 X-0.8750Y54.6000
G01 Z-0.0740
G01 X-0.8750Y107.5750
G01 X61.8750Y107.5750
G01 X61.8750Y54.6000
G00 X61.8750Y54.6000
G01 Z-0.0760
G01 X61.8750Y107.5750
G01 X-0.8750Y107.5750
G01 X-0.8750Y54.6000
G00 X-0.8750Y54.6000
G01 Z-0.0780
G01 X-0.8750Y107.5750
G01 X61.8750Y107.5750
G01 X61.8750Y54.6000
G00 X61.8750Y54.6000
G01 Z-0.0800
G01 X61.8750Y107.5750
G01 X-0.8750Y107.5750
G01 X-0.8750Y54.6000
G00 X-0.8750Y54.6000
G01 Z-0.0820
G01 X-0.8750Y107.5750
G01 X61.8750Y107.5750
G01 X61.8750Y54.6000
G00 X61.8750Y54.6000
G01 Z-0.0840
G01 X61.8750Y107.5750
G01 X-0.8750Y107.5750
G01 X-0.8750Y54.6000
G00 X-0.8750Y54.6000
G01 Z-0.0860
G01 X-0.8750Y107.5750
G01 X61.8750Y107.5750
G01 X61.8750Y54.6000
G00 X61.8750Y54.6000
G01 Z-0.0880
G01 X61.8750Y107.5750
G01 X-0.8750Y107.5750
G01 X-0.8750Y54.6000
G00 X-0.8750Y54.6000
G01 Z-0.0900
G01 X-0.8750Y107.5750
G01 X61.8750Y107.5750
G01 X61.8750Y54.6000
G00 X61.8750Y54.6000
G01 Z-0.0920
G01 X61.8750Y107.5750
G01 X-0.8750Y107.5750
G01 X-0.8750Y54.6000
G00 X-0.8750Y54.6000
G01 Z-0.0940
G01 X-0.8750Y107.5750
G01 X61.8750Y107.5750
G01 X61.8750Y54.6000
G00 X61.8750Y54.6000
G01 Z-0.0960
G01 X61.8750Y107.5750
G01 X-0.8750Y107.5750
G01 X-0.8750Y54.6000
G00 X-0.8750Y54.6000
G01 Z-0.0980
G01 X-0.8750Y107.5750
G01 X61.8750Y107.5750
G01 X61.8750Y54.6000
G00 X61.8750Y54.6000
G01 Z-0.1000
G01 X61.8750Y107.5750
G01 X-0.8750Y107.5750
G01 X-0.8750Y54.6000
G00 X-0.8750Y54.6000
G01 Z-0.1020
G01 X-0.8750Y107.5750
G01 X61.8750Y107.5750
G01 X61.8750Y54.6000
G00 X61.8750Y54.6000
G01 Z-0.1040
G01 X61.8750Y107.5750
G01 X-0.8750Y107.5750
G01 X-0.8750Y54.6000
G00 X-0.8750Y54.6000
G01 Z-0.1060
G01 X-0.8750Y107.5750
G01 X61.8750Y107.5750
G01 X61.8750Y54.6000
G00 X61.8750Y54.6000
G01 Z-0.1080
G01 X61.8750Y107.5750
G01 X-0.8750Y107.5750
G01 X-0.8750Y54.6000
G00 X-0.8750Y54.6000
G01 Z-0.1100
G01 X-0.8750Y107.5750
G01 X61.8750Y107.5750
G01 X61.8750Y54.6000
G00 X61.8750Y54.6000
G01 Z-0.1120
G01 X61.8750Y107.5750
G01 X-0.8750Y107.5750
G01 X-0.8750Y54.6000
G00 X-0.8750Y54.6000
G01 Z-0.1140
G01 X-0.8750Y107.5750
G01 X61.8750Y107.5750
G01 X61.8750Y54.6000
G00 X61.8750Y54.6000
G01 Z-0.1160
G01 X61.8750Y107.5750
G01 X-0.8750Y107.5750
G01 X-0.8750Y54.6000
G00 X-0.8750Y54.6000
G01 Z-0.1180
G01 X-0.8750Y107.5750
G01 X61.8750Y107.5750
G01 X61.8750Y54.6000
G00 X61.8750Y54.6000
G01 Z-0.1200
G01 X61.8750Y107.5750
G01 X-0.8750Y107.5750
G01 X-0.8750Y54.6000
G00 X-0.8750Y54.6000
G01 Z-0.1220
G01 X-0.8750Y107.5750
G01 X61.8750Y107.5750
G01 X61.8750Y54.6000
G00 X61.8750Y54.6000
G01 Z-0.1240
G01 X61.8750Y107.5750
G01 X-0.8750Y107.5750
G01 X-0.8750Y54.6000
G00 X-0.8750Y54.6000
G01 Z-0.1260
G01 X-0.8750Y107.5750
G01 X61.8750Y107.5750
G01 X61.8750Y54.6000
G00 X61.8750Y54.6000
G01 Z-0.1280
G01 X61.8750Y107.5750
G01 X-0.8750Y107.5750
G01 X-0.8750Y54.6000
G00 X-0.8750Y54.6000
G01 Z-0.1300
G01 X-0.8750Y107.5750
G01 X61.8750Y107.5750
G01 X61.8750Y54.6000
G00 X61.8750Y54.6000
G01 Z-0.1320
G01 X61.8750Y107.5750
G01 X-0.8750Y107.5750
G01 X-0.8750Y54.6000
G00 X-0.8750Y54.6000
G01 Z-0.1340
G01 X-0.8750Y107.5750
G01 X61.8750Y107.5750
G01 X61.8750Y54.6000
G00 X61.8750Y54.6000
G01 Z-0.1360
G01 X61.8750Y107.5750
G01 X-0.8750Y107.5750
G01 X-0.8750Y54.6000
G00 X-0.8750Y54.6000
G01 Z-0.1380
G01 X-0.8750Y107.5750
G01 X61.8750Y107.5750
G01 X61.8750Y54.6000
G00 X61.8750Y54.6000
G01 Z-0.1400
G01 X61.8750Y107.5750
G01 X-0.8750Y107.5750
G01 X-0.8750Y54.6000
G00 X-0.8750Y54.6000
G01 Z-0.1420
G01 X-0.8750Y107.5750
G01 X61.8750Y107.5750
G01 X61.8750Y54.6000
G00 X61.8750Y54.6000
G01 Z-0.1440
G01 X61.8750Y107.5750
G01 X-0.8750Y107.5750
G01 X-0.8750Y54.6000
G00 X-0.8750Y54.6000
G01 Z-0.1460
G01 X-0.8750Y107.5750
G01 X61.8750Y107.5750
G01 X61.8750Y54.6000
G00 X61.8750Y54.6000
G01 Z-0.1480
G01 X61.8750Y107.5750
G01 X-0.8750Y107.5750
G01 X-0.8750Y54.6000
G00 X-0.8750Y54.6000
G01 Z-0.1500
G01 X-0.8750Y107.5750
G01 X61.8750Y107.5750
G01 X61.8750Y54.6000
G00 X61.8750Y54.6000
G01 Z-0.1520
G01 X61.8750Y107.5750
G01 X-0.8750Y107.5750
G01 X-0.8750Y54.6000
G00 X-0.8750Y54.6000
G01 Z-0.1540
G01 X-0.8750Y107.5750
G01 X61.8750Y107.5750
G01 X61.8750Y54.6000
G00 X61.8750Y54.6000
G01 Z-0.1560
G01 X61.8750Y107.5750
G01 X-0.8750Y107.5750
G01 X-0.8750Y54.6000
G00 X-0.8750Y54.6000
G01 Z-0.1580
G01 X-0.8750Y107.5750
G01 X61.8750Y107.5750
G01 X61.8750Y54.6000
G00 X61.8750Y54.6000
G01 Z-0.1600
G01 X61.8750Y107.5750
G01 X-0.8750Y107.5750
G01 X-0.8750Y54.6000
G00 X-0.8750Y54.6000
G01 Z-0.1620
G01 X-0.8750Y107.5750
G01 X61.8750Y107.5750
G01 X61.8750Y54.6000
G00 X61.8750Y54.6000
G01 Z-0.1640
G01 X61.8750Y107.5750
G01 X-0.8750Y107.5750
G01 X-0.8750Y54.6000
G00 X-0.8750Y54.6000
G01 Z-0.1660
G01 X-0.8750Y107.5750
G01 X61.8750Y107.5750
G01 X61.8750Y54.6000
G00 X61.8750Y54.6000
G01 Z-0.1680
G01 X61.8750Y107.5750
G01 X-0.8750Y107.5750
G01 X-0.8750Y54.6000
G00 X-0.8750Y54.6000
G01 Z-0.1700
G01 X-0.8750Y107.5750
G01 X61.8750Y107.5750
G01 X61.8750Y54.6000
G00 X61.8750Y54.6000
G01 Z-0.1720
G01 X61.8750Y107.5750
G01 X-0.8750Y107.5750
G01 X-0.8750Y54.6000
G00 X-0.8750Y54.6000
G01 Z-0.1740
G01 X-0.8750Y107.5750
G01 X61.8750Y107.5750
G01 X61.8750Y54.6000
G00 X61.8750Y54.6000
G01 Z-0.1760
G01 X61.8750Y107.5750
G01 X-0.8750Y107.5750
G01 X-0.8750Y54.6000
G00 X-0.8750Y54.6000
G01 Z-0.1780
G01 X-0.8750Y107.5750
G01 X61.8750Y107.5750
G01 X61.8750Y54.6000
G00 X61.8750Y54.6000
G01 Z-0.1800
G01 X61.8750Y107.5750
G01 X-0.8750Y107.5750
G01 X-0.8750Y54.6000
G00 X-0.8750Y54.6000
G01 Z-0.1820
G01 X-0.8750Y107.5750
G01 X61.8750Y107.5750
G01 X61.8750Y54.6000
G00 X61.8750Y54.6000
G01 Z-0.1840
G01 X61.8750Y107.5750
G01 X-0.8750Y107.5750
G01 X-0.8750Y54.6000
G00 X-0.8750Y54.6000
G01 Z-0.1860
G01 X-0.8750Y107.5750
G01 X61.8750Y107.5750
G01 X61.8750Y54.6000
G00 X61.8750Y54.6000
G01 Z-0.1880
G01 X61.8750Y107.5750
G01 X-0.8750Y107.5750
G01 X-0.8750Y54.6000
G00 X-0.8750Y54.6000
G01 Z-0.1900
G01 X-0.8750Y107.5750
G01 X61.8750Y107.5750
G01 X61.8750Y54.6000
G00 X61.8750Y54.6000
G01 Z-0.1920
G01 X61.8750Y107.5750
G01 X-0.8750Y107.5750
G01 X-0.8750Y54.6000
G00 X-0.8750Y54.6000
G01 Z-0.1940
G01 X-0.8750Y107.5750
G01 X61.8750Y107.5750
G01 X61.8750Y54.6000
G00 X61.8750Y54.6000
G01 Z-0.1960
G01 X61.8750Y107.5750
G01 X-0.8750Y107.5750
G01 X-0.8750Y54.6000
G00 X-0.8750Y54.6000
G01 Z-0.1980
G01 X-0.8750Y107.5750
G01 X61.8750Y107.5750
G01 X61.8750Y54.6000
G00 X61.8750Y54.6000
G01 Z-0.2000
G01 X61.8750Y107.5750
G01 X-0.8750Y107.5750
G01 X-0.8750Y54.6000
G00 Z2.0000
G00 Z2.0000
G00 X0Y0
M05
M30