%TF.GenerationSoftware,KiCad,Pcbnew,6.0.4-6f826c9f35~116~ubuntu20.04.1*%
%TF.CreationDate,2022-04-14T17:33:40+03:00*%
%TF.ProjectId,NanoMotors,4e616e6f-4d6f-4746-9f72-732e6b696361,rev?*%
%TF.SameCoordinates,PX44114b0PY99df1d0*%
%TF.FileFunction,Profile,NP*%
%FSLAX46Y46*%
G04 Gerber Fmt 4.6, Leading zero omitted, Abs format (unit mm)*
G04 Created by KiCad (PCBNEW 6.0.4-6f826c9f35~116~ubuntu20.04.1) date 2022-04-14 17:33:40*
%MOMM*%
%LPD*%
G01*
G04 APERTURE LIST*
%TA.AperFunction,Profile*%
%ADD10C,0.050000*%
%TD*%
G04 APERTURE END LIST*
D10*
X0Y106700000D02*
X61000000Y106700000D01*
X61000000Y106700000D02*
X61000000Y0D01*
X61000000Y0D02*
X0Y0D01*
X0Y0D02*
X0Y106700000D01*
M02*
