EESchema Schematic File Version 4
EELAYER 30 0
EELAYER END
$Descr A4 11693 8268
encoding utf-8
Sheet 1 1
Title ""
Date ""
Rev ""
Comp ""
Comment1 ""
Comment2 ""
Comment3 ""
Comment4 ""
$EndDescr
$Comp
L Device:R R6
U 1 1 5F86AA5A
P 3750 2000
F 0 "R6" H 3820 2046 50  0000 L CNN
F 1 "1K" H 3820 1955 50  0000 L CNN
F 2 "" V 3680 2000 50  0001 C CNN
F 3 "~" H 3750 2000 50  0001 C CNN
F 4 "~" H 3750 2000 50  0001 C CNN "Datasheet"
F 5 "R6" H 3750 2000 50  0001 C CNN "Reference"
F 6 "1K" H 3750 2000 50  0001 C CNN "Value"
	1    3750 2000
	1    0    0    -1  
$EndComp
$Comp
L power:+9V #PWR09
U 1 1 5F86B4E8
P 3750 1150
F 0 "#PWR09" H 3750 1000 50  0001 C CNN
F 1 "+9V" H 3765 1323 50  0000 C CNN
F 2 "" H 3750 1150 50  0001 C CNN
F 3 "" H 3750 1150 50  0001 C CNN
	1    3750 1150
	1    0    0    -1  
$EndComp
$Comp
L Switch:SW_DPST_x2 SW3
U 1 1 5F86C569
P 3750 1500
F 0 "SW3" V 3704 1598 50  0000 L CNN
F 1 "SW_DPST_x2" V 3795 1598 50  0001 L CNN
F 2 "" H 3750 1500 50  0001 C CNN
F 3 "~" H 3750 1500 50  0001 C CNN
F 4 "~" H 3750 1500 50  0001 C CNN "Datasheet"
F 5 "SW3" H 3750 1500 50  0001 C CNN "Reference"
F 6 "SW_DPST_x2" H 3750 1500 50  0001 C CNN "Value"
	1    3750 1500
	0    1    1    0   
$EndComp
$Comp
L power:Earth #PWR010
U 1 1 5F86B66E
P 3750 2850
F 0 "#PWR010" H 3750 2600 50  0001 C CNN
F 1 "Earth" H 3750 2700 50  0001 C CNN
F 2 "" H 3750 2850 50  0001 C CNN
F 3 "~" H 3750 2850 50  0001 C CNN
	1    3750 2850
	1    0    0    -1  
$EndComp
$Comp
L Device:LED D5
U 1 1 5F86BA79
P 3750 2450
F 0 "D5" V 3789 2332 50  0000 R CNN
F 1 "LED" V 3698 2332 50  0000 R CNN
F 2 "" H 3750 2450 50  0001 C CNN
F 3 "~" H 3750 2450 50  0001 C CNN
F 4 "~" H 3750 2450 50  0001 C CNN "Datasheet"
F 5 "D5" H 3750 2450 50  0001 C CNN "Reference"
F 6 "LED" H 3750 2450 50  0001 C CNN "Value"
	1    3750 2450
	0    -1   -1   0   
$EndComp
Wire Wire Line
	3750 2600 3750 2700
Wire Wire Line
	3750 2150 3750 2300
Wire Wire Line
	3750 1700 3750 1850
Wire Wire Line
	3750 1150 3750 1200
$Comp
L Device:R R3
U 1 1 5F870732
P 2100 1550
F 0 "R3" V 2200 1500 50  0000 L CNN
F 1 "1K" V 2100 1500 50  0000 L CNN
F 2 "" V 2030 1550 50  0001 C CNN
F 3 "~" H 2100 1550 50  0001 C CNN
F 4 "~" H 2100 1550 50  0001 C CNN "Datasheet"
F 5 "R3" H 2100 1550 50  0001 C CNN "Reference"
F 6 "1K" H 2100 1550 50  0001 C CNN "Value"
	1    2100 1550
	0    -1   -1   0   
$EndComp
$Comp
L power:+9V #PWR03
U 1 1 5F870738
P 1250 1550
F 0 "#PWR03" H 1250 1400 50  0001 C CNN
F 1 "+9V" V 1350 1600 50  0000 C CNN
F 2 "" H 1250 1550 50  0001 C CNN
F 3 "" H 1250 1550 50  0001 C CNN
	1    1250 1550
	0    -1   -1   0   
$EndComp
$Comp
L Switch:SW_DPST_x2 SW1
U 2 1 5F87073E
P 1600 1550
F 0 "SW1" H 1600 1700 50  0000 L CNN
F 1 "SW_DPST_x2" V 1645 1648 50  0001 L CNN
F 2 "" H 1600 1550 50  0001 C CNN
F 3 "~" H 1600 1550 50  0001 C CNN
F 4 "~" H 1600 1550 50  0001 C CNN "Datasheet"
F 5 "SW1" H 1600 1550 50  0001 C CNN "Reference"
F 6 "SW_DPST_x2" H 1600 1550 50  0001 C CNN "Value"
	2    1600 1550
	1    0    0    -1  
$EndComp
$Comp
L power:Earth #PWR06
U 1 1 5F870744
P 2850 1550
F 0 "#PWR06" H 2850 1300 50  0001 C CNN
F 1 "Earth" H 2850 1400 50  0001 C CNN
F 2 "" H 2850 1550 50  0001 C CNN
F 3 "~" H 2850 1550 50  0001 C CNN
	1    2850 1550
	0    -1   -1   0   
$EndComp
$Comp
L Device:LED D3
U 1 1 5F87074A
P 2550 1550
F 0 "D3" H 2600 1400 50  0000 R CNN
F 1 "LED" H 2600 1700 50  0000 R CNN
F 2 "" H 2550 1550 50  0001 C CNN
F 3 "~" H 2550 1550 50  0001 C CNN
F 4 "~" H 2550 1550 50  0001 C CNN "Datasheet"
F 5 "D3" H 2550 1550 50  0001 C CNN "Reference"
F 6 "LED" H 2550 1550 50  0001 C CNN "Value"
	1    2550 1550
	-1   0    0    1   
$EndComp
Wire Wire Line
	2700 1550 2850 1550
Wire Wire Line
	2250 1550 2400 1550
Wire Wire Line
	1800 1550 1950 1550
Wire Wire Line
	1250 1550 1400 1550
$Comp
L Device:R R8
U 1 1 5F87C215
P 4450 2000
F 0 "R8" H 4520 2046 50  0000 L CNN
F 1 "1K" H 4520 1955 50  0000 L CNN
F 2 "" V 4380 2000 50  0001 C CNN
F 3 "~" H 4450 2000 50  0001 C CNN
F 4 "~" H 4450 2000 50  0001 C CNN "Datasheet"
F 5 "R8" H 4450 2000 50  0001 C CNN "Reference"
F 6 "1K" H 4450 2000 50  0001 C CNN "Value"
	1    4450 2000
	1    0    0    -1  
$EndComp
$Comp
L Switch:SW_DPST_x2 SW3
U 2 1 5F87C221
P 4450 1500
F 0 "SW3" V 4404 1598 50  0000 L CNN
F 1 "SW_DPST_x2" V 4495 1598 50  0001 L CNN
F 2 "" H 4450 1500 50  0001 C CNN
F 3 "~" H 4450 1500 50  0001 C CNN
F 4 "~" H 4450 1500 50  0001 C CNN "Datasheet"
F 5 "SW3" H 4450 1500 50  0001 C CNN "Reference"
F 6 "SW_DPST_x2" H 4450 1500 50  0001 C CNN "Value"
	2    4450 1500
	0    1    1    0   
$EndComp
$Comp
L Device:LED D8
U 1 1 5F87C22D
P 4450 2450
F 0 "D8" V 4489 2332 50  0000 R CNN
F 1 "LED" V 4398 2332 50  0000 R CNN
F 2 "" H 4450 2450 50  0001 C CNN
F 3 "~" H 4450 2450 50  0001 C CNN
F 4 "~" H 4450 2450 50  0001 C CNN "Datasheet"
F 5 "D8" H 4450 2450 50  0001 C CNN "Reference"
F 6 "LED" H 4450 2450 50  0001 C CNN "Value"
	1    4450 2450
	0    -1   -1   0   
$EndComp
Wire Wire Line
	4450 2150 4450 2300
Wire Wire Line
	4450 1700 4450 1850
$Comp
L Device:R R9
U 1 1 5F87CE67
P 5100 2000
F 0 "R9" H 5170 2046 50  0000 L CNN
F 1 "1K" H 5170 1955 50  0000 L CNN
F 2 "" V 5030 2000 50  0001 C CNN
F 3 "~" H 5100 2000 50  0001 C CNN
F 4 "~" H 5100 2000 50  0001 C CNN "Datasheet"
F 5 "R9" H 5100 2000 50  0001 C CNN "Reference"
F 6 "1K" H 5100 2000 50  0001 C CNN "Value"
	1    5100 2000
	1    0    0    -1  
$EndComp
$Comp
L Switch:SW_DPST_x2 SW4
U 1 1 5F87CE73
P 5100 1500
F 0 "SW4" V 5054 1598 50  0000 L CNN
F 1 "SW_DPST_x2" V 5145 1598 50  0001 L CNN
F 2 "" H 5100 1500 50  0001 C CNN
F 3 "~" H 5100 1500 50  0001 C CNN
F 4 "~" H 5100 1500 50  0001 C CNN "Datasheet"
F 5 "SW4" H 5100 1500 50  0001 C CNN "Reference"
F 6 "SW_DPST_x2" H 5100 1500 50  0001 C CNN "Value"
	1    5100 1500
	0    1    1    0   
$EndComp
$Comp
L Device:LED D9
U 1 1 5F87CE7F
P 5100 2450
F 0 "D9" V 5139 2332 50  0000 R CNN
F 1 "LED" V 5048 2332 50  0000 R CNN
F 2 "" H 5100 2450 50  0001 C CNN
F 3 "~" H 5100 2450 50  0001 C CNN
F 4 "~" H 5100 2450 50  0001 C CNN "Datasheet"
F 5 "D9" H 5100 2450 50  0001 C CNN "Reference"
F 6 "LED" H 5100 2450 50  0001 C CNN "Value"
	1    5100 2450
	0    -1   -1   0   
$EndComp
Wire Wire Line
	5100 2150 5100 2300
Wire Wire Line
	5100 1700 5100 1850
Wire Wire Line
	3750 1200 4450 1200
Wire Wire Line
	5100 1200 5100 1300
Connection ~ 3750 1200
Wire Wire Line
	3750 1200 3750 1300
Wire Wire Line
	4450 1300 4450 1200
Connection ~ 4450 1200
Wire Wire Line
	4450 1200 5100 1200
Wire Wire Line
	3750 2700 4450 2700
Wire Wire Line
	5100 2700 5100 2600
Connection ~ 3750 2700
Wire Wire Line
	4450 2700 4450 2600
Connection ~ 4450 2700
Wire Wire Line
	4450 2700 5100 2700
Wire Wire Line
	3750 2700 3750 2850
$Comp
L Device:R R11
U 1 1 5F88279A
P 6850 1950
F 0 "R11" V 6950 1900 50  0000 L CNN
F 1 "1K" V 6750 1900 50  0000 L CNN
F 2 "" V 6780 1950 50  0001 C CNN
F 3 "~" H 6850 1950 50  0001 C CNN
F 4 "~" H 6850 1950 50  0001 C CNN "Datasheet"
F 5 "R11" H 6850 1950 50  0001 C CNN "Reference"
F 6 "1K" H 6850 1950 50  0001 C CNN "Value"
	1    6850 1950
	0    -1   -1   0   
$EndComp
$Comp
L power:+9V #PWR012
U 1 1 5F8827A0
P 6000 1950
F 0 "#PWR012" H 6000 1800 50  0001 C CNN
F 1 "+9V" V 6100 2000 50  0000 C CNN
F 2 "" H 6000 1950 50  0001 C CNN
F 3 "" H 6000 1950 50  0001 C CNN
	1    6000 1950
	0    -1   -1   0   
$EndComp
$Comp
L Switch:SW_DPST_x2 SW4
U 2 1 5F8827A6
P 6350 1950
F 0 "SW4" H 6350 2100 50  0000 L CNN
F 1 "SW_DPST_x2" V 6395 2048 50  0001 L CNN
F 2 "" H 6350 1950 50  0001 C CNN
F 3 "~" H 6350 1950 50  0001 C CNN
F 4 "~" H 6350 1950 50  0001 C CNN "Datasheet"
F 5 "SW4" H 6350 1950 50  0001 C CNN "Reference"
F 6 "SW_DPST_x2" H 6350 1950 50  0001 C CNN "Value"
	2    6350 1950
	1    0    0    -1  
$EndComp
$Comp
L power:Earth #PWR016
U 1 1 5F8827AC
P 8050 1950
F 0 "#PWR016" H 8050 1700 50  0001 C CNN
F 1 "Earth" H 8050 1800 50  0001 C CNN
F 2 "" H 8050 1950 50  0001 C CNN
F 3 "~" H 8050 1950 50  0001 C CNN
	1    8050 1950
	0    -1   -1   0   
$EndComp
$Comp
L Device:LED D12
U 1 1 5F8827B2
P 7750 1950
F 0 "D12" H 7800 1800 50  0000 R CNN
F 1 "LED" H 7800 2100 50  0000 R CNN
F 2 "" H 7750 1950 50  0001 C CNN
F 3 "~" H 7750 1950 50  0001 C CNN
F 4 "~" H 7750 1950 50  0001 C CNN "Datasheet"
F 5 "D12" H 7750 1950 50  0001 C CNN "Reference"
F 6 "LED" H 7750 1950 50  0001 C CNN "Value"
	1    7750 1950
	-1   0    0    1   
$EndComp
Wire Wire Line
	7900 1950 8050 1950
Wire Wire Line
	6550 1950 6700 1950
Wire Wire Line
	6000 1950 6150 1950
$Comp
L Device:R R13
U 1 1 5F885072
P 7300 1750
F 0 "R13" V 7400 1700 50  0000 L CNN
F 1 "1K" V 7200 1700 50  0000 L CNN
F 2 "" V 7230 1750 50  0001 C CNN
F 3 "~" H 7300 1750 50  0001 C CNN
F 4 "~" H 7300 1750 50  0001 C CNN "Datasheet"
F 5 "R13" H 7300 1750 50  0001 C CNN "Reference"
F 6 "1K" H 7300 1750 50  0001 C CNN "Value"
	1    7300 1750
	0    -1   -1   0   
$EndComp
$Comp
L Device:R R14
U 1 1 5F8852E0
P 7300 2150
F 0 "R14" V 7400 2100 50  0000 L CNN
F 1 "1K" V 7200 2100 50  0000 L CNN
F 2 "" V 7230 2150 50  0001 C CNN
F 3 "~" H 7300 2150 50  0001 C CNN
F 4 "~" H 7300 2150 50  0001 C CNN "Datasheet"
F 5 "R14" H 7300 2150 50  0001 C CNN "Reference"
F 6 "1K" H 7300 2150 50  0001 C CNN "Value"
	1    7300 2150
	0    -1   -1   0   
$EndComp
Wire Wire Line
	7150 1750 7100 1750
Wire Wire Line
	7100 1750 7100 1950
Wire Wire Line
	7100 2150 7150 2150
Wire Wire Line
	7450 1750 7500 1750
Wire Wire Line
	7500 1750 7500 1950
Wire Wire Line
	7500 2150 7450 2150
Wire Wire Line
	7600 1950 7500 1950
Connection ~ 7500 1950
Wire Wire Line
	7500 1950 7500 2150
Wire Wire Line
	7000 1950 7100 1950
Connection ~ 7100 1950
Wire Wire Line
	7100 1950 7100 2150
$Comp
L Device:R R17
U 1 1 5F88B1BE
P 9500 1950
F 0 "R17" V 9600 1900 50  0000 L CNN
F 1 "1K" V 9400 1900 50  0000 L CNN
F 2 "" V 9430 1950 50  0001 C CNN
F 3 "~" H 9500 1950 50  0001 C CNN
F 4 "~" H 9500 1950 50  0001 C CNN "Datasheet"
F 5 "R17" H 9500 1950 50  0001 C CNN "Reference"
F 6 "1K" H 9500 1950 50  0001 C CNN "Value"
	1    9500 1950
	0    -1   -1   0   
$EndComp
$Comp
L power:+9V #PWR017
U 1 1 5F88B1C4
P 8650 1950
F 0 "#PWR017" H 8650 1800 50  0001 C CNN
F 1 "+9V" V 8750 2000 50  0000 C CNN
F 2 "" H 8650 1950 50  0001 C CNN
F 3 "" H 8650 1950 50  0001 C CNN
	1    8650 1950
	0    -1   -1   0   
$EndComp
$Comp
L Switch:SW_DPST_x2 SW6
U 2 1 5F88B1CA
P 9000 1950
F 0 "SW6" H 9000 2100 50  0000 L CNN
F 1 "SW_DPST_x2" V 9045 2048 50  0001 L CNN
F 2 "" H 9000 1950 50  0001 C CNN
F 3 "~" H 9000 1950 50  0001 C CNN
F 4 "~" H 9000 1950 50  0001 C CNN "Datasheet"
F 5 "SW6" H 9000 1950 50  0001 C CNN "Reference"
F 6 "SW_DPST_x2" H 9000 1950 50  0001 C CNN "Value"
	2    9000 1950
	1    0    0    -1  
$EndComp
$Comp
L power:Earth #PWR020
U 1 1 5F88B1D0
P 10700 1950
F 0 "#PWR020" H 10700 1700 50  0001 C CNN
F 1 "Earth" H 10700 1800 50  0001 C CNN
F 2 "" H 10700 1950 50  0001 C CNN
F 3 "~" H 10700 1950 50  0001 C CNN
	1    10700 1950
	0    -1   -1   0   
$EndComp
$Comp
L Device:LED D17
U 1 1 5F88B1D6
P 10400 1950
F 0 "D17" H 10450 1800 50  0000 R CNN
F 1 "LED" H 10450 2100 50  0000 R CNN
F 2 "" H 10400 1950 50  0001 C CNN
F 3 "~" H 10400 1950 50  0001 C CNN
F 4 "~" H 10400 1950 50  0001 C CNN "Datasheet"
F 5 "D17" H 10400 1950 50  0001 C CNN "Reference"
F 6 "LED" H 10400 1950 50  0001 C CNN "Value"
	1    10400 1950
	-1   0    0    1   
$EndComp
Wire Wire Line
	10550 1950 10700 1950
Wire Wire Line
	9200 1950 9350 1950
Wire Wire Line
	8650 1950 8800 1950
Wire Wire Line
	9800 1750 9750 1750
Wire Wire Line
	9750 1750 9750 1950
Wire Wire Line
	9750 2150 9800 2150
Wire Wire Line
	10100 1750 10150 1750
Wire Wire Line
	10150 1750 10150 1950
Wire Wire Line
	10150 2150 10100 2150
Wire Wire Line
	10250 1950 10150 1950
Connection ~ 10150 1950
Wire Wire Line
	10150 1950 10150 2150
Wire Wire Line
	9650 1950 9750 1950
Connection ~ 9750 1950
Wire Wire Line
	9750 1950 9750 2150
$Comp
L Device:LED D15
U 1 1 5F88BB9D
P 9950 1750
F 0 "D15" H 10000 1600 50  0000 R CNN
F 1 "LED" H 10000 1900 50  0000 R CNN
F 2 "" H 9950 1750 50  0001 C CNN
F 3 "~" H 9950 1750 50  0001 C CNN
F 4 "~" H 9950 1750 50  0001 C CNN "Datasheet"
F 5 "D15" H 9950 1750 50  0001 C CNN "Reference"
F 6 "LED" H 9950 1750 50  0001 C CNN "Value"
	1    9950 1750
	-1   0    0    1   
$EndComp
$Comp
L Device:LED D16
U 1 1 5F88BF36
P 9950 2150
F 0 "D16" H 10000 2000 50  0000 R CNN
F 1 "LED" H 10000 2300 50  0000 R CNN
F 2 "" H 9950 2150 50  0001 C CNN
F 3 "~" H 9950 2150 50  0001 C CNN
F 4 "~" H 9950 2150 50  0001 C CNN "Datasheet"
F 5 "D16" H 9950 2150 50  0001 C CNN "Reference"
F 6 "LED" H 9950 2150 50  0001 C CNN "Value"
	1    9950 2150
	-1   0    0    1   
$EndComp
$Comp
L power:+9V #PWR01
U 1 1 5F88CC0A
P 1200 3450
F 0 "#PWR01" H 1200 3300 50  0001 C CNN
F 1 "+9V" V 1300 3500 50  0000 C CNN
F 2 "" H 1200 3450 50  0001 C CNN
F 3 "" H 1200 3450 50  0001 C CNN
	1    1200 3450
	0    -1   -1   0   
$EndComp
$Comp
L Switch:SW_DPST_x2 SW2
U 1 1 5F88D5FA
P 1600 3450
F 0 "SW2" H 1500 3600 50  0000 L CNN
F 1 "SW_DPST_x2" V 1645 3548 50  0001 L CNN
F 2 "" H 1600 3450 50  0001 C CNN
F 3 "~" H 1600 3450 50  0001 C CNN
F 4 "~" H 1600 3450 50  0001 C CNN "Datasheet"
F 5 "SW2" H 1600 3450 50  0001 C CNN "Reference"
F 6 "SW_DPST_x2" H 1600 3450 50  0001 C CNN "Value"
	1    1600 3450
	1    0    0    -1  
$EndComp
$Comp
L Device:R R1
U 1 1 5F88E1E2
P 2000 3750
F 0 "R1" H 2070 3796 50  0000 L CNN
F 1 "1K" H 2070 3705 50  0000 L CNN
F 2 "" V 1930 3750 50  0001 C CNN
F 3 "~" H 2000 3750 50  0001 C CNN
F 4 "~" H 2000 3750 50  0001 C CNN "Datasheet"
F 5 "R1" H 2000 3750 50  0001 C CNN "Reference"
F 6 "1K" H 2000 3750 50  0001 C CNN "Value"
	1    2000 3750
	1    0    0    -1  
$EndComp
$Comp
L Device:LED D1
U 1 1 5F88EFE0
P 2000 4200
F 0 "D1" V 2039 4082 50  0000 R CNN
F 1 "LED" V 1948 4082 50  0000 R CNN
F 2 "" H 2000 4200 50  0001 C CNN
F 3 "~" H 2000 4200 50  0001 C CNN
F 4 "~" H 2000 4200 50  0001 C CNN "Datasheet"
F 5 "D1" H 2000 4200 50  0001 C CNN "Reference"
F 6 "LED" H 2000 4200 50  0001 C CNN "Value"
	1    2000 4200
	0    -1   -1   0   
$EndComp
Wire Wire Line
	1800 3450 2000 3450
Wire Wire Line
	1200 3450 1400 3450
Wire Wire Line
	2000 3600 2000 3450
Connection ~ 2000 3450
Wire Wire Line
	2000 3450 2550 3450
Wire Wire Line
	2000 3900 2000 4050
$Comp
L power:Earth #PWR04
U 1 1 5F8924E3
P 2000 4600
F 0 "#PWR04" H 2000 4350 50  0001 C CNN
F 1 "Earth" H 2000 4450 50  0001 C CNN
F 2 "" H 2000 4600 50  0001 C CNN
F 3 "~" H 2000 4600 50  0001 C CNN
	1    2000 4600
	1    0    0    -1  
$EndComp
Wire Wire Line
	2550 4500 2000 4500
Wire Wire Line
	2000 4500 2000 4600
Wire Wire Line
	2000 4350 2000 4500
Connection ~ 2000 4500
$Comp
L Device:R R4
U 1 1 5F8A01C2
P 3700 3850
F 0 "R4" H 3770 3896 50  0000 L CNN
F 1 "1K" H 3770 3805 50  0000 L CNN
F 2 "" V 3630 3850 50  0001 C CNN
F 3 "~" H 3700 3850 50  0001 C CNN
F 4 "~" H 3700 3850 50  0001 C CNN "Datasheet"
F 5 "R4" H 3700 3850 50  0001 C CNN "Reference"
F 6 "1K" H 3700 3850 50  0001 C CNN "Value"
	1    3700 3850
	1    0    0    -1  
$EndComp
$Comp
L power:+9V #PWR07
U 1 1 5F8A01C8
P 3700 3400
F 0 "#PWR07" H 3700 3250 50  0001 C CNN
F 1 "+9V" H 3715 3573 50  0000 C CNN
F 2 "" H 3700 3400 50  0001 C CNN
F 3 "" H 3700 3400 50  0001 C CNN
	1    3700 3400
	1    0    0    -1  
$EndComp
$Comp
L power:Earth #PWR08
U 1 1 5F8A01D4
P 3700 4700
F 0 "#PWR08" H 3700 4450 50  0001 C CNN
F 1 "Earth" H 3700 4550 50  0001 C CNN
F 2 "" H 3700 4700 50  0001 C CNN
F 3 "~" H 3700 4700 50  0001 C CNN
	1    3700 4700
	1    0    0    -1  
$EndComp
$Comp
L Device:LED D4
U 1 1 5F8A01DA
P 3700 4300
F 0 "D4" V 3739 4182 50  0000 R CNN
F 1 "G_LED" V 3648 4182 50  0000 R CNN
F 2 "" H 3700 4300 50  0001 C CNN
F 3 "~" H 3700 4300 50  0001 C CNN
F 4 "~" H 3700 4300 50  0001 C CNN "Datasheet"
F 5 "D4" H 3700 4300 50  0001 C CNN "Reference"
F 6 "G_LED" H 3700 4300 50  0001 C CNN "Value"
	1    3700 4300
	0    -1   -1   0   
$EndComp
Wire Wire Line
	3700 4450 3700 4550
Wire Wire Line
	3700 4000 3700 4150
Wire Wire Line
	3700 3400 3700 3450
$Comp
L Device:R R7
U 1 1 5F8A01E4
P 4400 3850
F 0 "R7" H 4470 3896 50  0000 L CNN
F 1 "1K" H 4470 3805 50  0000 L CNN
F 2 "" V 4330 3850 50  0001 C CNN
F 3 "~" H 4400 3850 50  0001 C CNN
F 4 "~" H 4400 3850 50  0001 C CNN "Datasheet"
F 5 "R7" H 4400 3850 50  0001 C CNN "Reference"
F 6 "1K" H 4400 3850 50  0001 C CNN "Value"
	1    4400 3850
	1    0    0    -1  
$EndComp
$Comp
L Device:LED D7
U 1 1 5F8A01F0
P 4400 4300
F 0 "D7" V 4347 4182 50  0000 R CNN
F 1 "R_LED" V 4438 4182 50  0000 R CNN
F 2 "" H 4400 4300 50  0001 C CNN
F 3 "~" H 4400 4300 50  0001 C CNN
F 4 "~" H 4400 4300 50  0001 C CNN "Datasheet"
F 5 "D7" H 4400 4300 50  0001 C CNN "Reference"
F 6 "R_LED" H 4400 4300 50  0001 C CNN "Value"
	1    4400 4300
	0    -1   1    0   
$EndComp
Wire Wire Line
	4400 4000 4400 4150
Wire Wire Line
	3700 3450 4400 3450
Connection ~ 3700 3450
Wire Wire Line
	3700 4550 4400 4550
Connection ~ 3700 4550
Wire Wire Line
	4400 4550 4400 4450
Wire Wire Line
	3700 4550 3700 4700
Wire Wire Line
	3700 3450 3700 3700
Wire Wire Line
	4400 3450 4400 3700
$Comp
L Device:R_POT RV1
U 1 1 5F8B1D96
P 5700 3600
F 0 "RV1" V 5585 3600 50  0000 C CNN
F 1 "10K" V 5494 3600 50  0000 C CNN
F 2 "" H 5700 3600 50  0001 C CNN
F 3 "~" H 5700 3600 50  0001 C CNN
F 4 "~" H 5700 3600 50  0001 C CNN "Datasheet"
F 5 "RV1" H 5700 3600 50  0001 C CNN "Reference"
F 6 "10K" H 5700 3600 50  0001 C CNN "Value"
	1    5700 3600
	0    -1   -1   0   
$EndComp
$Comp
L Device:R R10
U 1 1 5F8B665D
P 6600 3600
F 0 "R10" V 6450 3550 50  0000 L CNN
F 1 "1K" V 6700 3500 50  0000 L CNN
F 2 "" V 6530 3600 50  0001 C CNN
F 3 "~" H 6600 3600 50  0001 C CNN
F 4 "~" H 6600 3600 50  0001 C CNN "Datasheet"
F 5 "R10" H 6600 3600 50  0001 C CNN "Reference"
F 6 "1K" H 6600 3600 50  0001 C CNN "Value"
	1    6600 3600
	0    1    1    0   
$EndComp
$Comp
L power:+9V #PWR011
U 1 1 5F8B69B8
P 5300 3400
F 0 "#PWR011" H 5300 3250 50  0001 C CNN
F 1 "+9V" V 5315 3573 50  0000 C CNN
F 2 "" H 5300 3400 50  0001 C CNN
F 3 "" H 5300 3400 50  0001 C CNN
	1    5300 3400
	0    -1   -1   0   
$EndComp
$Comp
L Device:LED D10
U 1 1 5F8B7448
P 6150 3600
F 0 "D10" H 6143 3345 50  0000 C CNN
F 1 "LED" H 6143 3436 50  0000 C CNN
F 2 "" H 6150 3600 50  0001 C CNN
F 3 "~" H 6150 3600 50  0001 C CNN
F 4 "~" H 6150 3600 50  0001 C CNN "Datasheet"
F 5 "D10" H 6150 3600 50  0001 C CNN "Reference"
F 6 "LED" H 6150 3600 50  0001 C CNN "Value"
	1    6150 3600
	-1   0    0    1   
$EndComp
$Comp
L power:Earth #PWR014
U 1 1 5F8BDD68
P 6950 3600
F 0 "#PWR014" H 6950 3350 50  0001 C CNN
F 1 "Earth" H 6950 3450 50  0001 C CNN
F 2 "" H 6950 3600 50  0001 C CNN
F 3 "~" H 6950 3600 50  0001 C CNN
	1    6950 3600
	0    -1   -1   0   
$EndComp
Wire Wire Line
	5850 3600 6000 3600
Wire Wire Line
	6300 3600 6450 3600
Wire Wire Line
	6750 3600 6950 3600
Wire Wire Line
	5700 3400 5700 3450
$Comp
L Device:R R15
U 1 1 5F8CFA67
P 8400 3600
F 0 "R15" V 8500 3550 50  0000 L CNN
F 1 "1K" V 8300 3550 50  0000 L CNN
F 2 "" V 8330 3600 50  0001 C CNN
F 3 "~" H 8400 3600 50  0001 C CNN
F 4 "~" H 8400 3600 50  0001 C CNN "Datasheet"
F 5 "R15" H 8400 3600 50  0001 C CNN "Reference"
F 6 "1K" H 8400 3600 50  0001 C CNN "Value"
	1    8400 3600
	0    -1   -1   0   
$EndComp
$Comp
L power:+9V #PWR015
U 1 1 5F8CFA6D
P 7550 3600
F 0 "#PWR015" H 7550 3450 50  0001 C CNN
F 1 "+9V" V 7650 3650 50  0000 C CNN
F 2 "" H 7550 3600 50  0001 C CNN
F 3 "" H 7550 3600 50  0001 C CNN
	1    7550 3600
	0    -1   -1   0   
$EndComp
$Comp
L Switch:SW_DPST_x2 SW5
U 2 1 5F8CFA73
P 7900 3600
F 0 "SW5" H 7900 3750 50  0000 L CNN
F 1 "SW_DPST_x2" V 7945 3698 50  0001 L CNN
F 2 "" H 7900 3600 50  0001 C CNN
F 3 "~" H 7900 3600 50  0001 C CNN
F 4 "~" H 7900 3600 50  0001 C CNN "Datasheet"
F 5 "SW5" H 7900 3600 50  0001 C CNN "Reference"
F 6 "SW_DPST_x2" H 7900 3600 50  0001 C CNN "Value"
	2    7900 3600
	1    0    0    -1  
$EndComp
Wire Wire Line
	8100 3600 8250 3600
Wire Wire Line
	7550 3600 7700 3600
Wire Wire Line
	8550 3600 8650 3600
$Comp
L Device:LED D13
U 1 1 5F8D167B
P 8800 3600
F 0 "D13" H 8850 3450 50  0000 R CNN
F 1 "LED" H 8850 3750 50  0000 R CNN
F 2 "" H 8800 3600 50  0001 C CNN
F 3 "~" H 8800 3600 50  0001 C CNN
F 4 "~" H 8800 3600 50  0001 C CNN "Datasheet"
F 5 "D13" H 8800 3600 50  0001 C CNN "Reference"
F 6 "LED" H 8800 3600 50  0001 C CNN "Value"
	1    8800 3600
	-1   0    0    1   
$EndComp
$Comp
L Device:CP C5
U 1 1 5F8D207C
P 9150 3900
F 0 "C5" H 9268 3946 50  0000 L CNN
F 1 "470uF" H 9268 3855 50  0000 L CNN
F 2 "" H 9188 3750 50  0001 C CNN
F 3 "~" H 9150 3900 50  0001 C CNN
F 4 "~" H 9150 3900 50  0001 C CNN "Datasheet"
F 5 "C5" H 9150 3900 50  0001 C CNN "Reference"
F 6 "470uF" H 9150 3900 50  0001 C CNN "Value"
	1    9150 3900
	1    0    0    -1  
$EndComp
$Comp
L power:Earth #PWR018
U 1 1 5F8D2568
P 9150 4350
F 0 "#PWR018" H 9150 4100 50  0001 C CNN
F 1 "Earth" H 9150 4200 50  0001 C CNN
F 2 "" H 9150 4350 50  0001 C CNN
F 3 "~" H 9150 4350 50  0001 C CNN
	1    9150 4350
	1    0    0    -1  
$EndComp
$Comp
L Device:R R18
U 1 1 5F8D4A44
P 10050 3600
F 0 "R18" V 10150 3550 50  0000 L CNN
F 1 "1K" V 9950 3550 50  0000 L CNN
F 2 "" V 9980 3600 50  0001 C CNN
F 3 "~" H 10050 3600 50  0001 C CNN
F 4 "~" H 10050 3600 50  0001 C CNN "Datasheet"
F 5 "R18" H 10050 3600 50  0001 C CNN "Reference"
F 6 "1K" H 10050 3600 50  0001 C CNN "Value"
	1    10050 3600
	0    -1   -1   0   
$EndComp
$Comp
L Switch:SW_DPST_x2 SW7
U 1 1 5F8D4A4A
P 9550 3600
F 0 "SW7" H 9550 3750 50  0000 L CNN
F 1 "SW_DPST_x2" V 9595 3698 50  0001 L CNN
F 2 "" H 9550 3600 50  0001 C CNN
F 3 "~" H 9550 3600 50  0001 C CNN
F 4 "~" H 9550 3600 50  0001 C CNN "Datasheet"
F 5 "SW7" H 9550 3600 50  0001 C CNN "Reference"
F 6 "SW_DPST_x2" H 9550 3600 50  0001 C CNN "Value"
	1    9550 3600
	1    0    0    -1  
$EndComp
Wire Wire Line
	9750 3600 9900 3600
Wire Wire Line
	10200 3600 10300 3600
$Comp
L Device:LED D18
U 1 1 5F8D4A52
P 10450 3600
F 0 "D18" H 10500 3450 50  0000 R CNN
F 1 "LED" H 10500 3750 50  0000 R CNN
F 2 "" H 10450 3600 50  0001 C CNN
F 3 "~" H 10450 3600 50  0001 C CNN
F 4 "~" H 10450 3600 50  0001 C CNN "Datasheet"
F 5 "D18" H 10450 3600 50  0001 C CNN "Reference"
F 6 "LED" H 10450 3600 50  0001 C CNN "Value"
	1    10450 3600
	-1   0    0    1   
$EndComp
Wire Wire Line
	9150 4050 9150 4200
Wire Wire Line
	8950 3600 9150 3600
Wire Wire Line
	9150 3750 9150 3600
Connection ~ 9150 3600
Wire Wire Line
	9150 3600 9350 3600
Wire Wire Line
	9150 4200 10700 4200
Wire Wire Line
	10700 4200 10700 3600
Wire Wire Line
	10700 3600 10600 3600
Connection ~ 9150 4200
Wire Wire Line
	9150 4200 9150 4350
$Comp
L Device:R R2
U 1 1 5F8E8A74
P 2050 5250
F 0 "R2" V 2150 5200 50  0000 L CNN
F 1 "1K" V 1950 5200 50  0000 L CNN
F 2 "" V 1980 5250 50  0001 C CNN
F 3 "~" H 2050 5250 50  0001 C CNN
F 4 "~" H 2050 5250 50  0001 C CNN "Datasheet"
F 5 "R2" H 2050 5250 50  0001 C CNN "Reference"
F 6 "1K" H 2050 5250 50  0001 C CNN "Value"
	1    2050 5250
	0    -1   -1   0   
$EndComp
$Comp
L power:+9V #PWR02
U 1 1 5F8E8A7A
P 1200 5250
F 0 "#PWR02" H 1200 5100 50  0001 C CNN
F 1 "+9V" V 1300 5300 50  0000 C CNN
F 2 "" H 1200 5250 50  0001 C CNN
F 3 "" H 1200 5250 50  0001 C CNN
	1    1200 5250
	0    -1   -1   0   
$EndComp
$Comp
L Switch:SW_DPST_x2 SW1
U 1 1 5F8E8A80
P 1550 5250
F 0 "SW1" H 1550 5400 50  0000 L CNN
F 1 "SW_DPST_x2" V 1595 5348 50  0001 L CNN
F 2 "" H 1550 5250 50  0001 C CNN
F 3 "~" H 1550 5250 50  0001 C CNN
F 4 "~" H 1550 5250 50  0001 C CNN "Datasheet"
F 5 "SW1" H 1550 5250 50  0001 C CNN "Reference"
F 6 "SW_DPST_x2" H 1550 5250 50  0001 C CNN "Value"
	1    1550 5250
	1    0    0    -1  
$EndComp
Wire Wire Line
	1750 5250 1900 5250
Wire Wire Line
	1200 5250 1350 5250
Wire Wire Line
	2200 5250 2300 5250
$Comp
L Device:LED D2
U 1 1 5F8E8A89
P 2450 5250
F 0 "D2" H 2500 5100 50  0000 R CNN
F 1 "LED" H 2500 5400 50  0000 R CNN
F 2 "" H 2450 5250 50  0001 C CNN
F 3 "~" H 2450 5250 50  0001 C CNN
F 4 "~" H 2450 5250 50  0001 C CNN "Datasheet"
F 5 "D2" H 2450 5250 50  0001 C CNN "Reference"
F 6 "LED" H 2450 5250 50  0001 C CNN "Value"
	1    2450 5250
	-1   0    0    1   
$EndComp
$Comp
L Device:CP C1
U 1 1 5F8E8A8F
P 2800 5550
F 0 "C1" H 2918 5596 50  0000 L CNN
F 1 "470uF" H 2918 5505 50  0000 L CNN
F 2 "" H 2838 5400 50  0001 C CNN
F 3 "~" H 2800 5550 50  0001 C CNN
F 4 "~" H 2800 5550 50  0001 C CNN "Datasheet"
F 5 "C1" H 2800 5550 50  0001 C CNN "Reference"
F 6 "470uF" H 2800 5550 50  0001 C CNN "Value"
	1    2800 5550
	1    0    0    -1  
$EndComp
$Comp
L power:Earth #PWR05
U 1 1 5F8E8A95
P 2800 6400
F 0 "#PWR05" H 2800 6150 50  0001 C CNN
F 1 "Earth" H 2800 6250 50  0001 C CNN
F 2 "" H 2800 6400 50  0001 C CNN
F 3 "~" H 2800 6400 50  0001 C CNN
	1    2800 6400
	1    0    0    -1  
$EndComp
$Comp
L Device:R R5
U 1 1 5F8E8A9B
P 3700 5250
F 0 "R5" V 3800 5200 50  0000 L CNN
F 1 "1K" V 3600 5200 50  0000 L CNN
F 2 "" V 3630 5250 50  0001 C CNN
F 3 "~" H 3700 5250 50  0001 C CNN
F 4 "~" H 3700 5250 50  0001 C CNN "Datasheet"
F 5 "R5" H 3700 5250 50  0001 C CNN "Reference"
F 6 "1K" H 3700 5250 50  0001 C CNN "Value"
	1    3700 5250
	0    -1   -1   0   
$EndComp
$Comp
L Switch:SW_DPST_x2 SW2
U 2 1 5F8E8AA1
P 3200 5250
F 0 "SW2" H 3200 5400 50  0000 L CNN
F 1 "SW_DPST_x2" V 3245 5348 50  0001 L CNN
F 2 "" H 3200 5250 50  0001 C CNN
F 3 "~" H 3200 5250 50  0001 C CNN
F 4 "~" H 3200 5250 50  0001 C CNN "Datasheet"
F 5 "SW2" H 3200 5250 50  0001 C CNN "Reference"
F 6 "SW_DPST_x2" H 3200 5250 50  0001 C CNN "Value"
	2    3200 5250
	1    0    0    -1  
$EndComp
Wire Wire Line
	3400 5250 3550 5250
Wire Wire Line
	3850 5250 3950 5250
$Comp
L Device:LED D6
U 1 1 5F8E8AA9
P 4100 5250
F 0 "D6" H 4150 5100 50  0000 R CNN
F 1 "LED" H 4150 5400 50  0000 R CNN
F 2 "" H 4100 5250 50  0001 C CNN
F 3 "~" H 4100 5250 50  0001 C CNN
F 4 "~" H 4100 5250 50  0001 C CNN "Datasheet"
F 5 "D6" H 4100 5250 50  0001 C CNN "Reference"
F 6 "LED" H 4100 5250 50  0001 C CNN "Value"
	1    4100 5250
	-1   0    0    1   
$EndComp
Wire Wire Line
	2600 5250 2800 5250
Wire Wire Line
	2800 5400 2800 5250
Connection ~ 2800 5250
Wire Wire Line
	2800 5250 3000 5250
Wire Wire Line
	4350 5250 4250 5250
$Comp
L Device:CP C2
U 1 1 5F8EDAC2
P 2800 6000
F 0 "C2" H 2918 6046 50  0000 L CNN
F 1 "470uF" H 2918 5955 50  0000 L CNN
F 2 "" H 2838 5850 50  0001 C CNN
F 3 "~" H 2800 6000 50  0001 C CNN
F 4 "~" H 2800 6000 50  0001 C CNN "Datasheet"
F 5 "C2" H 2800 6000 50  0001 C CNN "Reference"
F 6 "470uF" H 2800 6000 50  0001 C CNN "Value"
	1    2800 6000
	1    0    0    -1  
$EndComp
Wire Wire Line
	2800 5700 2800 5850
Wire Wire Line
	2800 6150 2800 6250
Wire Wire Line
	4350 6250 2800 6250
Wire Wire Line
	4350 5250 4350 6250
Connection ~ 2800 6250
Wire Wire Line
	2800 6250 2800 6400
$Comp
L Device:R R12
U 1 1 5F90460E
P 6900 5300
F 0 "R12" V 7000 5250 50  0000 L CNN
F 1 "1K" V 6800 5250 50  0000 L CNN
F 2 "" V 6830 5300 50  0001 C CNN
F 3 "~" H 6900 5300 50  0001 C CNN
F 4 "~" H 6900 5300 50  0001 C CNN "Datasheet"
F 5 "R12" H 6900 5300 50  0001 C CNN "Reference"
F 6 "1K" H 6900 5300 50  0001 C CNN "Value"
	1    6900 5300
	0    -1   -1   0   
$EndComp
$Comp
L power:+9V #PWR013
U 1 1 5F904614
P 6050 5300
F 0 "#PWR013" H 6050 5150 50  0001 C CNN
F 1 "+9V" V 6150 5350 50  0000 C CNN
F 2 "" H 6050 5300 50  0001 C CNN
F 3 "" H 6050 5300 50  0001 C CNN
	1    6050 5300
	0    -1   -1   0   
$EndComp
$Comp
L Switch:SW_DPST_x2 SW5
U 1 1 5F90461A
P 6400 5300
F 0 "SW5" H 6400 5450 50  0000 L CNN
F 1 "SW_DPST_x2" V 6445 5398 50  0001 L CNN
F 2 "" H 6400 5300 50  0001 C CNN
F 3 "~" H 6400 5300 50  0001 C CNN
F 4 "~" H 6400 5300 50  0001 C CNN "Datasheet"
F 5 "SW5" H 6400 5300 50  0001 C CNN "Reference"
F 6 "SW_DPST_x2" H 6400 5300 50  0001 C CNN "Value"
	1    6400 5300
	1    0    0    -1  
$EndComp
Wire Wire Line
	6600 5300 6750 5300
Wire Wire Line
	6050 5300 6200 5300
Wire Wire Line
	7050 5300 7150 5300
$Comp
L Device:LED D11
U 1 1 5F904623
P 7300 5300
F 0 "D11" H 7350 5150 50  0000 R CNN
F 1 "LED" H 7350 5450 50  0000 R CNN
F 2 "" H 7300 5300 50  0001 C CNN
F 3 "~" H 7300 5300 50  0001 C CNN
F 4 "~" H 7300 5300 50  0001 C CNN "Datasheet"
F 5 "D11" H 7300 5300 50  0001 C CNN "Reference"
F 6 "LED" H 7300 5300 50  0001 C CNN "Value"
	1    7300 5300
	-1   0    0    1   
$EndComp
$Comp
L Device:CP C3
U 1 1 5F904629
P 7650 5600
F 0 "C3" H 7768 5646 50  0000 L CNN
F 1 "470uF" H 7768 5555 50  0000 L CNN
F 2 "" H 7688 5450 50  0001 C CNN
F 3 "~" H 7650 5600 50  0001 C CNN
F 4 "~" H 7650 5600 50  0001 C CNN "Datasheet"
F 5 "C3" H 7650 5600 50  0001 C CNN "Reference"
F 6 "470uF" H 7650 5600 50  0001 C CNN "Value"
	1    7650 5600
	1    0    0    -1  
$EndComp
$Comp
L power:Earth #PWR019
U 1 1 5F90462F
P 9850 6050
F 0 "#PWR019" H 9850 5800 50  0001 C CNN
F 1 "Earth" H 9850 5900 50  0001 C CNN
F 2 "" H 9850 6050 50  0001 C CNN
F 3 "~" H 9850 6050 50  0001 C CNN
	1    9850 6050
	1    0    0    -1  
$EndComp
$Comp
L Device:R R16
U 1 1 5F904635
P 9150 5300
F 0 "R16" V 9250 5250 50  0000 L CNN
F 1 "1K" V 9050 5250 50  0000 L CNN
F 2 "" V 9080 5300 50  0001 C CNN
F 3 "~" H 9150 5300 50  0001 C CNN
F 4 "~" H 9150 5300 50  0001 C CNN "Datasheet"
F 5 "R16" H 9150 5300 50  0001 C CNN "Reference"
F 6 "1K" H 9150 5300 50  0001 C CNN "Value"
	1    9150 5300
	0    -1   -1   0   
$EndComp
$Comp
L Switch:SW_DPST_x2 SW6
U 1 1 5F90463B
P 8650 5300
F 0 "SW6" H 8650 5450 50  0000 L CNN
F 1 "SW_DPST_x2" V 8695 5398 50  0001 L CNN
F 2 "" H 8650 5300 50  0001 C CNN
F 3 "~" H 8650 5300 50  0001 C CNN
F 4 "~" H 8650 5300 50  0001 C CNN "Datasheet"
F 5 "SW6" H 8650 5300 50  0001 C CNN "Reference"
F 6 "SW_DPST_x2" H 8650 5300 50  0001 C CNN "Value"
	1    8650 5300
	1    0    0    -1  
$EndComp
Wire Wire Line
	8850 5300 9000 5300
Wire Wire Line
	9300 5300 9400 5300
$Comp
L Device:LED D14
U 1 1 5F904643
P 9550 5300
F 0 "D14" H 9600 5150 50  0000 R CNN
F 1 "LED" H 9600 5450 50  0000 R CNN
F 2 "" H 9550 5300 50  0001 C CNN
F 3 "~" H 9550 5300 50  0001 C CNN
F 4 "~" H 9550 5300 50  0001 C CNN "Datasheet"
F 5 "D14" H 9550 5300 50  0001 C CNN "Reference"
F 6 "LED" H 9550 5300 50  0001 C CNN "Value"
	1    9550 5300
	-1   0    0    1   
$EndComp
Wire Wire Line
	7450 5300 7650 5300
Wire Wire Line
	7650 5450 7650 5300
$Comp
L Device:CP C4
U 1 1 5F90464E
P 8100 5600
F 0 "C4" H 8218 5646 50  0000 L CNN
F 1 "470uF" H 8218 5555 50  0000 L CNN
F 2 "" H 8138 5450 50  0001 C CNN
F 3 "~" H 8100 5600 50  0001 C CNN
F 4 "~" H 8100 5600 50  0001 C CNN "Datasheet"
F 5 "C4" H 8100 5600 50  0001 C CNN "Reference"
F 6 "470uF" H 8100 5600 50  0001 C CNN "Value"
	1    8100 5600
	1    0    0    -1  
$EndComp
Wire Wire Line
	7650 5750 7650 5900
Wire Wire Line
	8100 5900 8100 5750
Wire Wire Line
	7650 5300 8100 5300
Connection ~ 7650 5300
Wire Wire Line
	8100 5450 8100 5300
Connection ~ 8100 5300
Wire Wire Line
	8100 5300 8450 5300
Wire Wire Line
	9700 5300 9850 5300
Wire Wire Line
	8100 5900 9850 5900
Wire Wire Line
	9850 5900 9850 5300
Connection ~ 8100 5900
Wire Wire Line
	7650 5900 8100 5900
Wire Wire Line
	9850 6050 9850 5900
Connection ~ 9850 5900
Text Notes 1150 1200 0    118  ~ 24
#1
Text Notes 4000 1000 0    118  ~ 24
#2
Text Notes 6500 1400 0    118  ~ 24
#3
Text Notes 9750 1400 0    118  ~ 24
#4
Text Notes 1350 3050 0    118  ~ 24
#5
Text Notes 3950 3250 0    118  ~ 24
#6
Text Notes 5900 3250 0    118  ~ 24
#7
Text Notes 9100 3250 0    118  ~ 24
#8
Text Notes 1700 5950 0    118  ~ 24
#9
Text Notes 6550 5800 0    118  ~ 24
#10
Wire Wire Line
	5300 3400 5700 3400
NoConn ~ 5450 3600
Wire Wire Line
	5550 3600 5450 3600
Text Notes 3850 3400 0    50   ~ 0
Индикатор полярности
$Comp
L Device:Buzzer BZ1
U 1 1 63641762
P 2650 3550
F 0 "BZ1" H 2802 3579 50  0000 L CNN
F 1 "Buzzer" H 2802 3488 50  0000 L CNN
F 2 "" V 2625 3650 50  0001 C CNN
F 3 "~" V 2625 3650 50  0001 C CNN
	1    2650 3550
	1    0    0    -1  
$EndComp
Wire Wire Line
	2550 3650 2550 4500
$EndSCHEMATC
