
G21
G90
G94
F200.00
G00 Z2.0000
M03
G00 X53.0860Y27.9400
G01 Z-2.0000
G01 Z0
G00 Z2.0000
G00 X53.0860Y11.4300
G01 Z-2.0000
G01 Z0
G00 Z2.0000
G00 X53.0860Y3.8100
G01 Z-2.0000
G01 Z0
G00 Z2.0000
G00 X45.4660Y27.9400
G01 Z-2.0000
G01 Z0
G00 Z2.0000
G00 X39.1160Y16.2560
G01 Z-2.0000
G01 Z0
G00 Z2.0000
G00 X34.1147Y16.2560
G01 Z-2.0000
G01 Z0
G00 Z2.0000
G00 X26.4160Y24.3840
G01 Z-2.0000
G01 Z0
G00 Z2.0000
G00 X26.4160Y21.8846
G01 Z-2.0000
G01 Z0
G00 Z2.0000
G00 X26.4160Y10.6680
G01 Z-2.0000
G01 Z0
G00 Z2.0000
G00 X26.4160Y8.1686
G01 Z-2.0000
G01 Z0
G00 Z2.0000
G00 X19.5580Y17.5260
G01 Z-2.0000
G01 Z0
G00 Z2.0000
G00 X19.5580Y15.0266
G01 Z-2.0000
G01 Z0
G00 Z2.0000
G00 X19.5580Y10.6680
G01 Z-2.0000
G01 Z0
G00 Z2.0000
G00 X19.5580Y8.1686
G01 Z-2.0000
G01 Z0
G00 Z2.0000
G00 X48.2600Y8.8113
G01 Z-2.0000
G01 Z0
G00 Z2.0000
G00 X48.2600Y6.3094
G01 Z-2.0000
G01 Z0
G00 Z2.0000
G00 X48.2600Y3.8100
G01 Z-2.0000
G01 Z0
G00 Z2.0000
G00 X45.4660Y21.8440
G01 Z-2.0000
G01 Z0
G00 Z2.0000
G00 X42.9260Y21.8440
G01 Z-2.0000
G01 Z0
G00 Z2.0000
G00 X42.2605Y8.8113
G01 Z-2.0000
G01 Z0
G00 Z2.0000
G00 X42.2605Y6.3094
G01 Z-2.0000
G01 Z0
G00 Z2.0000
G00 X42.2605Y3.8100
G01 Z-2.0000
G01 Z0
G00 Z2.0000
G00 X0.0000Y0.0000
M05
M30