{
  "board": {
    "active_layer": 31,
    "active_layer_preset": "All Layers",
    "auto_track_width": true,
    "hidden_netclasses": [],
    "hidden_nets": [],
    "high_contrast_mode": 0,
    "net_color_mode": 1,
    "opacity": {
      "images": 0.6,
      "pads": 1.0,
      "shapes": 1.0,
      "tracks": 1.0,
      "vias": 1.0,
      "zones": 0.6
    },
    "ratsnest_display_mode": 0,
    "selection_filter": {
      "dimensions": true,
      "footprints": true,
      "graphics": true,
      "keepouts": true,
      "lockedItems": false,
      "otherItems": true,
      "pads": true,
      "text": true,
      "tracks": true,
      "vias": true,
      "zones": true
    },
    "visible_items": [
      "vias",
      "footprint_text",
      "footprint_anchors",
      "ratsnest",
      "grid",
      "footprints_front",
      "footprints_back",
      "footprint_values",
      "footprint_references",
      "tracks",
      "drc_errors",
      "drawing_sheet",
      "bitmaps",
      "pads",
      "zones",
      "drc_warnings",
      "locked_item_shadows",
      "conflict_shadows",
      "shapes"
    ],
    "visible_layers": "ffffffff_ffffffff_ffffffff_ffffffff",
    "zone_display_mode": 0
  },
  "git": {
    "repo_password": "",
    "repo_type": "",
    "repo_username": "",
    "ssh_key": ""
  },
  "meta": {
    "filename": "nm.kicad_prl",
    "version": 5
  },
  "net_inspector_panel": {
    "col_hidden": [
      false,
      false,
      false,
      false,
      false,
      false,
      false,
      false,
      false,
      false
    ],
    "col_order": [
      0,
      1,
      2,
      3,
      4,
      5,
      6,
      7,
      8,
      9
    ],
    "col_widths": [
      0,
      0,
      0,
      0,
      0,
      0,
      0,
      0,
      0,
      0
    ],
    "custom_group_rules": [],
    "expanded_rows": [],
    "filter_by_net_name": true,
    "filter_by_netclass": true,
    "filter_text": "",
    "group_by_constraint": false,
    "group_by_netclass": false,
    "show_unconnected_nets": false,
    "show_zero_pad_nets": false,
    "sort_ascending": true,
    "sorting_column": 0
  },
  "open_jobsets": [],
  "project": {
    "files": []
  },
  "schematic": {
    "selection_filter": {
      "graphics": true,
      "images": true,
      "labels": true,
      "lockedItems": false,
      "otherItems": true,
      "pins": true,
      "symbols": true,
      "text": true,
      "wires": true
    }
  }
}
