
G21         ; Set units to mm
G90         ; Absolute positioning
F100
G1 Z2.54 F100      ; Move to clearance level

;
; Operation:    0
; Name:         
; Type:         Pocket
; Paths:        1
; Direction:    Conventional
; Cut Depth:    1.9999999999999998
; Pass Depth:   1.9999999999999998
; Plunge rate:  100
; Cut rate:     100
;

; Path 0
; Rapid to initial position
G1 X74.4350 Y72.3900 F100
G1 Z0.0000
; plunge
G1 Z-2.0000 F100
; cut
G1 X72.3900 Y72.3900 F100
G1 X72.3900 Y74.4350
G1 X74.4350 Y74.4350
G1 X74.4350 Y72.3900
G1 X75.7050 Y71.1200
G1 X71.1200 Y71.1200
G1 X71.1200 Y75.7050
G1 X75.7050 Y75.7050
G1 X75.7050 Y71.1200
G1 X76.9750 Y69.8500
G1 X69.8500 Y69.8500
G1 X69.8500 Y76.9750
G1 X76.9750 Y76.9750
G1 X76.9750 Y69.8500
G1 X78.2450 Y68.5800
G1 X68.5800 Y68.5800
G1 X68.5800 Y78.2450
G1 X78.2450 Y78.2450
G1 X78.2450 Y68.5800
G1 X79.5150 Y67.3100
G1 X67.3100 Y67.3100
G1 X67.3100 Y79.5150
G1 X79.5150 Y79.5150
G1 X79.5150 Y67.3100
G1 X80.7850 Y66.0400
G1 X66.0400 Y66.0400
G1 X66.0400 Y80.7850
G1 X80.7850 Y80.7850
G1 X80.7850 Y66.0400
G1 X82.0550 Y64.7700
G1 X64.7700 Y64.7700
G1 X64.7700 Y82.0550
G1 X82.0550 Y82.0550
G1 X82.0550 Y64.7700
G1 X83.3250 Y63.5000
G1 X63.5000 Y63.5000
G1 X63.5000 Y83.3250
G1 X83.3250 Y83.3250
G1 X83.3250 Y63.5000
G1 X84.5950 Y62.2300
G1 X62.2300 Y62.2300
G1 X62.2300 Y84.5950
G1 X84.5950 Y84.5950
G1 X84.5950 Y62.2300
G1 X85.8650 Y60.9600
G1 X60.9600 Y60.9600
G1 X60.9600 Y85.8650
G1 X85.8650 Y85.8650
G1 X85.8650 Y60.9600
G1 X87.1350 Y59.6900
G1 X59.6900 Y59.6900
G1 X59.6900 Y87.1350
G1 X87.1350 Y87.1350
G1 X87.1350 Y59.6900
G1 X88.4050 Y58.4200
G1 X58.4200 Y58.4200
G1 X58.4200 Y88.4050
G1 X88.4050 Y88.4050
G1 X88.4050 Y58.4200
G1 X89.6750 Y57.1500
G1 X57.1500 Y57.1500
G1 X57.1500 Y89.6750
G1 X89.6750 Y89.6750
G1 X89.6750 Y57.1500
G1 X90.9450 Y55.8800
G1 X55.8800 Y55.8800
G1 X55.8800 Y90.9450
G1 X90.9450 Y90.9450
G1 X90.9450 Y55.8800
G1 X92.2150 Y54.6100
G1 X54.6100 Y54.6100
G1 X54.6100 Y92.2150
G1 X92.2150 Y92.2150
G1 X92.2150 Y54.6100
G1 X93.4850 Y53.3400
G1 X53.3400 Y53.3400
G1 X53.3400 Y93.4850
G1 X93.4850 Y93.4850
G1 X93.4850 Y53.3400
G1 X94.7550 Y52.0700
G1 X52.0700 Y52.0700
G1 X52.0700 Y94.7550
G1 X94.7550 Y94.7550
G1 X94.7550 Y52.0700
G1 X96.0250 Y50.8000
G1 X50.8000 Y50.8000
G1 X50.8000 Y96.0250
G1 X96.0250 Y96.0250
G1 X96.0250 Y50.8000
G1 X97.2950 Y49.5300
G1 X49.5300 Y49.5300
G1 X49.5300 Y97.2950
G1 X97.2950 Y97.2950
G1 X97.2950 Y49.5300
G1 X98.5650 Y48.2600
G1 X48.2600 Y48.2600
G1 X48.2600 Y98.5650
G1 X98.5650 Y98.5650
G1 X98.5650 Y48.2600
G1 X99.8350 Y46.9900
G1 X46.9900 Y46.9900
G1 X46.9900 Y99.8350
G1 X99.8350 Y99.8350
G1 X99.8350 Y46.9900
G1 X101.1050 Y45.7200
G1 X45.7200 Y45.7200
G1 X45.7200 Y101.1050
G1 X101.1050 Y101.1050
G1 X101.1050 Y45.7200
G1 X102.3750 Y44.4500
G1 X44.4500 Y44.4500
G1 X44.4500 Y102.3750
G1 X102.3750 Y102.3750
G1 X102.3750 Y44.4500
G1 X103.6450 Y43.1800
G1 X43.1800 Y43.1800
G1 X43.1800 Y103.6450
G1 X103.6450 Y103.6450
G1 X103.6450 Y43.1800
G1 X104.9150 Y41.9100
G1 X41.9100 Y41.9100
G1 X41.9100 Y104.9150
G1 X104.9150 Y104.9150
G1 X104.9150 Y41.9100
G1 X106.1850 Y40.6400
G1 X40.6400 Y40.6400
G1 X40.6400 Y106.1850
G1 X106.1850 Y106.1850
G1 X106.1850 Y40.6400
G1 X107.4550 Y39.3700
G1 X39.3700 Y39.3700
G1 X39.3700 Y107.4550
G1 X107.4550 Y107.4550
G1 X107.4550 Y39.3700
G1 X108.7250 Y38.1000
G1 X38.1000 Y38.1000
G1 X38.1000 Y108.7250
G1 X108.7250 Y108.7250
G1 X108.7250 Y38.1000
G1 X109.9950 Y36.8300
G1 X36.8300 Y36.8300
G1 X36.8300 Y109.9950
G1 X109.9950 Y109.9950
G1 X109.9950 Y36.8300
G1 X111.2650 Y35.5600
G1 X35.5600 Y35.5600
G1 X35.5600 Y111.2650
G1 X111.2650 Y111.2650
G1 X111.2650 Y35.5600
G1 X112.5350 Y34.2900
G1 X34.2900 Y34.2900
G1 X34.2900 Y112.5350
G1 X112.5350 Y112.5350
G1 X112.5350 Y34.2900
G1 X113.8050 Y33.0200
G1 X33.0200 Y33.0200
G1 X33.0200 Y113.8050
G1 X113.8050 Y113.8050
G1 X113.8050 Y33.0200
G1 X115.0750 Y31.7500
G1 X31.7500 Y31.7500
G1 X31.7500 Y115.0750
G1 X115.0750 Y115.0750
G1 X115.0750 Y31.7500
G1 X116.3450 Y30.4800
G1 X30.4800 Y30.4800
G1 X30.4800 Y116.3450
G1 X116.3450 Y116.3450
G1 X116.3450 Y30.4800
G1 X117.6150 Y29.2100
G1 X29.2100 Y29.2100
G1 X29.2100 Y117.6150
G1 X117.6150 Y117.6150
G1 X117.6150 Y29.2100
G1 X118.8850 Y27.9400
G1 X27.9400 Y27.9400
G1 X27.9400 Y118.8850
G1 X118.8850 Y118.8850
G1 X118.8850 Y27.9400
G1 X120.1550 Y26.6700
G1 X26.6700 Y26.6700
G1 X26.6700 Y120.1550
G1 X120.1550 Y120.1550
G1 X120.1550 Y26.6700
G1 X121.4250 Y25.4000
G1 X25.4000 Y25.4000
G1 X25.4000 Y121.4250
G1 X121.4250 Y121.4250
G1 X121.4250 Y25.4000
G1 X122.6950 Y24.1300
G1 X24.1300 Y24.1300
G1 X24.1300 Y122.6950
G1 X122.6950 Y122.6950
G1 X122.6950 Y24.1300
G1 X123.9650 Y22.8600
G1 X22.8600 Y22.8600
G1 X22.8600 Y123.9650
G1 X123.9650 Y123.9650
G1 X123.9650 Y22.8600
G1 X125.2350 Y21.5900
G1 X21.5900 Y21.5900
G1 X21.5900 Y125.2350
G1 X125.2350 Y125.2350
G1 X125.2350 Y21.5900
G1 X126.5050 Y20.3200
G1 X20.3200 Y20.3200
G1 X20.3200 Y126.5050
G1 X126.5050 Y126.5050
G1 X126.5050 Y20.3200
G1 X127.7750 Y19.0500
G1 X19.0500 Y19.0500
G1 X19.0500 Y127.7750
G1 X127.7750 Y127.7750
G1 X127.7750 Y19.0500
G1 X129.0450 Y17.7800
G1 X17.7800 Y17.7800
G1 X17.7800 Y129.0450
G1 X129.0450 Y129.0450
G1 X129.0450 Y17.7800
G1 X130.3150 Y16.5100
G1 X16.5100 Y16.5100
G1 X16.5100 Y130.3150
G1 X130.3150 Y130.3150
G1 X130.3150 Y16.5100
G1 X131.5850 Y15.2400
G1 X15.2400 Y15.2400
G1 X15.2400 Y131.5850
G1 X131.5850 Y131.5850
G1 X131.5850 Y15.2400
G1 X132.8550 Y13.9700
G1 X13.9700 Y13.9700
G1 X13.9700 Y132.8550
G1 X132.8550 Y132.8550
G1 X132.8550 Y13.9700
G1 X134.1250 Y12.7000
G1 X12.7000 Y12.7000
G1 X12.7000 Y134.1250
G1 X134.1250 Y134.1250
G1 X134.1250 Y12.7000
G1 X135.3950 Y11.4300
G1 X11.4300 Y11.4300
G1 X11.4300 Y135.3950
G1 X135.3950 Y135.3950
G1 X135.3950 Y11.4300
G1 X136.6650 Y10.1600
G1 X10.1600 Y10.1600
G1 X10.1600 Y136.6650
G1 X136.6650 Y136.6650
G1 X136.6650 Y10.1600
G1 X137.9350 Y8.8900
G1 X8.8900 Y8.8900
G1 X8.8900 Y137.9350
G1 X137.9350 Y137.9350
G1 X137.9350 Y8.8900
G1 X139.2050 Y7.6200
G1 X7.6200 Y7.6200
G1 X7.6200 Y139.2050
G1 X139.2050 Y139.2050
G1 X139.2050 Y7.6200
G1 X140.4750 Y6.3500
G1 X6.3500 Y6.3500
G1 X6.3500 Y140.4750
G1 X140.4750 Y140.4750
G1 X140.4750 Y6.3500
G1 X141.7450 Y5.0800
G1 X5.0800 Y5.0800
G1 X5.0800 Y141.7450
G1 X141.7450 Y141.7450
G1 X141.7450 Y5.0800
G1 X143.0150 Y3.8100
G1 X3.8100 Y3.8100
G1 X3.8100 Y143.0150
G1 X143.0150 Y143.0150
G1 X143.0150 Y3.8100
G1 X144.2850 Y2.5400
G1 X2.5400 Y2.5400
G1 X2.5400 Y144.2850
G1 X144.2850 Y144.2850
G1 X144.2850 Y2.5400
G1 X145.5550 Y1.2700
G1 X1.2700 Y1.2700
G1 X1.2700 Y145.5550
G1 X145.5550 Y145.5550
G1 X145.5550 Y1.2700
G1 X146.8250 Y0.0000
G1 X0.0000 Y0.0000
G1 X0.0000 Y146.8250
G1 X146.8250 Y146.8250
G1 X146.8250 Y0.0000
; Retract
G1 Z2.5400 F100

; Return to 0,0
G0 X0 Y0 F100
M2
