
G21
G90
G94
F200.00
G00 Z2.0000
M03
G00 X22.5806Y83.8606
G01 Z-2.0000
G01 Z0
G00 Z2.0000
G00 X22.5806Y76.2406
G01 Z-2.0000
G01 Z0
G00 Z2.0000
G00 X20.3200Y30.4800
G01 Z-2.0000
G01 Z0
G00 Z2.0000
G00 X15.2400Y30.4800
G01 Z-2.0000
G01 Z0
G00 Z2.0000
G00 X45.1790Y83.8200
G01 Z-2.0000
G01 Z0
G00 Z2.0000
G00 X43.1800Y83.8200
G01 Z-2.0000
G01 Z0
G00 Z2.0000
G00 X43.1800Y27.9400
G01 Z-2.0000
G01 Z0
G00 Z2.0000
G00 X40.6400Y33.0200
G01 Z-2.0000
G01 Z0
G00 Z2.0000
G00 X38.1000Y95.9790
G01 Z-2.0000
G01 Z0
G00 Z2.0000
G00 X38.1000Y93.9800
G01 Z-2.0000
G01 Z0
G00 Z2.0000
G00 X38.1000Y40.6400
G01 Z-2.0000
G01 Z0
G00 Z2.0000
G00 X38.1000Y12.7000
G01 Z-2.0000
G01 Z0
G00 Z2.0000
G00 X38.1000Y10.1600
G01 Z-2.0000
G01 Z0
G00 Z2.0000
G00 X38.1000Y7.6200
G01 Z-2.0000
G01 Z0
G00 Z2.0000
G00 X38.1000Y5.0800
G01 Z-2.0000
G01 Z0
G00 Z2.0000
G00 X33.0200Y83.8200
G01 Z-2.0000
G01 Z0
G00 Z2.0000
G00 X33.0200Y27.9400
G01 Z-2.0000
G01 Z0
G00 Z2.0000
G00 X30.4800Y30.4800
G01 Z-2.0000
G01 Z0
G00 Z2.0000
G00 X30.4800Y27.9400
G01 Z-2.0000
G01 Z0
G00 Z2.0000
G00 X30.4800Y25.4000
G01 Z-2.0000
G01 Z0
G00 Z2.0000
G00 X30.4800Y22.8600
G01 Z-2.0000
G01 Z0
G00 Z2.0000
G00 X30.4800Y20.3200
G01 Z-2.0000
G01 Z0
G00 Z2.0000
G00 X30.4800Y17.7800
G01 Z-2.0000
G01 Z0
G00 Z2.0000
G00 X30.4800Y15.2400
G01 Z-2.0000
G01 Z0
G00 Z2.0000
G00 X30.4800Y12.7000
G01 Z-2.0000
G01 Z0
G00 Z2.0000
G00 X30.4800Y2.5400
G01 Z-2.0000
G01 Z0
G00 Z2.0000
G00 X27.9400Y83.8200
G01 Z-2.0000
G01 Z0
G00 Z2.0000
G00 X27.9400Y40.6400
G01 Z-2.0000
G01 Z0
G00 Z2.0000
G00 X27.9400Y35.5600
G01 Z-2.0000
G01 Z0
G00 Z2.0000
G00 X27.9400Y5.0800
G01 Z-2.0000
G01 Z0
G00 Z2.0000
G00 X25.4000Y33.0200
G01 Z-2.0000
G01 Z0
G00 Z2.0000
G00 X25.4000Y5.0800
G01 Z-2.0000
G01 Z0
G00 Z2.0000
G00 X22.8600Y30.4800
G01 Z-2.0000
G01 Z0
G00 Z2.0000
G00 X22.8600Y27.9400
G01 Z-2.0000
G01 Z0
G00 Z2.0000
G00 X22.8600Y25.4000
G01 Z-2.0000
G01 Z0
G00 Z2.0000
G00 X22.8600Y22.8600
G01 Z-2.0000
G01 Z0
G00 Z2.0000
G00 X22.8600Y20.3200
G01 Z-2.0000
G01 Z0
G00 Z2.0000
G00 X22.8600Y17.7800
G01 Z-2.0000
G01 Z0
G00 Z2.0000
G00 X22.8600Y15.2400
G01 Z-2.0000
G01 Z0
G00 Z2.0000
G00 X22.8600Y12.7000
G01 Z-2.0000
G01 Z0
G00 Z2.0000
G00 X20.3200Y27.9400
G01 Z-2.0000
G01 Z0
G00 Z2.0000
G00 X20.3200Y2.5400
G01 Z-2.0000
G01 Z0
G00 Z2.0000
G00 X17.7800Y35.5600
G01 Z-2.0000
G01 Z0
G00 Z2.0000
G00 X15.2400Y12.7000
G01 Z-2.0000
G01 Z0
G00 Z2.0000
G00 X15.2400Y10.1600
G01 Z-2.0000
G01 Z0
G00 Z2.0000
G00 X15.2400Y7.6200
G01 Z-2.0000
G01 Z0
G00 Z2.0000
G00 X15.2400Y5.0800
G01 Z-2.0000
G01 Z0
G00 Z2.0000
G00 X10.1600Y27.9400
G01 Z-2.0000
G01 Z0
G00 Z2.0000
G00 X10.1194Y86.3600
G01 Z-2.0000
G01 Z0
G00 Z2.0000
G00 X7.6200Y86.3600
G01 Z-2.0000
G01 Z0
G00 Z2.0000
G00 X43.1800Y78.7400
G01 Z-2.0000
G01 Z0
G00 Z2.0000
G00 X43.1800Y76.2000
G01 Z-2.0000
G01 Z0
G00 Z2.0000
G00 X43.1800Y73.6600
G01 Z-2.0000
G01 Z0
G00 Z2.0000
G00 X43.1800Y71.1200
G01 Z-2.0000
G01 Z0
G00 Z2.0000
G00 X43.1800Y68.5800
G01 Z-2.0000
G01 Z0
G00 Z2.0000
G00 X43.1800Y66.0400
G01 Z-2.0000
G01 Z0
G00 Z2.0000
G00 X43.1800Y63.5000
G01 Z-2.0000
G01 Z0
G00 Z2.0000
G00 X43.1800Y60.9600
G01 Z-2.0000
G01 Z0
G00 Z2.0000
G00 X43.1800Y58.4200
G01 Z-2.0000
G01 Z0
G00 Z2.0000
G00 X43.1800Y55.8800
G01 Z-2.0000
G01 Z0
G00 Z2.0000
G00 X43.1800Y53.3400
G01 Z-2.0000
G01 Z0
G00 Z2.0000
G00 X43.1800Y50.8000
G01 Z-2.0000
G01 Z0
G00 Z2.0000
G00 X43.1800Y48.2600
G01 Z-2.0000
G01 Z0
G00 Z2.0000
G00 X43.1800Y45.7200
G01 Z-2.0000
G01 Z0
G00 Z2.0000
G00 X43.1800Y43.1800
G01 Z-2.0000
G01 Z0
G00 Z2.0000
G00 X40.6400Y78.7400
G01 Z-2.0000
G01 Z0
G00 Z2.0000
G00 X40.6400Y76.2000
G01 Z-2.0000
G01 Z0
G00 Z2.0000
G00 X40.6400Y73.6600
G01 Z-2.0000
G01 Z0
G00 Z2.0000
G00 X40.6400Y71.1200
G01 Z-2.0000
G01 Z0
G00 Z2.0000
G00 X40.6400Y68.5800
G01 Z-2.0000
G01 Z0
G00 Z2.0000
G00 X40.6400Y66.0400
G01 Z-2.0000
G01 Z0
G00 Z2.0000
G00 X40.6400Y63.5000
G01 Z-2.0000
G01 Z0
G00 Z2.0000
G00 X40.6400Y60.9600
G01 Z-2.0000
G01 Z0
G00 Z2.0000
G00 X40.6400Y58.4200
G01 Z-2.0000
G01 Z0
G00 Z2.0000
G00 X40.6400Y55.8800
G01 Z-2.0000
G01 Z0
G00 Z2.0000
G00 X40.6400Y53.3400
G01 Z-2.0000
G01 Z0
G00 Z2.0000
G00 X40.6400Y50.8000
G01 Z-2.0000
G01 Z0
G00 Z2.0000
G00 X40.6400Y48.2600
G01 Z-2.0000
G01 Z0
G00 Z2.0000
G00 X40.6400Y45.7200
G01 Z-2.0000
G01 Z0
G00 Z2.0000
G00 X40.6400Y43.1800
G01 Z-2.0000
G01 Z0
G00 Z2.0000
G00 X38.1000Y88.9000
G01 Z-2.0000
G01 Z0
G00 Z2.0000
G00 X38.1000Y86.3600
G01 Z-2.0000
G01 Z0
G00 Z2.0000
G00 X38.1000Y78.7400
G01 Z-2.0000
G01 Z0
G00 Z2.0000
G00 X38.1000Y76.2000
G01 Z-2.0000
G01 Z0
G00 Z2.0000
G00 X38.1000Y73.6600
G01 Z-2.0000
G01 Z0
G00 Z2.0000
G00 X38.1000Y71.1200
G01 Z-2.0000
G01 Z0
G00 Z2.0000
G00 X38.1000Y68.5800
G01 Z-2.0000
G01 Z0
G00 Z2.0000
G00 X38.1000Y66.0400
G01 Z-2.0000
G01 Z0
G00 Z2.0000
G00 X38.1000Y63.5000
G01 Z-2.0000
G01 Z0
G00 Z2.0000
G00 X38.1000Y60.9600
G01 Z-2.0000
G01 Z0
G00 Z2.0000
G00 X38.1000Y58.4200
G01 Z-2.0000
G01 Z0
G00 Z2.0000
G00 X38.1000Y55.8800
G01 Z-2.0000
G01 Z0
G00 Z2.0000
G00 X38.1000Y53.3400
G01 Z-2.0000
G01 Z0
G00 Z2.0000
G00 X38.1000Y50.8000
G01 Z-2.0000
G01 Z0
G00 Z2.0000
G00 X38.1000Y48.2600
G01 Z-2.0000
G01 Z0
G00 Z2.0000
G00 X38.1000Y45.7200
G01 Z-2.0000
G01 Z0
G00 Z2.0000
G00 X38.1000Y43.1800
G01 Z-2.0000
G01 Z0
G00 Z2.0000
G00 X35.5600Y78.7400
G01 Z-2.0000
G01 Z0
G00 Z2.0000
G00 X35.5600Y76.2000
G01 Z-2.0000
G01 Z0
G00 Z2.0000
G00 X35.5600Y73.6600
G01 Z-2.0000
G01 Z0
G00 Z2.0000
G00 X35.5600Y71.1200
G01 Z-2.0000
G01 Z0
G00 Z2.0000
G00 X35.5600Y68.5800
G01 Z-2.0000
G01 Z0
G00 Z2.0000
G00 X35.5600Y66.0400
G01 Z-2.0000
G01 Z0
G00 Z2.0000
G00 X35.5600Y63.5000
G01 Z-2.0000
G01 Z0
G00 Z2.0000
G00 X35.5600Y60.9600
G01 Z-2.0000
G01 Z0
G00 Z2.0000
G00 X35.5600Y58.4200
G01 Z-2.0000
G01 Z0
G00 Z2.0000
G00 X35.5600Y55.8800
G01 Z-2.0000
G01 Z0
G00 Z2.0000
G00 X35.5600Y53.3400
G01 Z-2.0000
G01 Z0
G00 Z2.0000
G00 X35.5600Y50.8000
G01 Z-2.0000
G01 Z0
G00 Z2.0000
G00 X35.5600Y48.2600
G01 Z-2.0000
G01 Z0
G00 Z2.0000
G00 X35.5600Y45.7200
G01 Z-2.0000
G01 Z0
G00 Z2.0000
G00 X35.5600Y43.1800
G01 Z-2.0000
G01 Z0
G00 Z2.0000
G00 X33.8607Y104.1502
G01 Z-2.0000
G01 Z0
G00 Z2.0000
G00 X31.3207Y104.1502
G01 Z-2.0000
G01 Z0
G00 Z2.0000
G00 X28.7807Y104.1502
G01 Z-2.0000
G01 Z0
G00 Z2.0000
G00 X20.3200Y78.7400
G01 Z-2.0000
G01 Z0
G00 Z2.0000
G00 X20.3200Y76.2000
G01 Z-2.0000
G01 Z0
G00 Z2.0000
G00 X20.3200Y73.6600
G01 Z-2.0000
G01 Z0
G00 Z2.0000
G00 X20.3200Y71.1200
G01 Z-2.0000
G01 Z0
G00 Z2.0000
G00 X20.3200Y68.5800
G01 Z-2.0000
G01 Z0
G00 Z2.0000
G00 X20.3200Y66.0400
G01 Z-2.0000
G01 Z0
G00 Z2.0000
G00 X20.3200Y63.5000
G01 Z-2.0000
G01 Z0
G00 Z2.0000
G00 X20.3200Y60.9600
G01 Z-2.0000
G01 Z0
G00 Z2.0000
G00 X20.3200Y58.4200
G01 Z-2.0000
G01 Z0
G00 Z2.0000
G00 X20.3200Y55.8800
G01 Z-2.0000
G01 Z0
G00 Z2.0000
G00 X20.3200Y53.3400
G01 Z-2.0000
G01 Z0
G00 Z2.0000
G00 X20.3200Y50.8000
G01 Z-2.0000
G01 Z0
G00 Z2.0000
G00 X20.3200Y48.2600
G01 Z-2.0000
G01 Z0
G00 Z2.0000
G00 X20.3200Y45.7200
G01 Z-2.0000
G01 Z0
G00 Z2.0000
G00 X20.3200Y43.1800
G01 Z-2.0000
G01 Z0
G00 Z2.0000
G00 X17.7800Y78.7400
G01 Z-2.0000
G01 Z0
G00 Z2.0000
G00 X17.7800Y76.2000
G01 Z-2.0000
G01 Z0
G00 Z2.0000
G00 X17.7800Y73.6600
G01 Z-2.0000
G01 Z0
G00 Z2.0000
G00 X17.7800Y71.1200
G01 Z-2.0000
G01 Z0
G00 Z2.0000
G00 X17.7800Y68.5800
G01 Z-2.0000
G01 Z0
G00 Z2.0000
G00 X17.7800Y66.0400
G01 Z-2.0000
G01 Z0
G00 Z2.0000
G00 X17.7800Y63.5000
G01 Z-2.0000
G01 Z0
G00 Z2.0000
G00 X17.7800Y60.9600
G01 Z-2.0000
G01 Z0
G00 Z2.0000
G00 X17.7800Y58.4200
G01 Z-2.0000
G01 Z0
G00 Z2.0000
G00 X17.7800Y55.8800
G01 Z-2.0000
G01 Z0
G00 Z2.0000
G00 X17.7800Y53.3400
G01 Z-2.0000
G01 Z0
G00 Z2.0000
G00 X17.7800Y50.8000
G01 Z-2.0000
G01 Z0
G00 Z2.0000
G00 X17.7800Y48.2600
G01 Z-2.0000
G01 Z0
G00 Z2.0000
G00 X17.7800Y45.7200
G01 Z-2.0000
G01 Z0
G00 Z2.0000
G00 X17.7800Y43.1800
G01 Z-2.0000
G01 Z0
G00 Z2.0000
G00 X15.2400Y78.7400
G01 Z-2.0000
G01 Z0
G00 Z2.0000
G00 X15.2400Y76.2000
G01 Z-2.0000
G01 Z0
G00 Z2.0000
G00 X15.2400Y73.6600
G01 Z-2.0000
G01 Z0
G00 Z2.0000
G00 X15.2400Y71.1200
G01 Z-2.0000
G01 Z0
G00 Z2.0000
G00 X15.2400Y68.5800
G01 Z-2.0000
G01 Z0
G00 Z2.0000
G00 X15.2400Y66.0400
G01 Z-2.0000
G01 Z0
G00 Z2.0000
G00 X15.2400Y63.5000
G01 Z-2.0000
G01 Z0
G00 Z2.0000
G00 X15.2400Y60.9600
G01 Z-2.0000
G01 Z0
G00 Z2.0000
G00 X15.2400Y58.4200
G01 Z-2.0000
G01 Z0
G00 Z2.0000
G00 X15.2400Y55.8800
G01 Z-2.0000
G01 Z0
G00 Z2.0000
G00 X15.2400Y53.3400
G01 Z-2.0000
G01 Z0
G00 Z2.0000
G00 X15.2400Y50.8000
G01 Z-2.0000
G01 Z0
G00 Z2.0000
G00 X15.2400Y48.2600
G01 Z-2.0000
G01 Z0
G00 Z2.0000
G00 X15.2400Y45.7200
G01 Z-2.0000
G01 Z0
G00 Z2.0000
G00 X15.2400Y43.1800
G01 Z-2.0000
G01 Z0
G00 Z2.0000
G00 X12.7000Y78.7400
G01 Z-2.0000
G01 Z0
G00 Z2.0000
G00 X12.7000Y76.2000
G01 Z-2.0000
G01 Z0
G00 Z2.0000
G00 X12.7000Y73.6600
G01 Z-2.0000
G01 Z0
G00 Z2.0000
G00 X12.7000Y71.1200
G01 Z-2.0000
G01 Z0
G00 Z2.0000
G00 X12.7000Y68.5800
G01 Z-2.0000
G01 Z0
G00 Z2.0000
G00 X12.7000Y66.0400
G01 Z-2.0000
G01 Z0
G00 Z2.0000
G00 X12.7000Y63.5000
G01 Z-2.0000
G01 Z0
G00 Z2.0000
G00 X12.7000Y60.9600
G01 Z-2.0000
G01 Z0
G00 Z2.0000
G00 X12.7000Y58.4200
G01 Z-2.0000
G01 Z0
G00 Z2.0000
G00 X12.7000Y55.8800
G01 Z-2.0000
G01 Z0
G00 Z2.0000
G00 X12.7000Y53.3400
G01 Z-2.0000
G01 Z0
G00 Z2.0000
G00 X12.7000Y50.8000
G01 Z-2.0000
G01 Z0
G00 Z2.0000
G00 X12.7000Y48.2600
G01 Z-2.0000
G01 Z0
G00 Z2.0000
G00 X12.7000Y45.7200
G01 Z-2.0000
G01 Z0
G00 Z2.0000
G00 X12.7000Y43.1800
G01 Z-2.0000
G01 Z0
G00 Z2.0000
G00 X19.9390Y97.0610
G01 Z-2.0000
G01 Z0
G00 Z2.0000
G00 X19.9390Y95.0595
G01 Z-2.0000
G01 Z0
G00 Z2.0000
G00 X14.2392Y99.0600
G01 Z-2.0000
G01 Z0
G00 Z2.0000
G00 X16.2408Y99.0600
G01 Z-2.0000
G01 Z0
G00 Z2.0000
G00 X13.9903Y92.8599
G01 Z-2.0000
G01 Z0
G00 Z2.0000
G00 X16.4897Y92.8599
G01 Z-2.0000
G01 Z0
G00 Z2.0000
G00 X43.1800Y101.6000
G01 Z-2.0000
G01 Z0
G00 Z2.0000
G00 X43.1800Y91.4400
G01 Z-2.0000
G01 Z0
G00 Z2.0000
G00 X25.1104Y88.8492
G01 Z-2.0000
G01 Z0
G00 Z2.0000
G00 X14.9504Y88.8492
G01 Z-2.0000
G01 Z0
G00 Z2.0000
G00 X38.1000Y22.8600
G01 Z-2.0000
G01 Z0
G00 Z2.0000
G00 X38.1000Y17.7800
G01 Z-2.0000
G01 Z0
G00 Z2.0000
G00 X16.2789Y22.8803
G01 Z-2.0000
G01 Z0
G00 Z2.0000
G00 X16.2789Y17.8003
G01 Z-2.0000
G01 Z0
G00 Z2.0000
G00 X50.8000Y101.6000
G01 Z-2.0000
G01 Z0
G00 Z2.0000
G00 X50.8000Y5.0800
G01 Z-2.0000
G01 Z0
G00 Z2.0000
G00 X5.0800Y101.6000
G01 Z-2.0000
G01 Z0
G00 Z2.0000
G00 X5.0800Y5.0800
G01 Z-2.0000
G01 Z0
G00 Z2.0000
G00 X0.0000Y0.0000
M05
M30