EESchema Schematic File Version 4
EELAYER 30 0
EELAYER END
$Descr A4 11693 8268
encoding utf-8
Sheet 1 1
Title ""
Date ""
Rev ""
Comp ""
Comment1 ""
Comment2 ""
Comment3 ""
Comment4 ""
$EndDescr
$Comp
L power:+9V #PWR01
U 1 1 6156BB2C
P 3900 1725
F 0 "#PWR01" H 3900 1575 50  0001 C CNN
F 1 "+9V" H 3915 1898 50  0000 C CNN
F 2 "" H 3900 1725 50  0001 C CNN
F 3 "" H 3900 1725 50  0001 C CNN
	1    3900 1725
	1    0    0    -1  
$EndComp
$Comp
L Device:R R2
U 1 1 6156BE2E
P 3900 1975
F 0 "R2" H 3975 2025 50  0000 L CNN
F 1 "10K" H 3970 1930 50  0000 L CNN
F 2 "" V 3830 1975 50  0001 C CNN
F 3 "~" H 3900 1975 50  0001 C CNN
	1    3900 1975
	1    0    0    -1  
$EndComp
$Comp
L Device:R R1
U 1 1 6156C16C
P 3550 2200
F 0 "R1" V 3550 2200 50  0000 C CNN
F 1 "1K" V 3434 2200 50  0000 C CNN
F 2 "" V 3480 2200 50  0001 C CNN
F 3 "~" H 3550 2200 50  0001 C CNN
	1    3550 2200
	0    1    1    0   
$EndComp
$Comp
L Device:C C1
U 1 1 6156CB07
P 3900 2450
F 0 "C1" H 4015 2496 50  0000 L CNN
F 1 "100n" H 4015 2405 50  0000 L CNN
F 2 "" H 3938 2300 50  0001 C CNN
F 3 "~" H 3900 2450 50  0001 C CNN
	1    3900 2450
	1    0    0    -1  
$EndComp
$Comp
L Switch:SW_MEC_5G SW1
U 1 1 6156D4DB
P 3050 2200
F 0 "SW1" H 3050 2393 50  0000 C CNN
F 1 "SW_MEC_5G" H 3050 2394 50  0001 C CNN
F 2 "" H 3050 2400 50  0001 C CNN
F 3 "http://www.apem.com/int/index.php?controller=attachment&id_attachment=488" H 3050 2400 50  0001 C CNN
	1    3050 2200
	1    0    0    -1  
$EndComp
$Comp
L power:Earth #PWR02
U 1 1 6156DBAF
P 3900 2850
F 0 "#PWR02" H 3900 2600 50  0001 C CNN
F 1 "Earth" H 3900 2700 50  0001 C CNN
F 2 "" H 3900 2850 50  0001 C CNN
F 3 "~" H 3900 2850 50  0001 C CNN
	1    3900 2850
	1    0    0    -1  
$EndComp
Wire Wire Line
	3900 2200 3900 2125
Wire Wire Line
	3900 2300 3900 2200
Connection ~ 3900 2200
Wire Wire Line
	3900 2600 3900 2750
Wire Wire Line
	3900 2750 2750 2750
Wire Wire Line
	2750 2750 2750 2200
Wire Wire Line
	2750 2200 2850 2200
Wire Wire Line
	3250 2200 3400 2200
Connection ~ 3900 2750
Wire Wire Line
	3900 1825 3900 1725
Text GLabel 4075 2200 2    50   BiDi ~ 0
pin
Wire Wire Line
	3700 2200 3900 2200
Wire Wire Line
	4075 2200 3900 2200
Wire Wire Line
	3900 2750 3900 2850
$EndSCHEMATC
