"#","Reference","Qty","Value","Footprint","DNP"
"1","A1","1","Arduino_Nano_v3.x","Module:Arduino_Nano",""
"2","C1","1","47uF","Capacitor_THT:CP_Radial_D5.0mm_P2.00mm",""
"3","C2","1","10uF","Capacitor_THT:CP_Radial_D5.0mm_P2.00mm",""
"4","C3","1","330uF","Capacitor_THT:CP_Radial_D6.3mm_P2.50mm",""
"5","D1, D2","2","1N4007","Diode_THT:D_DO-41_SOD81_P10.16mm_Horizontal",""
"6","H1, H2, H3, H4","4","MountingHole_Pad","MountingHole:MountingHole_3.2mm_M3_ISO7380_Pad",""
"7","J1","1","~","Connector_PinHeader_2.54mm:PinHeader_1x02_P2.54mm_Vertical",""
"8","J2","1","~","Connector_BarrelJack:BarrelJack_Kycon_KLDX-0202-xC_Horizontal",""
"9","J3, J6","2","Conn_01x15_Socket","Connector_PinHeader_2.54mm:PinHeader_1x15_P2.54mm_Vertical",""
"10","J4, J5","2","~","TerminalBlock:TerminalBlock_bornier-2_P5.08mm",""
"11","J7, J8, J9, J10","4","~","Connector_PinHeader_2.54mm:PinHeader_1x15_P2.54mm_Vertical",""
"12","Q1, Q2","2","PN2222A","Package_TO_SOT_THT:TO-92L_Inline_Wide",""
"13","R1, R3","2","10K","Resistor_THT:R_Axial_DIN0207_L6.3mm_D2.5mm_P10.16mm_Horizontal",""
"14","R2, R4","2","330","Resistor_THT:R_Axial_DIN0207_L6.3mm_D2.5mm_P10.16mm_Horizontal",""
"15","R5, R6","2","100K","Resistor_THT:R_Axial_DIN0207_L6.3mm_D2.5mm_P10.16mm_Horizontal",""
"16","R7","1","R","Resistor_THT:R_Axial_DIN0207_L6.3mm_D2.5mm_P15.24mm_Horizontal",""
"17","R8","1","R","Resistor_THT:R_Axial_DIN0204_L3.6mm_D1.6mm_P7.62mm_Horizontal",""
"18","R9","1","R","Resistor_THT:R_Axial_DIN0204_L3.6mm_D1.6mm_P5.08mm_Horizontal",""
"19","R10","1","R","Resistor_THT:R_Axial_DIN0207_L6.3mm_D2.5mm_P10.16mm_Horizontal",""
"20","R11","1","R","Resistor_THT:R_Axial_DIN0309_L9.0mm_D3.2mm_P5.08mm_Vertical",""
"21","SW1","1","~","Connector_PinHeader_2.54mm:PinHeader_1x03_P2.54mm_Vertical",""
"22","U1","1","L7805","Package_TO_SOT_SMD:ATPAK-2",""
"23","U2","1","L293D","Package_DIP:DIP-16_W7.62mm",""
