
G21
G90
G94
F200.00
G00 Z2.0000
M03
G00 X38.1000Y22.8600
G01 Z-2.0000
G01 Z0
G00 Z2.0000
G00 X38.1000Y17.7800
G01 Z-2.0000
G01 Z0
G00 Z2.0000
G00 X15.2400Y22.8600
G01 Z-2.0000
G01 Z0
G00 Z2.0000
G00 X15.2400Y17.7800
G01 Z-2.0000
G01 Z0
G00 Z2.0000
G00 X50.8000Y101.6000
G01 Z-2.0000
G01 Z0
G00 Z2.0000
G00 X50.8000Y5.0800
G01 Z-2.0000
G01 Z0
G00 Z2.0000
G00 X5.0800Y101.6000
G01 Z-2.0000
G01 Z0
G00 Z2.0000
G00 X5.0800Y5.0800
G01 Z-2.0000
G01 Z0
G00 Z2.0000
G00 X0.0000Y0.0000
M05
M30