(kicad_sch (version 20230121) (generator eeschema)

  (uuid f4edb11c-3ad5-41fb-bfb9-c60ae80104ce)

  (paper "A4")

  (lib_symbols
    (symbol "Device:R" (pin_numbers hide) (pin_names (offset 0)) (in_bom yes) (on_board yes)
      (property "Reference" "R" (at 2.032 0 90)
        (effects (font (size 1.27 1.27)))
      )
      (property "Value" "R" (at 0 0 90)
        (effects (font (size 1.27 1.27)))
      )
      (property "Footprint" "" (at -1.778 0 90)
        (effects (font (size 1.27 1.27)) hide)
      )
      (property "Datasheet" "~" (at 0 0 0)
        (effects (font (size 1.27 1.27)) hide)
      )
      (property "ki_keywords" "R res resistor" (at 0 0 0)
        (effects (font (size 1.27 1.27)) hide)
      )
      (property "ki_description" "Resistor" (at 0 0 0)
        (effects (font (size 1.27 1.27)) hide)
      )
      (property "ki_fp_filters" "R_*" (at 0 0 0)
        (effects (font (size 1.27 1.27)) hide)
      )
      (symbol "R_0_1"
        (rectangle (start -1.016 -2.54) (end 1.016 2.54)
          (stroke (width 0.254) (type default))
          (fill (type none))
        )
      )
      (symbol "R_1_1"
        (pin passive line (at 0 3.81 270) (length 1.27)
          (name "~" (effects (font (size 1.27 1.27))))
          (number "1" (effects (font (size 1.27 1.27))))
        )
        (pin passive line (at 0 -3.81 90) (length 1.27)
          (name "~" (effects (font (size 1.27 1.27))))
          (number "2" (effects (font (size 1.27 1.27))))
        )
      )
    )
    (symbol "power:+5V" (power) (pin_names (offset 0)) (in_bom yes) (on_board yes)
      (property "Reference" "#PWR" (at 0 -3.81 0)
        (effects (font (size 1.27 1.27)) hide)
      )
      (property "Value" "+5V" (at 0 3.556 0)
        (effects (font (size 1.27 1.27)))
      )
      (property "Footprint" "" (at 0 0 0)
        (effects (font (size 1.27 1.27)) hide)
      )
      (property "Datasheet" "" (at 0 0 0)
        (effects (font (size 1.27 1.27)) hide)
      )
      (property "ki_keywords" "global power" (at 0 0 0)
        (effects (font (size 1.27 1.27)) hide)
      )
      (property "ki_description" "Power symbol creates a global label with name \"+5V\"" (at 0 0 0)
        (effects (font (size 1.27 1.27)) hide)
      )
      (symbol "+5V_0_1"
        (polyline
          (pts
            (xy -0.762 1.27)
            (xy 0 2.54)
          )
          (stroke (width 0) (type default))
          (fill (type none))
        )
        (polyline
          (pts
            (xy 0 0)
            (xy 0 2.54)
          )
          (stroke (width 0) (type default))
          (fill (type none))
        )
        (polyline
          (pts
            (xy 0 2.54)
            (xy 0.762 1.27)
          )
          (stroke (width 0) (type default))
          (fill (type none))
        )
      )
      (symbol "+5V_1_1"
        (pin power_in line (at 0 0 90) (length 0) hide
          (name "+5V" (effects (font (size 1.27 1.27))))
          (number "1" (effects (font (size 1.27 1.27))))
        )
      )
    )
    (symbol "power:Earth" (power) (pin_names (offset 0)) (in_bom yes) (on_board yes)
      (property "Reference" "#PWR" (at 0 -6.35 0)
        (effects (font (size 1.27 1.27)) hide)
      )
      (property "Value" "Earth" (at 0 -3.81 0)
        (effects (font (size 1.27 1.27)) hide)
      )
      (property "Footprint" "" (at 0 0 0)
        (effects (font (size 1.27 1.27)) hide)
      )
      (property "Datasheet" "~" (at 0 0 0)
        (effects (font (size 1.27 1.27)) hide)
      )
      (property "ki_keywords" "global ground gnd" (at 0 0 0)
        (effects (font (size 1.27 1.27)) hide)
      )
      (property "ki_description" "Power symbol creates a global label with name \"Earth\"" (at 0 0 0)
        (effects (font (size 1.27 1.27)) hide)
      )
      (symbol "Earth_0_1"
        (polyline
          (pts
            (xy -0.635 -1.905)
            (xy 0.635 -1.905)
          )
          (stroke (width 0) (type default))
          (fill (type none))
        )
        (polyline
          (pts
            (xy -0.127 -2.54)
            (xy 0.127 -2.54)
          )
          (stroke (width 0) (type default))
          (fill (type none))
        )
        (polyline
          (pts
            (xy 0 -1.27)
            (xy 0 0)
          )
          (stroke (width 0) (type default))
          (fill (type none))
        )
        (polyline
          (pts
            (xy 1.27 -1.27)
            (xy -1.27 -1.27)
          )
          (stroke (width 0) (type default))
          (fill (type none))
        )
      )
      (symbol "Earth_1_1"
        (pin power_in line (at 0 0 270) (length 0) hide
          (name "Earth" (effects (font (size 1.27 1.27))))
          (number "1" (effects (font (size 1.27 1.27))))
        )
      )
    )
  )

  (junction (at 107.95 93.98) (diameter 0) (color 0 0 0 0)
    (uuid 11783897-74b4-42b9-a773-97bd1dee3e42)
  )
  (junction (at 107.95 88.9) (diameter 0) (color 0 0 0 0)
    (uuid fc5d359c-b62f-489a-b6b0-8b791375138a)
  )

  (wire (pts (xy 114.3 93.98) (xy 107.95 93.98))
    (stroke (width 0) (type default))
    (uuid 626e15dc-83c8-4577-bb90-b26687312706)
  )
  (wire (pts (xy 101.6 93.98) (xy 107.95 93.98))
    (stroke (width 0) (type default))
    (uuid 66a48a81-1b3c-4588-82dd-c386b511ad49)
  )
  (wire (pts (xy 107.95 93.98) (xy 107.95 96.52))
    (stroke (width 0) (type default))
    (uuid 72c77071-e4cb-4e8e-9128-f6a652c9c1da)
  )
  (wire (pts (xy 101.6 88.9) (xy 107.95 88.9))
    (stroke (width 0) (type default))
    (uuid 7f9c1787-8ab0-4b7d-9046-c3e7eac510ee)
  )
  (wire (pts (xy 107.95 88.9) (xy 114.3 88.9))
    (stroke (width 0) (type default))
    (uuid 932f248b-c589-400e-9496-7d8b3aa2df5c)
  )
  (wire (pts (xy 107.95 76.2) (xy 107.95 78.74))
    (stroke (width 0) (type default))
    (uuid c02c54ed-400c-412a-9421-28d7cb790c13)
  )
  (wire (pts (xy 107.95 86.36) (xy 107.95 88.9))
    (stroke (width 0) (type default))
    (uuid ebbb46f8-4a7b-42d0-a67c-fff1e606aa34)
  )

  (global_label "milling cutter" (shape output) (at 101.6 88.9 180) (fields_autoplaced)
    (effects (font (size 1.27 1.27)) (justify right))
    (uuid 7e80e80e-4489-4c27-8b7c-8eb625ca3fc1)
    (property "Intersheetrefs" "${INTERSHEET_REFS}" (at 85.5521 88.9 0)
      (effects (font (size 1.27 1.27)) (justify right) hide)
    )
  )
  (global_label "GND CNC" (shape output) (at 114.3 93.98 0) (fields_autoplaced)
    (effects (font (size 1.27 1.27)) (justify left))
    (uuid aaf0cf86-4248-4bbb-b830-a8b6b1c0a11d)
    (property "Intersheetrefs" "${INTERSHEET_REFS}" (at 125.9938 93.98 0)
      (effects (font (size 1.27 1.27)) (justify left) hide)
    )
  )
  (global_label "Circuit Board" (shape output) (at 101.6 93.98 180) (fields_autoplaced)
    (effects (font (size 1.27 1.27)) (justify right))
    (uuid c2d052f9-f030-4112-8874-dff40cf67a22)
    (property "Intersheetrefs" "${INTERSHEET_REFS}" (at 85.9149 93.98 0)
      (effects (font (size 1.27 1.27)) (justify right) hide)
    )
  )
  (global_label "A5 CNC" (shape output) (at 114.3 88.9 0) (fields_autoplaced)
    (effects (font (size 1.27 1.27)) (justify left))
    (uuid fcb0564f-6877-4dc6-b3ab-e3b3633fe4f4)
    (property "Intersheetrefs" "${INTERSHEET_REFS}" (at 124.4214 88.9 0)
      (effects (font (size 1.27 1.27)) (justify left) hide)
    )
  )

  (symbol (lib_id "power:Earth") (at 107.95 96.52 0) (unit 1)
    (in_bom yes) (on_board yes) (dnp no) (fields_autoplaced)
    (uuid 044562e4-1917-4d05-963d-704969ab99d4)
    (property "Reference" "#PWR01" (at 107.95 102.87 0)
      (effects (font (size 1.27 1.27)) hide)
    )
    (property "Value" "Earth" (at 107.95 100.33 0)
      (effects (font (size 1.27 1.27)) hide)
    )
    (property "Footprint" "" (at 107.95 96.52 0)
      (effects (font (size 1.27 1.27)) hide)
    )
    (property "Datasheet" "~" (at 107.95 96.52 0)
      (effects (font (size 1.27 1.27)) hide)
    )
    (pin "1" (uuid 27d49bb4-5d39-4831-9473-d720db9baf30))
    (instances
      (project "autoZ3018"
        (path "/f4edb11c-3ad5-41fb-bfb9-c60ae80104ce"
          (reference "#PWR01") (unit 1)
        )
      )
    )
  )

  (symbol (lib_id "Device:R") (at 107.95 82.55 0) (unit 1)
    (in_bom yes) (on_board yes) (dnp no) (fields_autoplaced)
    (uuid 63e9b692-4859-4c6d-a5a6-3584a8dd0bf4)
    (property "Reference" "R1" (at 110.49 81.28 0)
      (effects (font (size 1.27 1.27)) (justify left))
    )
    (property "Value" "10K" (at 110.49 83.82 0)
      (effects (font (size 1.27 1.27)) (justify left))
    )
    (property "Footprint" "" (at 106.172 82.55 90)
      (effects (font (size 1.27 1.27)) hide)
    )
    (property "Datasheet" "~" (at 107.95 82.55 0)
      (effects (font (size 1.27 1.27)) hide)
    )
    (pin "1" (uuid 18977228-913a-4963-a4f2-a527fde6ccd8))
    (pin "2" (uuid a2502c70-dc35-4cd4-bfc7-4e56fced18da))
    (instances
      (project "autoZ3018"
        (path "/f4edb11c-3ad5-41fb-bfb9-c60ae80104ce"
          (reference "R1") (unit 1)
        )
      )
    )
  )

  (symbol (lib_id "power:+5V") (at 107.95 76.2 0) (unit 1)
    (in_bom yes) (on_board yes) (dnp no) (fields_autoplaced)
    (uuid dd6899c5-943e-40be-94a4-d2dd4122e06e)
    (property "Reference" "#PWR02" (at 107.95 80.01 0)
      (effects (font (size 1.27 1.27)) hide)
    )
    (property "Value" "+5V" (at 107.95 71.12 0)
      (effects (font (size 1.27 1.27)))
    )
    (property "Footprint" "" (at 107.95 76.2 0)
      (effects (font (size 1.27 1.27)) hide)
    )
    (property "Datasheet" "" (at 107.95 76.2 0)
      (effects (font (size 1.27 1.27)) hide)
    )
    (pin "1" (uuid 86456d3f-2904-4773-8b41-819f7d8fe750))
    (instances
      (project "autoZ3018"
        (path "/f4edb11c-3ad5-41fb-bfb9-c60ae80104ce"
          (reference "#PWR02") (unit 1)
        )
      )
    )
  )

  (sheet_instances
    (path "/" (page "1"))
  )
)
