(kicad_symbol_lib
	(version 20231120)
	(generator "kicad_symbol_editor")
	(generator_version "8.0")
	(symbol "+9V-power"
		(power)
		(pin_names
			(offset 0)
		)
		(exclude_from_sim no)
		(in_bom yes)
		(on_board yes)
		(property "Reference" "#PWR"
			(at 0 -3.81 0)
			(effects
				(font
					(size 1.27 1.27)
				)
				(hide yes)
			)
		)
		(property "Value" "power_+9V"
			(at 0 3.556 0)
			(effects
				(font
					(size 1.27 1.27)
				)
			)
		)
		(property "Footprint" ""
			(at 0 0 0)
			(effects
				(font
					(size 1.27 1.27)
				)
				(hide yes)
			)
		)
		(property "Datasheet" ""
			(at 0 0 0)
			(effects
				(font
					(size 1.27 1.27)
				)
				(hide yes)
			)
		)
		(property "Description" ""
			(at 0 0 0)
			(effects
				(font
					(size 1.27 1.27)
				)
				(hide yes)
			)
		)
		(symbol "+9V-power_0_1"
			(polyline
				(pts
					(xy -0.762 1.27) (xy 0 2.54)
				)
				(stroke
					(width 0)
					(type solid)
				)
				(fill
					(type none)
				)
			)
			(polyline
				(pts
					(xy 0 0) (xy 0 2.54)
				)
				(stroke
					(width 0)
					(type solid)
				)
				(fill
					(type none)
				)
			)
			(polyline
				(pts
					(xy 0 2.54) (xy 0.762 1.27)
				)
				(stroke
					(width 0)
					(type solid)
				)
				(fill
					(type none)
				)
			)
		)
		(symbol "+9V-power_1_1"
			(pin power_in line
				(at 0 0 90)
				(length 0) hide
				(name "+9V"
					(effects
						(font
							(size 1.27 1.27)
						)
					)
				)
				(number "1"
					(effects
						(font
							(size 1.27 1.27)
						)
					)
				)
			)
		)
	)
	(symbol "Buzzer-Device"
		(pin_names
			(offset 0.0254) hide)
		(exclude_from_sim no)
		(in_bom yes)
		(on_board yes)
		(property "Reference" "BZ"
			(at 3.81 1.27 0)
			(effects
				(font
					(size 1.27 1.27)
				)
				(justify left)
			)
		)
		(property "Value" "Device_Buzzer"
			(at 3.81 -1.27 0)
			(effects
				(font
					(size 1.27 1.27)
				)
				(justify left)
			)
		)
		(property "Footprint" ""
			(at -0.635 2.54 90)
			(effects
				(font
					(size 1.27 1.27)
				)
				(hide yes)
			)
		)
		(property "Datasheet" ""
			(at -0.635 2.54 90)
			(effects
				(font
					(size 1.27 1.27)
				)
				(hide yes)
			)
		)
		(property "Description" ""
			(at 0 0 0)
			(effects
				(font
					(size 1.27 1.27)
				)
				(hide yes)
			)
		)
		(property "ki_fp_filters" "*Buzzer*"
			(at 0 0 0)
			(effects
				(font
					(size 1.27 1.27)
				)
				(hide yes)
			)
		)
		(symbol "Buzzer-Device_0_1"
			(arc
				(start 0 -3.175)
				(mid 3.175 0)
				(end 0 3.175)
				(stroke
					(width 0)
					(type solid)
				)
				(fill
					(type none)
				)
			)
			(polyline
				(pts
					(xy -1.651 1.905) (xy -1.143 1.905)
				)
				(stroke
					(width 0)
					(type solid)
				)
				(fill
					(type none)
				)
			)
			(polyline
				(pts
					(xy -1.397 2.159) (xy -1.397 1.651)
				)
				(stroke
					(width 0)
					(type solid)
				)
				(fill
					(type none)
				)
			)
			(polyline
				(pts
					(xy 0 3.175) (xy 0 -3.175)
				)
				(stroke
					(width 0)
					(type solid)
				)
				(fill
					(type none)
				)
			)
		)
		(symbol "Buzzer-Device_1_1"
			(pin passive line
				(at -2.54 2.54 0)
				(length 2.54)
				(name "-"
					(effects
						(font
							(size 1.27 1.27)
						)
					)
				)
				(number "1"
					(effects
						(font
							(size 1.27 1.27)
						)
					)
				)
			)
			(pin passive line
				(at -2.54 -2.54 0)
				(length 2.54)
				(name "+"
					(effects
						(font
							(size 1.27 1.27)
						)
					)
				)
				(number "2"
					(effects
						(font
							(size 1.27 1.27)
						)
					)
				)
			)
		)
	)
	(symbol "CP-Device"
		(pin_numbers hide)
		(pin_names
			(offset 0.254)
		)
		(exclude_from_sim no)
		(in_bom yes)
		(on_board yes)
		(property "Reference" "C"
			(at 0.635 2.54 0)
			(effects
				(font
					(size 1.27 1.27)
				)
				(justify left)
			)
		)
		(property "Value" "Device_CP"
			(at 0.635 -2.54 0)
			(effects
				(font
					(size 1.27 1.27)
				)
				(justify left)
			)
		)
		(property "Footprint" ""
			(at 0.9652 -3.81 0)
			(effects
				(font
					(size 1.27 1.27)
				)
				(hide yes)
			)
		)
		(property "Datasheet" ""
			(at 0 0 0)
			(effects
				(font
					(size 1.27 1.27)
				)
				(hide yes)
			)
		)
		(property "Description" ""
			(at 0 0 0)
			(effects
				(font
					(size 1.27 1.27)
				)
				(hide yes)
			)
		)
		(property "ki_fp_filters" "CP_*"
			(at 0 0 0)
			(effects
				(font
					(size 1.27 1.27)
				)
				(hide yes)
			)
		)
		(symbol "CP-Device_0_1"
			(rectangle
				(start -2.286 0.508)
				(end 2.286 1.016)
				(stroke
					(width 0)
					(type solid)
				)
				(fill
					(type none)
				)
			)
			(polyline
				(pts
					(xy -1.778 2.286) (xy -0.762 2.286)
				)
				(stroke
					(width 0)
					(type solid)
				)
				(fill
					(type none)
				)
			)
			(polyline
				(pts
					(xy -1.27 2.794) (xy -1.27 1.778)
				)
				(stroke
					(width 0)
					(type solid)
				)
				(fill
					(type none)
				)
			)
			(rectangle
				(start 2.286 -0.508)
				(end -2.286 -1.016)
				(stroke
					(width 0)
					(type solid)
				)
				(fill
					(type outline)
				)
			)
		)
		(symbol "CP-Device_1_1"
			(pin passive line
				(at 0 3.81 270)
				(length 2.794)
				(name "~"
					(effects
						(font
							(size 1.27 1.27)
						)
					)
				)
				(number "1"
					(effects
						(font
							(size 1.27 1.27)
						)
					)
				)
			)
			(pin passive line
				(at 0 -3.81 90)
				(length 2.794)
				(name "~"
					(effects
						(font
							(size 1.27 1.27)
						)
					)
				)
				(number "2"
					(effects
						(font
							(size 1.27 1.27)
						)
					)
				)
			)
		)
	)
	(symbol "Earth-power"
		(power)
		(pin_names
			(offset 0)
		)
		(exclude_from_sim no)
		(in_bom yes)
		(on_board yes)
		(property "Reference" "#PWR"
			(at 0 -6.35 0)
			(effects
				(font
					(size 1.27 1.27)
				)
				(hide yes)
			)
		)
		(property "Value" "power_Earth"
			(at 0 -3.81 0)
			(effects
				(font
					(size 1.27 1.27)
				)
				(hide yes)
			)
		)
		(property "Footprint" ""
			(at 0 0 0)
			(effects
				(font
					(size 1.27 1.27)
				)
				(hide yes)
			)
		)
		(property "Datasheet" ""
			(at 0 0 0)
			(effects
				(font
					(size 1.27 1.27)
				)
				(hide yes)
			)
		)
		(property "Description" ""
			(at 0 0 0)
			(effects
				(font
					(size 1.27 1.27)
				)
				(hide yes)
			)
		)
		(symbol "Earth-power_0_1"
			(polyline
				(pts
					(xy -0.635 -1.905) (xy 0.635 -1.905)
				)
				(stroke
					(width 0)
					(type solid)
				)
				(fill
					(type none)
				)
			)
			(polyline
				(pts
					(xy -0.127 -2.54) (xy 0.127 -2.54)
				)
				(stroke
					(width 0)
					(type solid)
				)
				(fill
					(type none)
				)
			)
			(polyline
				(pts
					(xy 0 -1.27) (xy 0 0)
				)
				(stroke
					(width 0)
					(type solid)
				)
				(fill
					(type none)
				)
			)
			(polyline
				(pts
					(xy 1.27 -1.27) (xy -1.27 -1.27)
				)
				(stroke
					(width 0)
					(type solid)
				)
				(fill
					(type none)
				)
			)
		)
		(symbol "Earth-power_1_1"
			(pin power_in line
				(at 0 0 270)
				(length 0) hide
				(name "Earth"
					(effects
						(font
							(size 1.27 1.27)
						)
					)
				)
				(number "1"
					(effects
						(font
							(size 1.27 1.27)
						)
					)
				)
			)
		)
	)
	(symbol "R_PHOTO-Device"
		(pin_numbers hide)
		(pin_names
			(offset 0)
		)
		(exclude_from_sim no)
		(in_bom yes)
		(on_board yes)
		(property "Reference" "R"
			(at 1.27 1.27 0)
			(effects
				(font
					(size 1.27 1.27)
				)
				(justify left)
			)
		)
		(property "Value" "Device_R_PHOTO"
			(at 1.27 0 0)
			(effects
				(font
					(size 1.27 1.27)
				)
				(justify left top)
			)
		)
		(property "Footprint" ""
			(at 1.27 -6.35 90)
			(effects
				(font
					(size 1.27 1.27)
				)
				(justify left)
				(hide yes)
			)
		)
		(property "Datasheet" ""
			(at 0 -1.27 0)
			(effects
				(font
					(size 1.27 1.27)
				)
				(hide yes)
			)
		)
		(property "Description" ""
			(at 0 0 0)
			(effects
				(font
					(size 1.27 1.27)
				)
				(hide yes)
			)
		)
		(property "ki_fp_filters" "*LDR* R?LDR*"
			(at 0 0 0)
			(effects
				(font
					(size 1.27 1.27)
				)
				(hide yes)
			)
		)
		(symbol "R_PHOTO-Device_0_1"
			(rectangle
				(start -1.016 2.54)
				(end 1.016 -2.54)
				(stroke
					(width 0.254)
					(type solid)
				)
				(fill
					(type none)
				)
			)
			(polyline
				(pts
					(xy -1.524 -2.286) (xy -4.064 0.254)
				)
				(stroke
					(width 0)
					(type solid)
				)
				(fill
					(type none)
				)
			)
			(polyline
				(pts
					(xy -1.524 -2.286) (xy -2.286 -2.286)
				)
				(stroke
					(width 0)
					(type solid)
				)
				(fill
					(type none)
				)
			)
			(polyline
				(pts
					(xy -1.524 -2.286) (xy -1.524 -1.524)
				)
				(stroke
					(width 0)
					(type solid)
				)
				(fill
					(type none)
				)
			)
			(polyline
				(pts
					(xy -1.524 -0.762) (xy -4.064 1.778)
				)
				(stroke
					(width 0)
					(type solid)
				)
				(fill
					(type none)
				)
			)
			(polyline
				(pts
					(xy -1.524 -0.762) (xy -2.286 -0.762)
				)
				(stroke
					(width 0)
					(type solid)
				)
				(fill
					(type none)
				)
			)
			(polyline
				(pts
					(xy -1.524 -0.762) (xy -1.524 0)
				)
				(stroke
					(width 0)
					(type solid)
				)
				(fill
					(type none)
				)
			)
		)
		(symbol "R_PHOTO-Device_1_1"
			(pin passive line
				(at 0 3.81 270)
				(length 1.27)
				(name "~"
					(effects
						(font
							(size 1.27 1.27)
						)
					)
				)
				(number "1"
					(effects
						(font
							(size 1.27 1.27)
						)
					)
				)
			)
			(pin passive line
				(at 0 -3.81 90)
				(length 1.27)
				(name "~"
					(effects
						(font
							(size 1.27 1.27)
						)
					)
				)
				(number "2"
					(effects
						(font
							(size 1.27 1.27)
						)
					)
				)
			)
		)
	)
	(symbol "R_POT-Device"
		(pin_names
			(offset 1.016) hide)
		(exclude_from_sim no)
		(in_bom yes)
		(on_board yes)
		(property "Reference" "RV"
			(at -4.445 0 90)
			(effects
				(font
					(size 1.27 1.27)
				)
			)
		)
		(property "Value" "Device_R_POT"
			(at -2.54 0 90)
			(effects
				(font
					(size 1.27 1.27)
				)
			)
		)
		(property "Footprint" ""
			(at 0 0 0)
			(effects
				(font
					(size 1.27 1.27)
				)
				(hide yes)
			)
		)
		(property "Datasheet" ""
			(at 0 0 0)
			(effects
				(font
					(size 1.27 1.27)
				)
				(hide yes)
			)
		)
		(property "Description" ""
			(at 0 0 0)
			(effects
				(font
					(size 1.27 1.27)
				)
				(hide yes)
			)
		)
		(property "ki_fp_filters" "Potentiometer*"
			(at 0 0 0)
			(effects
				(font
					(size 1.27 1.27)
				)
				(hide yes)
			)
		)
		(symbol "R_POT-Device_0_1"
			(polyline
				(pts
					(xy 2.54 0) (xy 1.524 0)
				)
				(stroke
					(width 0)
					(type solid)
				)
				(fill
					(type none)
				)
			)
			(polyline
				(pts
					(xy 1.143 0) (xy 2.286 0.508) (xy 2.286 -0.508) (xy 1.143 0)
				)
				(stroke
					(width 0)
					(type solid)
				)
				(fill
					(type outline)
				)
			)
			(rectangle
				(start 1.016 2.54)
				(end -1.016 -2.54)
				(stroke
					(width 0.254)
					(type solid)
				)
				(fill
					(type none)
				)
			)
		)
		(symbol "R_POT-Device_1_1"
			(pin passive line
				(at 0 3.81 270)
				(length 1.27)
				(name "1"
					(effects
						(font
							(size 1.27 1.27)
						)
					)
				)
				(number "1"
					(effects
						(font
							(size 1.27 1.27)
						)
					)
				)
			)
			(pin passive line
				(at 3.81 0 180)
				(length 1.27)
				(name "2"
					(effects
						(font
							(size 1.27 1.27)
						)
					)
				)
				(number "2"
					(effects
						(font
							(size 1.27 1.27)
						)
					)
				)
			)
			(pin passive line
				(at 0 -3.81 90)
				(length 1.27)
				(name "3"
					(effects
						(font
							(size 1.27 1.27)
						)
					)
				)
				(number "3"
					(effects
						(font
							(size 1.27 1.27)
						)
					)
				)
			)
		)
	)
)
