EESchema Schematic File Version 4
EELAYER 30 0
EELAYER END
$Descr A4 11693 8268
encoding utf-8
Sheet 1 1
Title ""
Date ""
Rev ""
Comp ""
Comment1 ""
Comment2 ""
Comment3 ""
Comment4 ""
$EndDescr
$Comp
L power:+9V #PWR01
U 1 1 5F972BE3
P 1250 1100
F 0 "#PWR01" H 1250 950 50  0001 C CNN
F 1 "+9V" H 1265 1273 50  0000 C CNN
F 2 "" H 1250 1100 50  0001 C CNN
F 3 "" H 1250 1100 50  0001 C CNN
	1    1250 1100
	1    0    0    -1  
$EndComp
$Comp
L Device:R R1
U 1 1 5F972D0F
P 1250 1400
F 0 "R1" H 1320 1446 50  0000 L CNN
F 1 "1K" H 1320 1355 50  0000 L CNN
F 2 "" V 1180 1400 50  0001 C CNN
F 3 "~" H 1250 1400 50  0001 C CNN
	1    1250 1400
	1    0    0    -1  
$EndComp
$Comp
L Device:LED D1
U 1 1 5F972EF5
P 1250 1850
F 0 "D1" V 1289 1732 50  0000 R CNN
F 1 "LED" V 1198 1732 50  0000 R CNN
F 2 "" H 1250 1850 50  0001 C CNN
F 3 "~" H 1250 1850 50  0001 C CNN
	1    1250 1850
	0    -1   -1   0   
$EndComp
$Comp
L Switch:SW_DPST_x2 SW1
U 1 1 5F97377C
P 1900 2350
F 0 "SW1" H 1900 2493 50  0000 C CNN
F 1 "SW_DPST_x2" H 1900 2494 50  0001 C CNN
F 2 "" H 1900 2350 50  0001 C CNN
F 3 "~" H 1900 2350 50  0001 C CNN
	1    1900 2350
	1    0    0    -1  
$EndComp
$Comp
L Transistor_BJT:PN2222A Q1
U 1 1 5F9739C2
P 1350 2350
F 0 "Q1" H 1541 2396 50  0000 L CNN
F 1 "PN2222A" H 1541 2305 50  0000 L CNN
F 2 "Package_TO_SOT_THT:TO-92_Inline" H 1550 2275 50  0001 L CIN
F 3 "https://www.onsemi.com/pub/Collateral/PN2222-D.PDF" H 1350 2350 50  0001 L CNN
	1    1350 2350
	-1   0    0    -1  
$EndComp
$Comp
L Device:R R3
U 1 1 5F97500D
P 2400 2350
F 0 "R3" V 2193 2350 50  0000 C CNN
F 1 "10K" V 2284 2350 50  0000 C CNN
F 2 "" V 2330 2350 50  0001 C CNN
F 3 "~" H 2400 2350 50  0001 C CNN
	1    2400 2350
	0    1    1    0   
$EndComp
$Comp
L power:Earth #PWR02
U 1 1 5F9765B1
P 1250 2700
F 0 "#PWR02" H 1250 2450 50  0001 C CNN
F 1 "Earth" H 1250 2550 50  0001 C CNN
F 2 "" H 1250 2700 50  0001 C CNN
F 3 "~" H 1250 2700 50  0001 C CNN
	1    1250 2700
	1    0    0    -1  
$EndComp
Wire Wire Line
	1250 2700 1250 2550
Wire Wire Line
	1550 2350 1700 2350
Wire Wire Line
	2100 2350 2250 2350
Wire Wire Line
	1250 2000 1250 2150
Wire Wire Line
	1250 1550 1250 1700
Wire Wire Line
	1250 1100 1250 1200
Wire Wire Line
	1250 1200 2700 1200
Wire Wire Line
	2700 1200 2700 2350
Wire Wire Line
	2700 2350 2550 2350
Connection ~ 1250 1200
Wire Wire Line
	1250 1200 1250 1250
$Comp
L Switch:SW_DPST_x2 SW2
U 2 1 5F982AE3
P 7000 2350
F 0 "SW2" H 7000 2500 50  0000 C CNN
F 1 "SW_DPST_x2" H 7000 2493 50  0001 C CNN
F 2 "" H 7000 2350 50  0001 C CNN
F 3 "~" H 7000 2350 50  0001 C CNN
	2    7000 2350
	1    0    0    -1  
$EndComp
$Comp
L Transistor_BJT:PN2222A Q5
U 1 1 5F982AE9
P 6300 2350
F 0 "Q5" H 6491 2396 50  0000 L CNN
F 1 "PN2222A" H 6491 2305 50  0000 L CNN
F 2 "Package_TO_SOT_THT:TO-92_Inline" H 6500 2275 50  0001 L CIN
F 3 "https://www.onsemi.com/pub/Collateral/PN2222-D.PDF" H 6300 2350 50  0001 L CNN
	1    6300 2350
	-1   0    0    -1  
$EndComp
$Comp
L Device:R R12
U 1 1 5F982AEF
P 7500 2350
F 0 "R12" V 7293 2350 50  0000 C CNN
F 1 "10K" V 7384 2350 50  0000 C CNN
F 2 "" V 7430 2350 50  0001 C CNN
F 3 "~" H 7500 2350 50  0001 C CNN
	1    7500 2350
	0    1    1    0   
$EndComp
Wire Wire Line
	7200 2350 7350 2350
Wire Wire Line
	7800 2350 7650 2350
$Comp
L Device:CP C3
U 1 1 5F982FB8
P 6650 2600
F 0 "C3" H 6768 2646 50  0000 L CNN
F 1 "470uF" H 6768 2555 50  0000 L CNN
F 2 "" H 6688 2450 50  0001 C CNN
F 3 "~" H 6650 2600 50  0001 C CNN
	1    6650 2600
	1    0    0    -1  
$EndComp
Wire Wire Line
	6500 2350 6650 2350
Wire Wire Line
	6650 2450 6650 2350
Connection ~ 6650 2350
Wire Wire Line
	6650 2350 6800 2350
Wire Wire Line
	6200 2550 6200 2850
Wire Wire Line
	6650 2750 6650 2850
Wire Wire Line
	6650 2850 6200 2850
Connection ~ 6200 2850
Wire Wire Line
	6200 2850 6200 3000
$Comp
L Device:R R11
U 1 1 5F988FE4
P 6200 1400
F 0 "R11" H 6270 1446 50  0000 L CNN
F 1 "1K" H 6270 1355 50  0000 L CNN
F 2 "" V 6130 1400 50  0001 C CNN
F 3 "~" H 6200 1400 50  0001 C CNN
	1    6200 1400
	1    0    0    -1  
$EndComp
$Comp
L Device:LED D5
U 1 1 5F988FEA
P 6200 1850
F 0 "D5" V 6239 1732 50  0000 R CNN
F 1 "LED" V 6148 1732 50  0000 R CNN
F 2 "" H 6200 1850 50  0001 C CNN
F 3 "~" H 6200 1850 50  0001 C CNN
	1    6200 1850
	0    -1   -1   0   
$EndComp
Wire Wire Line
	6200 2000 6200 2150
Wire Wire Line
	6200 1550 6200 1700
$Comp
L power:+9V #PWR010
U 1 1 5F9896BD
P 6200 1100
F 0 "#PWR010" H 6200 950 50  0001 C CNN
F 1 "+9V" H 6215 1273 50  0000 C CNN
F 2 "" H 6200 1100 50  0001 C CNN
F 3 "" H 6200 1100 50  0001 C CNN
	1    6200 1100
	1    0    0    -1  
$EndComp
Wire Wire Line
	6200 1100 6200 1200
Wire Wire Line
	7800 2350 7800 1200
Wire Wire Line
	7800 1200 6200 1200
Connection ~ 6200 1200
Wire Wire Line
	6200 1200 6200 1250
$Comp
L Switch:SW_DPST_x2 SW3
U 1 1 5F98F4FD
P 9900 2350
F 0 "SW3" H 9900 2493 50  0000 C CNN
F 1 "SW_DPST_x2" H 9900 2494 50  0001 C CNN
F 2 "" H 9900 2350 50  0001 C CNN
F 3 "~" H 9900 2350 50  0001 C CNN
	1    9900 2350
	1    0    0    -1  
$EndComp
$Comp
L Transistor_BJT:PN2222A Q7
U 1 1 5F98F503
P 8650 2350
F 0 "Q7" H 8841 2396 50  0000 L CNN
F 1 "PN2222A" H 8841 2305 50  0000 L CNN
F 2 "Package_TO_SOT_THT:TO-92_Inline" H 8850 2275 50  0001 L CIN
F 3 "https://www.onsemi.com/pub/Collateral/PN2222-D.PDF" H 8650 2350 50  0001 L CNN
	1    8650 2350
	-1   0    0    -1  
$EndComp
$Comp
L Device:R R17
U 1 1 5F98F509
P 10400 2350
F 0 "R17" V 10193 2350 50  0000 C CNN
F 1 "10K" V 10284 2350 50  0000 C CNN
F 2 "" V 10330 2350 50  0001 C CNN
F 3 "~" H 10400 2350 50  0001 C CNN
	1    10400 2350
	0    1    1    0   
$EndComp
$Comp
L power:Earth #PWR014
U 1 1 5F98F50F
P 8550 3000
F 0 "#PWR014" H 8550 2750 50  0001 C CNN
F 1 "Earth" H 8550 2850 50  0001 C CNN
F 2 "" H 8550 3000 50  0001 C CNN
F 3 "~" H 8550 3000 50  0001 C CNN
	1    8550 3000
	1    0    0    -1  
$EndComp
Wire Wire Line
	10100 2350 10250 2350
Wire Wire Line
	10700 2350 10550 2350
$Comp
L Device:CP C4
U 1 1 5F98F517
P 9000 2600
F 0 "C4" H 9118 2646 50  0000 L CNN
F 1 "470uF" H 9050 2450 50  0000 L CNN
F 2 "" H 9038 2450 50  0001 C CNN
F 3 "~" H 9000 2600 50  0001 C CNN
	1    9000 2600
	1    0    0    -1  
$EndComp
Wire Wire Line
	8850 2350 9000 2350
Wire Wire Line
	9000 2450 9000 2350
Wire Wire Line
	8550 2550 8550 2850
Wire Wire Line
	9000 2750 9000 2850
Wire Wire Line
	9000 2850 8550 2850
Connection ~ 8550 2850
Wire Wire Line
	8550 2850 8550 3000
$Comp
L Device:R R13
U 1 1 5F98F526
P 8550 1400
F 0 "R13" H 8620 1446 50  0000 L CNN
F 1 "1K" H 8620 1355 50  0000 L CNN
F 2 "" V 8480 1400 50  0001 C CNN
F 3 "~" H 8550 1400 50  0001 C CNN
	1    8550 1400
	1    0    0    -1  
$EndComp
$Comp
L Device:LED D7
U 1 1 5F98F52C
P 8550 1850
F 0 "D7" V 8589 1732 50  0000 R CNN
F 1 "LED" V 8498 1732 50  0000 R CNN
F 2 "" H 8550 1850 50  0001 C CNN
F 3 "~" H 8550 1850 50  0001 C CNN
	1    8550 1850
	0    -1   -1   0   
$EndComp
Wire Wire Line
	8550 2000 8550 2150
Wire Wire Line
	8550 1550 8550 1700
$Comp
L power:+9V #PWR013
U 1 1 5F98F534
P 8550 1100
F 0 "#PWR013" H 8550 950 50  0001 C CNN
F 1 "+9V" H 8565 1273 50  0000 C CNN
F 2 "" H 8550 1100 50  0001 C CNN
F 3 "" H 8550 1100 50  0001 C CNN
	1    8550 1100
	1    0    0    -1  
$EndComp
Wire Wire Line
	8550 1100 8550 1200
Connection ~ 8550 1200
Wire Wire Line
	8550 1200 8550 1250
$Comp
L Device:CP C6
U 1 1 5F9930B7
P 9350 2600
F 0 "C6" H 9468 2646 50  0000 L CNN
F 1 "470uF" H 9400 2450 50  0000 L CNN
F 2 "" H 9388 2450 50  0001 C CNN
F 3 "~" H 9350 2600 50  0001 C CNN
	1    9350 2600
	1    0    0    -1  
$EndComp
Wire Wire Line
	9000 2350 9350 2350
Connection ~ 9000 2350
Wire Wire Line
	9000 2850 9350 2850
Wire Wire Line
	9350 2850 9350 2750
Connection ~ 9000 2850
Wire Wire Line
	9350 2450 9350 2350
Connection ~ 9350 2350
Wire Wire Line
	9350 2350 9700 2350
Wire Wire Line
	10700 2350 10700 1200
Wire Wire Line
	8550 1200 10700 1200
$Comp
L Switch:SW_DPST_x2 SW1
U 2 1 5F99C5AE
P 2600 4500
F 0 "SW1" H 2600 4643 50  0000 C CNN
F 1 "SW_DPST_x2" H 2600 4643 50  0001 C CNN
F 2 "" H 2600 4500 50  0001 C CNN
F 3 "~" H 2600 4500 50  0001 C CNN
	2    2600 4500
	1    0    0    -1  
$EndComp
$Comp
L Transistor_BJT:PN2222A Q2
U 1 1 5F99C5B4
P 1350 4500
F 0 "Q2" H 1541 4546 50  0000 L CNN
F 1 "PN2222A" H 1541 4455 50  0000 L CNN
F 2 "Package_TO_SOT_THT:TO-92_Inline" H 1550 4425 50  0001 L CIN
F 3 "https://www.onsemi.com/pub/Collateral/PN2222-D.PDF" H 1350 4500 50  0001 L CNN
	1    1350 4500
	-1   0    0    -1  
$EndComp
$Comp
L Device:R R4
U 1 1 5F99C5BA
P 3100 4500
F 0 "R4" V 2893 4500 50  0000 C CNN
F 1 "10K" V 2984 4500 50  0000 C CNN
F 2 "" V 3030 4500 50  0001 C CNN
F 3 "~" H 3100 4500 50  0001 C CNN
	1    3100 4500
	0    1    1    0   
$EndComp
$Comp
L power:Earth #PWR04
U 1 1 5F99C5C0
P 1250 5650
F 0 "#PWR04" H 1250 5400 50  0001 C CNN
F 1 "Earth" H 1250 5500 50  0001 C CNN
F 2 "" H 1250 5650 50  0001 C CNN
F 3 "~" H 1250 5650 50  0001 C CNN
	1    1250 5650
	1    0    0    -1  
$EndComp
Wire Wire Line
	2800 4500 2950 4500
Wire Wire Line
	3400 4500 3250 4500
$Comp
L Device:CP C1
U 1 1 5F99C5C8
P 1700 4750
F 0 "C1" H 1818 4796 50  0000 L CNN
F 1 "470uF" H 1818 4705 50  0000 L CNN
F 2 "" H 1738 4600 50  0001 C CNN
F 3 "~" H 1700 4750 50  0001 C CNN
	1    1700 4750
	1    0    0    -1  
$EndComp
Wire Wire Line
	1550 4500 1700 4500
Wire Wire Line
	1700 4600 1700 4500
$Comp
L Device:R R2
U 1 1 5F99C5D5
P 1250 3550
F 0 "R2" H 1320 3596 50  0000 L CNN
F 1 "1K" H 1320 3505 50  0000 L CNN
F 2 "" V 1180 3550 50  0001 C CNN
F 3 "~" H 1250 3550 50  0001 C CNN
	1    1250 3550
	1    0    0    -1  
$EndComp
$Comp
L Device:LED D2
U 1 1 5F99C5DB
P 1250 4000
F 0 "D2" V 1289 3882 50  0000 R CNN
F 1 "LED" V 1198 3882 50  0000 R CNN
F 2 "" H 1250 4000 50  0001 C CNN
F 3 "~" H 1250 4000 50  0001 C CNN
	1    1250 4000
	0    -1   -1   0   
$EndComp
Wire Wire Line
	1250 4150 1250 4300
Wire Wire Line
	1250 3700 1250 3850
$Comp
L power:+9V #PWR03
U 1 1 5F99C5E3
P 1250 3250
F 0 "#PWR03" H 1250 3100 50  0001 C CNN
F 1 "+9V" H 1265 3423 50  0000 C CNN
F 2 "" H 1250 3250 50  0001 C CNN
F 3 "" H 1250 3250 50  0001 C CNN
	1    1250 3250
	1    0    0    -1  
$EndComp
Wire Wire Line
	1250 3250 1250 3350
Connection ~ 1250 3350
Wire Wire Line
	1250 3350 1250 3400
$Comp
L Device:CP C2
U 1 1 5F99C5EC
P 1700 5150
F 0 "C2" H 1818 5196 50  0000 L CNN
F 1 "470uF" H 1818 5105 50  0000 L CNN
F 2 "" H 1738 5000 50  0001 C CNN
F 3 "~" H 1700 5150 50  0001 C CNN
	1    1700 5150
	1    0    0    -1  
$EndComp
Connection ~ 1700 4500
Wire Wire Line
	3400 4500 3400 3350
Wire Wire Line
	1250 3350 3400 3350
Wire Wire Line
	1700 4500 2400 4500
Wire Wire Line
	1700 5300 1700 5450
Wire Wire Line
	1700 5450 1250 5450
Wire Wire Line
	1250 4700 1250 5450
Connection ~ 1250 5450
Wire Wire Line
	1250 5450 1250 5650
Wire Wire Line
	1700 5000 1700 4900
$Comp
L Device:R R14
U 1 1 5F9AF709
P 8400 4300
F 0 "R14" H 8470 4346 50  0000 L CNN
F 1 "1K" H 8470 4255 50  0000 L CNN
F 2 "" V 8330 4300 50  0001 C CNN
F 3 "~" H 8400 4300 50  0001 C CNN
	1    8400 4300
	1    0    0    -1  
$EndComp
$Comp
L Device:LED D8
U 1 1 5F9AF70F
P 8400 4750
F 0 "D8" V 8439 4632 50  0000 R CNN
F 1 "LED" V 8348 4632 50  0000 R CNN
F 2 "" H 8400 4750 50  0001 C CNN
F 3 "~" H 8400 4750 50  0001 C CNN
	1    8400 4750
	0    -1   -1   0   
$EndComp
Wire Wire Line
	8400 4900 8400 5050
Wire Wire Line
	8400 4450 8400 4600
$Comp
L Device:R R18
U 1 1 5F9B29F3
P 10500 4300
F 0 "R18" H 10570 4346 50  0000 L CNN
F 1 "1K" H 10570 4255 50  0000 L CNN
F 2 "" V 10430 4300 50  0001 C CNN
F 3 "~" H 10500 4300 50  0001 C CNN
	1    10500 4300
	1    0    0    -1  
$EndComp
$Comp
L Device:LED D9
U 1 1 5F9B29F9
P 10500 4750
F 0 "D9" V 10539 4632 50  0000 R CNN
F 1 "LED" V 10448 4632 50  0000 R CNN
F 2 "" H 10500 4750 50  0001 C CNN
F 3 "~" H 10500 4750 50  0001 C CNN
	1    10500 4750
	0    -1   -1   0   
$EndComp
Wire Wire Line
	10500 4900 10500 5050
Wire Wire Line
	10500 4450 10500 4600
$Comp
L Device:R R15
U 1 1 5F9B4668
P 9150 4300
F 0 "R15" H 9080 4254 50  0000 R CNN
F 1 "10K" H 9080 4345 50  0000 R CNN
F 2 "" V 9080 4300 50  0001 C CNN
F 3 "~" H 9150 4300 50  0001 C CNN
	1    9150 4300
	-1   0    0    1   
$EndComp
$Comp
L Device:R R16
U 1 1 5F9B4CE9
P 9750 4300
F 0 "R16" H 9680 4254 50  0000 R CNN
F 1 "10K" H 9680 4345 50  0000 R CNN
F 2 "" V 9680 4300 50  0001 C CNN
F 3 "~" H 9750 4300 50  0001 C CNN
	1    9750 4300
	-1   0    0    1   
$EndComp
$Comp
L Device:CP C5
U 1 1 5F9B50E2
P 8800 5050
F 0 "C5" V 8545 5050 50  0000 C CNN
F 1 "470uF" V 8636 5050 50  0000 C CNN
F 2 "" H 8838 4900 50  0001 C CNN
F 3 "~" H 8800 5050 50  0001 C CNN
	1    8800 5050
	0    1    1    0   
$EndComp
$Comp
L Device:CP C7
U 1 1 5F9B582F
P 10100 5050
F 0 "C7" V 9845 5050 50  0000 C CNN
F 1 "470uF" V 9936 5050 50  0000 C CNN
F 2 "" H 10138 4900 50  0001 C CNN
F 3 "~" H 10100 5050 50  0001 C CNN
	1    10100 5050
	0    -1   1    0   
$EndComp
Wire Wire Line
	10250 5050 10500 5050
Wire Wire Line
	8400 5050 8650 5050
Wire Wire Line
	9150 4450 9150 5050
Wire Wire Line
	9150 5050 8950 5050
Wire Wire Line
	9750 4450 9750 5050
Wire Wire Line
	9750 5050 9950 5050
Wire Wire Line
	8400 4000 9150 4000
Wire Wire Line
	8400 4000 8400 4150
Wire Wire Line
	10500 4000 10500 4150
Wire Wire Line
	9150 4150 9150 4000
Connection ~ 9150 4000
Wire Wire Line
	9750 4150 9750 4000
Connection ~ 9750 4000
Wire Wire Line
	9750 4000 10500 4000
$Comp
L power:+9V #PWR015
U 1 1 5F9C804D
P 9450 3700
F 0 "#PWR015" H 9450 3550 50  0001 C CNN
F 1 "+9V" H 9465 3873 50  0000 C CNN
F 2 "" H 9450 3700 50  0001 C CNN
F 3 "" H 9450 3700 50  0001 C CNN
	1    9450 3700
	1    0    0    -1  
$EndComp
Wire Wire Line
	9150 4000 9450 4000
Wire Wire Line
	9450 3700 9450 4000
Connection ~ 9450 4000
Wire Wire Line
	9450 4000 9750 4000
$Comp
L Transistor_BJT:PN2222A Q8
U 1 1 5F9CFE8B
P 8500 5500
F 0 "Q8" H 8691 5546 50  0000 L CNN
F 1 "PN2222A" H 8691 5455 50  0000 L CNN
F 2 "Package_TO_SOT_THT:TO-92_Inline" H 8700 5425 50  0001 L CIN
F 3 "https://www.onsemi.com/pub/Collateral/PN2222-D.PDF" H 8500 5500 50  0001 L CNN
	1    8500 5500
	-1   0    0    -1  
$EndComp
$Comp
L Transistor_BJT:PN2222A Q9
U 1 1 5F9D06CC
P 10400 5500
F 0 "Q9" H 10590 5546 50  0000 L CNN
F 1 "PN2222A" H 10590 5455 50  0000 L CNN
F 2 "Package_TO_SOT_THT:TO-92_Inline" H 10600 5425 50  0001 L CIN
F 3 "https://www.onsemi.com/pub/Collateral/PN2222-D.PDF" H 10400 5500 50  0001 L CNN
	1    10400 5500
	1    0    0    -1  
$EndComp
Wire Wire Line
	10500 5300 10500 5050
Connection ~ 10500 5050
Wire Wire Line
	8400 5300 8400 5050
Connection ~ 8400 5050
Wire Wire Line
	8400 5700 8400 5900
Wire Wire Line
	8400 5900 9450 5900
Wire Wire Line
	10500 5900 10500 5700
$Comp
L power:Earth #PWR016
U 1 1 5F9D7A7B
P 9450 6100
F 0 "#PWR016" H 9450 5850 50  0001 C CNN
F 1 "Earth" H 9450 5950 50  0001 C CNN
F 2 "" H 9450 6100 50  0001 C CNN
F 3 "~" H 9450 6100 50  0001 C CNN
	1    9450 6100
	1    0    0    -1  
$EndComp
Wire Wire Line
	9450 6100 9450 5900
Connection ~ 9450 5900
Wire Wire Line
	9450 5900 10500 5900
Wire Wire Line
	8700 5500 9150 5500
Wire Wire Line
	9150 5500 9750 5050
Connection ~ 9750 5050
Wire Wire Line
	10200 5500 9750 5500
Wire Wire Line
	9750 5500 9150 5050
Connection ~ 9150 5050
Text Notes 850  900  0    118  ~ 0
#1
Text Notes 6750 900  0    118  ~ 0
#3
Text Notes 9350 900  0    118  ~ 0
#4
Text Notes 900  3050 0    118  ~ 0
#5
Text Notes 8450 6400 0    118  ~ 0
#7. Мультивибратор 
$Comp
L Transistor_BJT:PN2222A Q10
U 1 1 5F97805F
P 2700 6650
F 0 "Q10" H 2891 6696 50  0000 L CNN
F 1 "PN2222A" H 2891 6605 50  0000 L CNN
F 2 "Package_TO_SOT_THT:TO-92_Inline" H 2900 6575 50  0001 L CIN
F 3 "https://www.onsemi.com/pub/Collateral/PN2222-D.PDF" H 2700 6650 50  0001 L CNN
	1    2700 6650
	-1   0    0    -1  
$EndComp
$Comp
L Transistor_BJT:PN2222A Q11
U 1 1 5F9786FC
P 4500 6650
F 0 "Q11" H 4690 6696 50  0000 L CNN
F 1 "PN2222A" H 4690 6605 50  0000 L CNN
F 2 "Package_TO_SOT_THT:TO-92_Inline" H 4700 6575 50  0001 L CIN
F 3 "https://www.onsemi.com/pub/Collateral/PN2222-D.PDF" H 4500 6650 50  0001 L CNN
	1    4500 6650
	1    0    0    -1  
$EndComp
$Comp
L Switch:SW_DPST_x2 SW4
U 1 1 5F97BCE4
P 3250 7100
F 0 "SW4" H 3250 7243 50  0000 C CNN
F 1 "SW_DPST_x2" H 3250 7243 50  0001 C CNN
F 2 "" H 3250 7100 50  0001 C CNN
F 3 "~" H 3250 7100 50  0001 C CNN
	1    3250 7100
	0    1    1    0   
$EndComp
$Comp
L Switch:SW_DPST_x2 SW4
U 2 1 5F97CA5A
P 4000 7100
F 0 "SW4" H 4000 6950 50  0000 C CNN
F 1 "SW_DPST_x2" H 4000 7243 50  0001 C CNN
F 2 "" H 4000 7100 50  0001 C CNN
F 3 "~" H 4000 7100 50  0001 C CNN
	2    4000 7100
	0    1    1    0   
$EndComp
Wire Wire Line
	2600 6850 2600 7400
Wire Wire Line
	2600 7400 3250 7400
Wire Wire Line
	4000 7300 4000 7400
Wire Wire Line
	3250 7300 3250 7400
Connection ~ 3250 7400
Wire Wire Line
	3250 7400 3650 7400
$Comp
L Device:R R20
U 1 1 5F99D3FB
P 2600 5650
F 0 "R20" H 2670 5696 50  0000 L CNN
F 1 "1K" H 2670 5605 50  0000 L CNN
F 2 "" V 2530 5650 50  0001 C CNN
F 3 "~" H 2600 5650 50  0001 C CNN
	1    2600 5650
	1    0    0    -1  
$EndComp
$Comp
L Device:R R23
U 1 1 5F99D78C
P 4600 5700
F 0 "R23" H 4670 5746 50  0000 L CNN
F 1 "1K" H 4670 5655 50  0000 L CNN
F 2 "" V 4530 5700 50  0001 C CNN
F 3 "~" H 4600 5700 50  0001 C CNN
	1    4600 5700
	1    0    0    -1  
$EndComp
$Comp
L Device:R R19
U 1 1 5F99DA8B
P 2300 5650
F 0 "R19" H 2370 5696 50  0000 L CNN
F 1 "1K" H 2370 5605 50  0000 L CNN
F 2 "" V 2230 5650 50  0001 C CNN
F 3 "~" H 2300 5650 50  0001 C CNN
	1    2300 5650
	1    0    0    -1  
$EndComp
$Comp
L Device:R R24
U 1 1 5F9A445C
P 4900 5700
F 0 "R24" H 4970 5746 50  0000 L CNN
F 1 "1K" H 4970 5655 50  0000 L CNN
F 2 "" V 4830 5700 50  0001 C CNN
F 3 "~" H 4900 5700 50  0001 C CNN
	1    4900 5700
	1    0    0    -1  
$EndComp
$Comp
L Device:LED D10
U 1 1 5F9A49DD
P 2300 6100
F 0 "D10" V 2339 5982 50  0000 R CNN
F 1 "LED" V 2248 5982 50  0000 R CNN
F 2 "" H 2300 6100 50  0001 C CNN
F 3 "~" H 2300 6100 50  0001 C CNN
	1    2300 6100
	0    -1   -1   0   
$EndComp
Wire Wire Line
	2600 6450 2600 6350
Wire Wire Line
	2600 6350 2300 6350
Wire Wire Line
	2300 6350 2300 6250
Wire Wire Line
	2300 5950 2300 5800
Wire Wire Line
	2600 6350 2600 5950
Connection ~ 2600 6350
Wire Wire Line
	2300 5500 2300 5300
Wire Wire Line
	2600 5300 2600 5500
$Comp
L Device:R R21
U 1 1 5F9C4657
P 3100 5950
F 0 "R21" V 2893 5950 50  0000 C CNN
F 1 "10K" V 2984 5950 50  0000 C CNN
F 2 "" V 3030 5950 50  0001 C CNN
F 3 "~" H 3100 5950 50  0001 C CNN
	1    3100 5950
	0    1    1    0   
$EndComp
$Comp
L Device:R R22
U 1 1 5F9C5A2F
P 4150 5950
F 0 "R22" V 3943 5950 50  0000 C CNN
F 1 "10K" V 4034 5950 50  0000 C CNN
F 2 "" V 4080 5950 50  0001 C CNN
F 3 "~" H 4150 5950 50  0001 C CNN
	1    4150 5950
	0    1    1    0   
$EndComp
$Comp
L Device:LED D11
U 1 1 5F9CCE79
P 4900 6150
F 0 "D11" V 4939 6032 50  0000 R CNN
F 1 "LED" V 4848 6032 50  0000 R CNN
F 2 "" H 4900 6150 50  0001 C CNN
F 3 "~" H 4900 6150 50  0001 C CNN
	1    4900 6150
	0    -1   -1   0   
$EndComp
Wire Wire Line
	4900 6000 4900 5850
Connection ~ 2600 5950
Wire Wire Line
	2600 5950 2600 5800
Connection ~ 2600 5300
Wire Wire Line
	4300 6650 4250 6650
Wire Wire Line
	2300 5300 2600 5300
Wire Wire Line
	4600 5950 4600 5850
Wire Wire Line
	4600 5300 4600 5550
Wire Wire Line
	4900 5550 4900 5300
Wire Wire Line
	4900 5300 4600 5300
Connection ~ 4600 5300
Wire Wire Line
	4900 6300 4900 6400
Wire Wire Line
	4900 6400 4600 6400
Wire Wire Line
	4600 6400 4600 6450
Wire Wire Line
	4600 5950 4600 6400
Connection ~ 4600 5950
Connection ~ 4600 6400
Wire Wire Line
	4600 6850 4600 7400
Wire Wire Line
	4600 7400 4250 7400
Connection ~ 4000 7400
$Comp
L power:+9V #PWR018
U 1 1 5FA58F82
P 3600 5050
F 0 "#PWR018" H 3600 4900 50  0001 C CNN
F 1 "+9V" H 3615 5223 50  0000 C CNN
F 2 "" H 3600 5050 50  0001 C CNN
F 3 "" H 3600 5050 50  0001 C CNN
	1    3600 5050
	1    0    0    -1  
$EndComp
$Comp
L power:Earth #PWR019
U 1 1 5FA6AED6
P 3650 7550
F 0 "#PWR019" H 3650 7300 50  0001 C CNN
F 1 "Earth" H 3650 7400 50  0001 C CNN
F 2 "" H 3650 7550 50  0001 C CNN
F 3 "~" H 3650 7550 50  0001 C CNN
	1    3650 7550
	1    0    0    -1  
$EndComp
Wire Wire Line
	3650 7550 3650 7400
Connection ~ 3650 7400
Wire Wire Line
	3650 7400 4000 7400
Text Notes 4050 5000 0    118  ~ 0
#9 Триггер
Wire Wire Line
	2600 5950 2950 5950
Wire Wire Line
	4300 5950 4600 5950
Wire Wire Line
	4000 5950 3900 5950
Wire Wire Line
	3900 5950 3250 6650
Wire Wire Line
	3250 5950 3400 5950
Wire Wire Line
	3400 5950 4000 6650
Wire Wire Line
	3250 6900 4100 6700
Wire Wire Line
	4100 6700 4100 6650
Connection ~ 4100 6650
Wire Wire Line
	4100 6650 4000 6650
Wire Wire Line
	2900 6650 3150 6650
Wire Wire Line
	4000 6900 3150 6700
Wire Wire Line
	3150 6700 3150 6650
Connection ~ 3150 6650
Wire Wire Line
	3150 6650 3250 6650
Wire Wire Line
	2600 5300 3600 5300
Wire Wire Line
	3600 5050 3600 5300
Connection ~ 3600 5300
Wire Wire Line
	3600 5300 4600 5300
$Comp
L Device:C C8
U 1 1 5FADE233
P 4250 7150
F 0 "C8" H 4375 7050 50  0000 R CNN
F 1 "100nF" H 4500 7250 50  0000 R CNN
F 2 "" H 4288 7000 50  0001 C CNN
F 3 "~" H 4250 7150 50  0001 C CNN
	1    4250 7150
	1    0    0    1   
$EndComp
Wire Wire Line
	4250 7300 4250 7400
Connection ~ 4250 7400
Wire Wire Line
	4250 7400 4000 7400
Wire Wire Line
	4250 7000 4250 6650
Connection ~ 4250 6650
Wire Wire Line
	4250 6650 4100 6650
Text Notes 5900 4800 0    118  ~ 0
#8. Ночной светильник
Connection ~ 5750 5100
Wire Wire Line
	5750 4950 5750 5100
$Comp
L power:+9V #PWR08
U 1 1 5F8BD0F3
P 5750 4950
F 0 "#PWR08" H 5750 4800 50  0001 C CNN
F 1 "+9V" H 5765 5123 50  0000 C CNN
F 2 "" H 5750 4950 50  0001 C CNN
F 3 "" H 5750 4950 50  0001 C CNN
	1    5750 4950
	1    0    0    -1  
$EndComp
Connection ~ 7400 6250
Wire Wire Line
	7400 6350 7400 6250
$Comp
L power:Earth #PWR012
U 1 1 5F8B91EA
P 7400 6350
F 0 "#PWR012" H 7400 6100 50  0001 C CNN
F 1 "Earth" H 7400 6200 50  0001 C CNN
F 2 "" H 7400 6350 50  0001 C CNN
F 3 "~" H 7400 6350 50  0001 C CNN
	1    7400 6350
	1    0    0    -1  
$EndComp
Wire Wire Line
	6950 6250 7400 6250
Wire Wire Line
	6950 6100 6950 6250
Wire Wire Line
	6950 5700 7100 5700
Connection ~ 6950 5700
Wire Wire Line
	6950 5800 6950 5700
$Comp
L Device:R_PHOTO R10
U 1 1 5F8B1CF1
P 6950 5950
F 0 "R10" H 7020 5996 50  0000 L CNN
F 1 "R_PHOTO" H 6450 5950 50  0000 L CNN
F 2 "" V 7000 5700 50  0001 L CNN
F 3 "~" H 6950 5900 50  0001 C CNN
	1    6950 5950
	1    0    0    -1  
$EndComp
NoConn ~ 6500 5700
Wire Wire Line
	6800 5700 6950 5700
Wire Wire Line
	6750 5100 6950 5100
Wire Wire Line
	6150 5100 6450 5100
Wire Wire Line
	7400 5100 7400 5500
Wire Wire Line
	7250 5100 7400 5100
Wire Wire Line
	5750 5100 5850 5100
Wire Wire Line
	5750 5450 5750 5100
Wire Wire Line
	5850 5450 5750 5450
Wire Wire Line
	6650 5450 6150 5450
Wire Wire Line
	6650 5550 6650 5450
$Comp
L Transistor_BJT:2N3904 Q6
U 1 1 5F891C6F
P 7300 5700
F 0 "Q6" H 7491 5746 50  0000 L CNN
F 1 "2N3904*" H 7491 5655 50  0000 L CNN
F 2 "Package_TO_SOT_THT:TO-92_Inline" H 7500 5625 50  0001 L CIN
F 3 "https://www.onsemi.com/pub/Collateral/2N3903-D.PDF" H 7300 5700 50  0001 L CNN
	1    7300 5700
	1    0    0    -1  
$EndComp
$Comp
L Device:R_POT RV1
U 1 1 5F88DDD7
P 6650 5700
F 0 "RV1" V 6550 5700 50  0000 C CNN
F 1 "10K" V 6750 5550 50  0000 C CNN
F 2 "" H 6650 5700 50  0001 C CNN
F 3 "~" H 6650 5700 50  0001 C CNN
	1    6650 5700
	0    -1   -1   0   
$EndComp
$Comp
L Device:R R8
U 1 1 5F88B654
P 6000 5450
F 0 "R8" V 5900 5450 50  0000 C CNN
F 1 "47K" V 6100 5450 50  0000 C CNN
F 2 "" V 5930 5450 50  0001 C CNN
F 3 "~" H 6000 5450 50  0001 C CNN
	1    6000 5450
	0    1    1    0   
$EndComp
$Comp
L power:Earth #PWR011
U 1 1 5F889739
P 6200 3000
F 0 "#PWR011" H 6200 2750 50  0001 C CNN
F 1 "Earth" H 6200 2850 50  0001 C CNN
F 2 "" H 6200 3000 50  0001 C CNN
F 3 "~" H 6200 3000 50  0001 C CNN
	1    6200 3000
	1    0    0    -1  
$EndComp
$Comp
L Device:LED D6
U 1 1 5F87F9DE
P 7100 5100
F 0 "D6" H 7139 4982 50  0000 R CNN
F 1 "LED" H 7200 5200 50  0000 R CNN
F 2 "" H 7100 5100 50  0001 C CNN
F 3 "~" H 7100 5100 50  0001 C CNN
	1    7100 5100
	-1   0    0    1   
$EndComp
$Comp
L Device:LED D4
U 1 1 5F87F2C8
P 6600 5100
F 0 "D4" H 6639 4982 50  0000 R CNN
F 1 "LED" H 6650 5200 50  0000 R CNN
F 2 "" H 6600 5100 50  0001 C CNN
F 3 "~" H 6600 5100 50  0001 C CNN
	1    6600 5100
	-1   0    0    1   
$EndComp
$Comp
L Device:R R7
U 1 1 5F87E3D0
P 6000 5100
F 0 "R7" V 5900 5050 50  0000 L CNN
F 1 "1K" V 6100 5000 50  0000 L CNN
F 2 "" V 5930 5100 50  0001 C CNN
F 3 "~" H 6000 5100 50  0001 C CNN
	1    6000 5100
	0    1    1    0   
$EndComp
Wire Wire Line
	7400 5900 7400 6250
$Comp
L power:+9V #PWR05
U 1 1 6270A13F
P 3750 1100
F 0 "#PWR05" H 3750 950 50  0001 C CNN
F 1 "+9V" H 3765 1273 50  0000 C CNN
F 2 "" H 3750 1100 50  0001 C CNN
F 3 "" H 3750 1100 50  0001 C CNN
	1    3750 1100
	1    0    0    -1  
$EndComp
$Comp
L Switch:SW_DPST_x2 SW5
U 1 1 6270A151
P 4400 2350
F 0 "SW5" H 4400 2493 50  0000 C CNN
F 1 "SW_DPST_x2" H 4400 2494 50  0001 C CNN
F 2 "" H 4400 2350 50  0001 C CNN
F 3 "~" H 4400 2350 50  0001 C CNN
	1    4400 2350
	1    0    0    -1  
$EndComp
$Comp
L Transistor_BJT:PN2222A Q3
U 1 1 6270A157
P 3850 2350
F 0 "Q3" H 4041 2396 50  0000 L CNN
F 1 "PN2222A" H 4041 2305 50  0000 L CNN
F 2 "Package_TO_SOT_THT:TO-92_Inline" H 4050 2275 50  0001 L CIN
F 3 "https://www.onsemi.com/pub/Collateral/PN2222-D.PDF" H 3850 2350 50  0001 L CNN
	1    3850 2350
	-1   0    0    -1  
$EndComp
$Comp
L Device:R R5
U 1 1 6270A15D
P 4900 2350
F 0 "R5" V 4693 2350 50  0000 C CNN
F 1 "10K" V 4784 2350 50  0000 C CNN
F 2 "" V 4830 2350 50  0001 C CNN
F 3 "~" H 4900 2350 50  0001 C CNN
	1    4900 2350
	0    1    1    0   
$EndComp
$Comp
L power:Earth #PWR06
U 1 1 6270A163
P 3750 2700
F 0 "#PWR06" H 3750 2450 50  0001 C CNN
F 1 "Earth" H 3750 2550 50  0001 C CNN
F 2 "" H 3750 2700 50  0001 C CNN
F 3 "~" H 3750 2700 50  0001 C CNN
	1    3750 2700
	1    0    0    -1  
$EndComp
Wire Wire Line
	3750 2700 3750 2550
Wire Wire Line
	4050 2350 4200 2350
Wire Wire Line
	4600 2350 4750 2350
Wire Wire Line
	3750 1100 3750 1200
Wire Wire Line
	3750 1200 5200 1200
Wire Wire Line
	5200 1200 5200 2350
Wire Wire Line
	5200 2350 5050 2350
Connection ~ 3750 1200
Text Notes 3350 900  0    118  ~ 0
#2
Wire Wire Line
	3750 1200 3750 1450
$Comp
L power:+9V #PWR07
U 1 1 61DEFC5E
P 4450 3050
F 0 "#PWR07" H 4450 2900 50  0001 C CNN
F 1 "+9V" H 4465 3223 50  0000 C CNN
F 2 "" H 4450 3050 50  0001 C CNN
F 3 "" H 4450 3050 50  0001 C CNN
	1    4450 3050
	1    0    0    -1  
$EndComp
$Comp
L Transistor_BJT:PN2222A Q4
U 1 1 61DEFC6A
P 4550 4300
F 0 "Q4" H 4741 4346 50  0000 L CNN
F 1 "PN2222A" H 4741 4255 50  0000 L CNN
F 2 "Package_TO_SOT_THT:TO-92_Inline" H 4750 4225 50  0001 L CIN
F 3 "https://www.onsemi.com/pub/Collateral/PN2222-D.PDF" H 4550 4300 50  0001 L CNN
	1    4550 4300
	-1   0    0    -1  
$EndComp
$Comp
L Device:R R6
U 1 1 61DEFC70
P 5600 4300
F 0 "R6" V 5393 4300 50  0000 C CNN
F 1 "10K" V 5484 4300 50  0000 C CNN
F 2 "" V 5530 4300 50  0001 C CNN
F 3 "~" H 5600 4300 50  0001 C CNN
	1    5600 4300
	0    1    1    0   
$EndComp
$Comp
L power:Earth #PWR09
U 1 1 61DEFC76
P 4450 4650
F 0 "#PWR09" H 4450 4400 50  0001 C CNN
F 1 "Earth" H 4450 4500 50  0001 C CNN
F 2 "" H 4450 4650 50  0001 C CNN
F 3 "~" H 4450 4650 50  0001 C CNN
	1    4450 4650
	1    0    0    -1  
$EndComp
Wire Wire Line
	4450 4650 4450 4500
Wire Wire Line
	5900 4300 5750 4300
Text Notes 4050 2850 0    118  ~ 0
#6
Wire Wire Line
	4450 3050 4450 3200
Wire Wire Line
	4450 3200 5900 3200
Connection ~ 4450 3200
Wire Wire Line
	4450 3200 4450 3400
Wire Notes Line
	5900 3200 5900 4300
NoConn ~ 5900 3200
NoConn ~ 5900 4300
Wire Wire Line
	4750 4300 5450 4300
$Comp
L Device:Buzzer BZ1
U 1 1 6365396A
P 3650 1550
F 0 "BZ1" H 3450 1600 50  0000 C CNN
F 1 "Buzzer" H 3400 1500 50  0000 C CNN
F 2 "" V 3625 1650 50  0001 C CNN
F 3 "~" V 3625 1650 50  0001 C CNN
	1    3650 1550
	-1   0    0    -1  
$EndComp
Wire Wire Line
	3750 1650 3750 2150
$Comp
L Device:Buzzer BZ2
U 1 1 6365796E
P 4350 3500
F 0 "BZ2" H 4150 3550 50  0000 C CNN
F 1 "Buzzer" H 4100 3450 50  0000 C CNN
F 2 "" V 4325 3600 50  0001 C CNN
F 3 "~" V 4325 3600 50  0001 C CNN
	1    4350 3500
	-1   0    0    -1  
$EndComp
Wire Wire Line
	4450 3600 4450 4100
$EndSCHEMATC
