
G21
G90
G94
F500.00
G00 Z2.0000
M03
G00 X18.4150Y42.6212
G01 Z-2.0000
G01 Z0
G00 Z2.0000
G00 X18.4150Y35.0012
G01 Z-2.0000
G01 Z0
G00 Z2.0000
G00 X20.4470Y20.5232
G01 Z-2.0000
G01 Z0
G00 Z2.0000
G00 X20.9550Y42.6212
G01 Z-2.0000
G01 Z0
G00 Z2.0000
G00 X20.9550Y35.0012
G01 Z-2.0000
G01 Z0
G00 Z2.0000
G00 X23.4950Y42.6212
G01 Z-2.0000
G01 Z0
G00 Z2.0000
G00 X23.4950Y35.0012
G01 Z-2.0000
G01 Z0
G00 Z2.0000
G00 X26.0350Y57.3532
G01 Z-2.0000
G01 Z0
G00 Z2.0000
G00 X26.0350Y42.6212
G01 Z-2.0000
G01 Z0
G00 Z2.0000
G00 X26.0350Y35.0012
G01 Z-2.0000
G01 Z0
G00 Z2.0000
G00 X28.5750Y42.6212
G01 Z-2.0000
G01 Z0
G00 Z2.0000
G00 X28.5750Y35.0012
G01 Z-2.0000
G01 Z0
G00 Z2.0000
G00 X30.6070Y20.5232
G01 Z-2.0000
G01 Z0
G00 Z2.0000
G00 X31.1150Y42.6212
G01 Z-2.0000
G01 Z0
G00 Z2.0000
G00 X31.1150Y35.0012
G01 Z-2.0000
G01 Z0
G00 Z2.0000
G00 X32.8828Y27.0383
G01 Z-2.0000
G01 Z0
G00 Z2.0000
G00 X33.6448Y48.8823
G01 Z-2.0000
G01 Z0
G00 Z2.0000
G00 X33.6550Y42.6212
G01 Z-2.0000
G01 Z0
G00 Z2.0000
G00 X33.6550Y35.0012
G01 Z-2.0000
G01 Z0
G00 Z2.0000
G00 X35.4228Y29.5783
G01 Z-2.0000
G01 Z0
G00 Z2.0000
G00 X36.1848Y51.4223
G01 Z-2.0000
G01 Z0
G00 Z2.0000
G00 X36.1950Y57.3532
G01 Z-2.0000
G01 Z0
G00 Z2.0000
G00 X36.1950Y42.6212
G01 Z-2.0000
G01 Z0
G00 Z2.0000
G00 X36.1950Y35.0012
G01 Z-2.0000
G01 Z0
G00 Z2.0000
G00 X37.7190Y17.7292
G01 Z-2.0000
G01 Z0
G00 Z2.0000
G00 X37.9628Y27.0383
G01 Z-2.0000
G01 Z0
G00 Z2.0000
G00 X38.7248Y48.8823
G01 Z-2.0000
G01 Z0
G00 Z2.0000
G00 X40.2590Y42.8752
G01 Z-2.0000
G01 Z0
G00 Z2.0000
G00 X41.7830Y39.5732
G01 Z-2.0000
G01 Z0
G00 Z2.0000
G00 X41.7830Y29.4132
G01 Z-2.0000
G01 Z0
G00 Z2.0000
G00 X42.2910Y58.1152
G01 Z-2.0000
G01 Z0
G00 Z2.0000
G00 X42.2910Y47.9552
G01 Z-2.0000
G01 Z0
G00 Z2.0000
G00 X47.8790Y17.7292
G01 Z-2.0000
G01 Z0
G00 Z2.0000
G00 X50.4190Y42.8752
G01 Z-2.0000
G01 Z0
G00 Z2.0000
G00 X48.8950Y57.3532
G01 Z-2.0000
G01 Z0
G00 Z2.0000
G00 X48.8950Y54.0512
G01 Z-2.0000
G01 Z0
G00 Z2.0000
G00 X48.8950Y50.2412
G01 Z-2.0000
G01 Z0
G00 Z2.0000
G00 X48.8950Y46.6852
G01 Z-2.0000
G01 Z0
G00 Z2.0000
G00 X48.8950Y31.4452
G01 Z-2.0000
G01 Z0
G00 Z2.0000
G00 X48.8950Y28.1432
G01 Z-2.0000
G01 Z0
G00 Z2.0000
G00 X48.8950Y24.5872
G01 Z-2.0000
G01 Z0
G00 Z2.0000
G00 X48.8950Y21.0312
G01 Z-2.0000
G01 Z0
G00 Z2.0000
G00 X51.4350Y57.3532
G01 Z-2.0000
G01 Z0
G00 Z2.0000
G00 X51.4350Y54.0512
G01 Z-2.0000
G01 Z0
G00 Z2.0000
G00 X51.4350Y50.2412
G01 Z-2.0000
G01 Z0
G00 Z2.0000
G00 X51.4350Y46.6852
G01 Z-2.0000
G01 Z0
G00 Z2.0000
G00 X51.4350Y31.4452
G01 Z-2.0000
G01 Z0
G00 Z2.0000
G00 X51.4350Y28.1432
G01 Z-2.0000
G01 Z0
G00 Z2.0000
G00 X51.4350Y24.5872
G01 Z-2.0000
G01 Z0
G00 Z2.0000
G00 X51.4350Y21.0312
G01 Z-2.0000
G01 Z0
G00 Z2.0000
G00 X53.9750Y57.3532
G01 Z-2.0000
G01 Z0
G00 Z2.0000
G00 X53.9750Y54.0512
G01 Z-2.0000
G01 Z0
G00 Z2.0000
G00 X53.9750Y50.2412
G01 Z-2.0000
G01 Z0
G00 Z2.0000
G00 X53.9750Y46.6852
G01 Z-2.0000
G01 Z0
G00 Z2.0000
G00 X53.9750Y31.4452
G01 Z-2.0000
G01 Z0
G00 Z2.0000
G00 X53.9750Y28.1432
G01 Z-2.0000
G01 Z0
G00 Z2.0000
G00 X53.9750Y24.5872
G01 Z-2.0000
G01 Z0
G00 Z2.0000
G00 X53.9750Y21.0312
G01 Z-2.0000
G01 Z0
G00 Z2.0000
G00 X56.5150Y57.3532
G01 Z-2.0000
G01 Z0
G00 Z2.0000
G00 X56.5150Y54.0512
G01 Z-2.0000
G01 Z0
G00 Z2.0000
G00 X56.5150Y50.2412
G01 Z-2.0000
G01 Z0
G00 Z2.0000
G00 X56.5150Y46.6852
G01 Z-2.0000
G01 Z0
G00 Z2.0000
G00 X56.5150Y31.4452
G01 Z-2.0000
G01 Z0
G00 Z2.0000
G00 X56.5150Y28.1432
G01 Z-2.0000
G01 Z0
G00 Z2.0000
G00 X56.5150Y24.5872
G01 Z-2.0000
G01 Z0
G00 Z2.0000
G00 X56.5150Y21.0312
G01 Z-2.0000
G01 Z0
G00 Z2.0000
G00 X59.0550Y57.3532
G01 Z-2.0000
G01 Z0
G00 Z2.0000
G00 X59.0550Y54.0512
G01 Z-2.0000
G01 Z0
G00 Z2.0000
G00 X59.0550Y50.2412
G01 Z-2.0000
G01 Z0
G00 Z2.0000
G00 X59.0550Y46.6852
G01 Z-2.0000
G01 Z0
G00 Z2.0000
G00 X59.0550Y31.4452
G01 Z-2.0000
G01 Z0
G00 Z2.0000
G00 X59.0550Y28.1432
G01 Z-2.0000
G01 Z0
G00 Z2.0000
G00 X59.0550Y24.5872
G01 Z-2.0000
G01 Z0
G00 Z2.0000
G00 X59.0550Y21.0312
G01 Z-2.0000
G01 Z0
G00 Z2.0000
G00 X61.5950Y57.3532
G01 Z-2.0000
G01 Z0
G00 Z2.0000
G00 X61.5950Y54.0512
G01 Z-2.0000
G01 Z0
G00 Z2.0000
G00 X61.5950Y50.2412
G01 Z-2.0000
G01 Z0
G00 Z2.0000
G00 X61.5950Y46.6852
G01 Z-2.0000
G01 Z0
G00 Z2.0000
G00 X61.5950Y31.4452
G01 Z-2.0000
G01 Z0
G00 Z2.0000
G00 X61.5950Y28.1432
G01 Z-2.0000
G01 Z0
G00 Z2.0000
G00 X61.5950Y24.5872
G01 Z-2.0000
G01 Z0
G00 Z2.0000
G00 X61.5950Y21.0312
G01 Z-2.0000
G01 Z0
G00 Z2.0000
G00 X64.1350Y57.3532
G01 Z-2.0000
G01 Z0
G00 Z2.0000
G00 X64.1350Y54.0512
G01 Z-2.0000
G01 Z0
G00 Z2.0000
G00 X64.1350Y50.2412
G01 Z-2.0000
G01 Z0
G00 Z2.0000
G00 X64.1350Y46.6852
G01 Z-2.0000
G01 Z0
G00 Z2.0000
G00 X64.1350Y31.4452
G01 Z-2.0000
G01 Z0
G00 Z2.0000
G00 X64.1350Y28.1432
G01 Z-2.0000
G01 Z0
G00 Z2.0000
G00 X64.1350Y24.5872
G01 Z-2.0000
G01 Z0
G00 Z2.0000
G00 X64.1350Y21.0312
G01 Z-2.0000
G01 Z0
G00 Z2.0000
G00 X66.6750Y57.3532
G01 Z-2.0000
G01 Z0
G00 Z2.0000
G00 X66.6750Y54.0512
G01 Z-2.0000
G01 Z0
G00 Z2.0000
G00 X66.6750Y50.2412
G01 Z-2.0000
G01 Z0
G00 Z2.0000
G00 X66.6750Y46.6852
G01 Z-2.0000
G01 Z0
G00 Z2.0000
G00 X66.6750Y31.4452
G01 Z-2.0000
G01 Z0
G00 Z2.0000
G00 X66.6750Y28.1432
G01 Z-2.0000
G01 Z0
G00 Z2.0000
G00 X66.6750Y24.5872
G01 Z-2.0000
G01 Z0
G00 Z2.0000
G00 X66.6750Y21.0312
G01 Z-2.0000
G01 Z0
G00 Z2.0000
G00 X69.2150Y57.3532
G01 Z-2.0000
G01 Z0
G00 Z2.0000
G00 X69.2150Y54.0512
G01 Z-2.0000
G01 Z0
G00 Z2.0000
G00 X69.2150Y50.2412
G01 Z-2.0000
G01 Z0
G00 Z2.0000
G00 X69.2150Y46.6852
G01 Z-2.0000
G01 Z0
G00 Z2.0000
G00 X69.2150Y31.4452
G01 Z-2.0000
G01 Z0
G00 Z2.0000
G00 X69.2150Y28.1432
G01 Z-2.0000
G01 Z0
G00 Z2.0000
G00 X69.2150Y24.5872
G01 Z-2.0000
G01 Z0
G00 Z2.0000
G00 X69.2150Y21.0312
G01 Z-2.0000
G01 Z0
G00 Z2.0000
G00 X71.7550Y57.3532
G01 Z-2.0000
G01 Z0
G00 Z2.0000
G00 X71.7550Y54.0512
G01 Z-2.0000
G01 Z0
G00 Z2.0000
G00 X71.7550Y50.2412
G01 Z-2.0000
G01 Z0
G00 Z2.0000
G00 X71.7550Y46.6852
G01 Z-2.0000
G01 Z0
G00 Z2.0000
G00 X71.7550Y31.4452
G01 Z-2.0000
G01 Z0
G00 Z2.0000
G00 X71.7550Y28.1432
G01 Z-2.0000
G01 Z0
G00 Z2.0000
G00 X71.7550Y24.5872
G01 Z-2.0000
G01 Z0
G00 Z2.0000
G00 X71.7550Y21.0312
G01 Z-2.0000
G01 Z0
G00 Z2.0000
G00 X74.2950Y57.3532
G01 Z-2.0000
G01 Z0
G00 Z2.0000
G00 X74.2950Y54.0512
G01 Z-2.0000
G01 Z0
G00 Z2.0000
G00 X74.2950Y50.2412
G01 Z-2.0000
G01 Z0
G00 Z2.0000
G00 X74.2950Y46.6852
G01 Z-2.0000
G01 Z0
G00 Z2.0000
G00 X74.2950Y31.4452
G01 Z-2.0000
G01 Z0
G00 Z2.0000
G00 X74.2950Y28.1432
G01 Z-2.0000
G01 Z0
G00 Z2.0000
G00 X74.2950Y24.5872
G01 Z-2.0000
G01 Z0
G00 Z2.0000
G00 X74.2950Y21.0312
G01 Z-2.0000
G01 Z0
G00 Z2.0000
G00 X76.8350Y57.3532
G01 Z-2.0000
G01 Z0
G00 Z2.0000
G00 X76.8350Y54.0512
G01 Z-2.0000
G01 Z0
G00 Z2.0000
G00 X76.8350Y50.2412
G01 Z-2.0000
G01 Z0
G00 Z2.0000
G00 X76.8350Y46.6852
G01 Z-2.0000
G01 Z0
G00 Z2.0000
G00 X76.8350Y31.4452
G01 Z-2.0000
G01 Z0
G00 Z2.0000
G00 X76.8350Y28.1432
G01 Z-2.0000
G01 Z0
G00 Z2.0000
G00 X76.8350Y24.5872
G01 Z-2.0000
G01 Z0
G00 Z2.0000
G00 X76.8350Y21.0312
G01 Z-2.0000
G01 Z0
G00 Z2.0000
G00 X79.3750Y57.3532
G01 Z-2.0000
G01 Z0
G00 Z2.0000
G00 X79.3750Y54.0512
G01 Z-2.0000
G01 Z0
G00 Z2.0000
G00 X79.3750Y50.2412
G01 Z-2.0000
G01 Z0
G00 Z2.0000
G00 X79.3750Y46.6852
G01 Z-2.0000
G01 Z0
G00 Z2.0000
G00 X79.3750Y31.4452
G01 Z-2.0000
G01 Z0
G00 Z2.0000
G00 X79.3750Y28.1432
G01 Z-2.0000
G01 Z0
G00 Z2.0000
G00 X79.3750Y24.5872
G01 Z-2.0000
G01 Z0
G00 Z2.0000
G00 X79.3750Y21.0312
G01 Z-2.0000
G01 Z0
G00 Z2.0000
G00 X81.9150Y57.3532
G01 Z-2.0000
G01 Z0
G00 Z2.0000
G00 X81.9150Y54.0512
G01 Z-2.0000
G01 Z0
G00 Z2.0000
G00 X81.9150Y50.2412
G01 Z-2.0000
G01 Z0
G00 Z2.0000
G00 X81.9150Y46.6852
G01 Z-2.0000
G01 Z0
G00 Z2.0000
G00 X81.9150Y31.4452
G01 Z-2.0000
G01 Z0
G00 Z2.0000
G00 X81.9150Y28.1432
G01 Z-2.0000
G01 Z0
G00 Z2.0000
G00 X81.9150Y24.5872
G01 Z-2.0000
G01 Z0
G00 Z2.0000
G00 X81.9150Y21.0312
G01 Z-2.0000
G01 Z0
G00 Z2.0000
G00 X84.4550Y57.3532
G01 Z-2.0000
G01 Z0
G00 Z2.0000
G00 X84.4550Y54.0512
G01 Z-2.0000
G01 Z0
G00 Z2.0000
G00 X84.4550Y50.2412
G01 Z-2.0000
G01 Z0
G00 Z2.0000
G00 X84.4550Y46.6852
G01 Z-2.0000
G01 Z0
G00 Z2.0000
G00 X84.4550Y31.4452
G01 Z-2.0000
G01 Z0
G00 Z2.0000
G00 X84.4550Y28.1432
G01 Z-2.0000
G01 Z0
G00 Z2.0000
G00 X84.4550Y24.5872
G01 Z-2.0000
G01 Z0
G00 Z2.0000
G00 X84.4550Y21.0312
G01 Z-2.0000
G01 Z0
G00 Z2.0000
G00 X96.6470Y57.4802
G01 Z-2.0000
G01 Z0
G00 Z2.0000
G00 X99.1870Y57.4802
G01 Z-2.0000
G01 Z0
G00 Z2.0000
G00 X99.2657Y41.0972
G01 Z-2.0000
G01 Z0
G00 Z2.0000
G00 X101.7270Y31.2826
G01 Z-2.0000
G01 Z0
G00 Z2.0000
G00 X101.7270Y26.2839
G01 Z-2.0000
G01 Z0
G00 Z2.0000
G00 X101.9810Y16.7132
G01 Z-2.0000
G01 Z0
G00 Z2.0000
G00 X104.2670Y41.0972
G01 Z-2.0000
G01 Z0
G00 Z2.0000
G00 X104.5210Y16.7132
G01 Z-2.0000
G01 Z0
G00 Z2.0000
G00 X107.0610Y16.7132
G01 Z-2.0000
G01 Z0
G00 Z2.0000
G00 X125.3490Y44.4805
G01 Z-2.0000
G01 Z0
G00 Z2.0000
G00 X125.3490Y39.4818
G01 Z-2.0000
G01 Z0
G00 Z2.0000
G00 X93.7260Y22.0472
G01 Z-2.0000
G01 Z0
G00 Z2.0000
G00 X93.7260Y11.8872
G01 Z-2.0000
G01 Z0
G00 Z2.0000
G00 X115.4430Y36.3982
G01 Z-2.0000
G01 Z0
G00 Z2.0000
G00 X115.4430Y26.2382
G01 Z-2.0000
G01 Z0
G00 Z2.0000
G00 X23.4950Y26.6192
G01 Z-2.0000
G01 Z0
G00 Z2.0000
G00 X23.6042Y50.6019
G01 Z-2.0000
G01 Z0
G00 Z2.0000
G00 X28.5750Y26.6192
G01 Z-2.0000
G01 Z0
G00 Z2.0000
G00 X28.6842Y50.6019
G01 Z-2.0000
G01 Z0
G00 Z2.0000
G00 X125.4557Y31.4630
G01 Z-2.0000
G01 Z0
G00 Z2.0000
G00 X125.4557Y26.3830
G01 Z-2.0000
G01 Z0
G00 Z2.0000
G00 X0.0000Y0.0000
M05
M30