:100DE200112484B714BE982F9D7009F001D18EE0B2
:100DF200ECD0B89A21EFE22E26E0F22E8FE0F82214
:100E0200EF2DE06CDE2EC0E0D0E033E0C32EBB2439
:100E1200B39445E0A42EC5D0813469F4C2D0182F12
:100E2200D8D0123811F482E004C0113809F4A0C0FD
:100E320083E0A8D0A4C0823411F484E103C08534D5
:100E420019F485E0CED09BC0853541F4AAD0C82FD5
:100E5200D0E0A7D0D82BCC0FDD1F90C0863521F46F
:100E620084E0BFD080E0E5CF843609F051C099D04C
:100E720098D0982E96D0882E00E610E080E6782E44
:100E8200790C8FD0F80181938F017E12FACFA1D015
:100E9200209701F5209160002093E4009091610079
:100EA2009093E50080916C008093E60080916D0044
:100EB2008093E7009F7030E0392B265031093F7054
:100EC20020936C00832F806C80936D00E092600011
:100ED200D0926100F5E48F1201C0FFCFFE01C7BEC0
:100EE200E89507B600FCFDCFFE01A0E6B0E09C0E3F
:100EF2002D913D910901B7BEE895112432969E12BB
:100F0200F7CFFE01A7BEE89507B600FCFDCF37C0BC
:100F1200843739F546D045D0982E43D05AD08E0129
:100F22009C0E0115110519F48091E40014C00130E2
:100F3200110519F48091E5000EC00C30110519F469
:100F42008091E60008C00D30110519F48091E70088
:100F520002C0F80184910F5F1F4F14D09012E1CFAD
:100F62000EC0853739F435D08EE10CD082E90AD033
:100F720086E05FCF813511F488E027D02AD080E166
:100F820001D049CF2AE030E08095089410F4C0984F
:100F920002C0C09A000015D014D086952A95B1F7E8
:100FA2000895A89529E030E0B199FECF0AD009D082
:100FB20008D08894B19908942A9511F08795F7CFB3
:100FC200089596E29A95F1F7089598E191BD81BD51
:100FD2000895E7DF803219F088E0F7DFFFCF84E180
:100FE200D1CFCF93C82FDDDFC150E9F7CF91F1CF39
:0C0FF200282E80E0EADFE6E0FF270994EB
:020FFE000206E9
:0400000300000DE20A
:00000001FF
