:10000000E8C267C066C065C064C063C062C061C04A
:1000100060C05FC05EC05DC05CC05BC041C059C015
:1000200058C00D0A004F534343414C3D00596F7572
:100030002063616E2075706C6F616420796F7572DA
:1000400020736B65746368206E6F772E0D0A004312
:10005000616C6962726174696F6E20736176656448
:100060000D0A0054756E696E6720636F6D706C6564
:1000700074652C20736176696E672E2E2E0D0A0032
:1000800053656E6420782072657065617465646C78
:100090007920746F2074756E652E2E2E0D0A000067
:1000A00011241FBECFEDCDBF10E0A0E6B0E0EAEA1C
:1000B000F4E002C005900D92AA36B107D9F710E01E
:1000C000AAE6B0E001C01D92AD36B107E1F79BD1C1
:1000D000EAC196CF2AE08095089410F4D99802C01E
:1000E000D99A00003ED03DD086952A95B1F7089563
:1000F000CF93DF93FC018491EF012196882321F0B7
:10010000E9DFFE018491F9CFDF91CF910895CF937C
:10011000DF93CDB7DD27C450CDBF85E290E0E8DFA7
:1001200081B74AE050E0BE016F5F7F4F90E07DD124
:100130008981D0DF8A81CEDF8B81CCDF82E290E0C3
:10014000D7DFCC5FCDBFDF91CF910895CF93DF9301
:10015000EC018991882311F0BDDFFBCFDF91CF91B6
:1001600008959AE69A95F1F7089521B781BF36B5BB
:10017000F89480E886BD16BC789480E090E0CA9937
:10018000FECFF894000000000196CA9BFDCF0196B7
:10019000CA99FDCF0196CA9BFDCF7894F89440E8A8
:1001A00046BD36BD789421BF65E070E02DD18C54FA
:1001B0009D4197FF03C091958195910908951F93E3
:1001C000CF93DF93CDB7DD27C450CDBF162F4AE0C4
:1001D00050E0BE016F5F7F4F90E027D1112311F0F7
:1001E000812F78DF898176DF8A8174DF8B8172DFEE
:1001F0008AE070DFCC5FCDBFDF91CF911F91089572
:10020000AF92BF92CF92DF92EF92FF920F931F9324
:10021000CF93DF93CDB7DD27C550CDBF809162006E
:1002200090916300019649F481B780936C0081B787
:100230009CDF9093630080936200809162009091B4
:100240006300869780389E4008F086C085E0E4E62B
:10025000F0E0DE01119601900D928A95E1F7CE0152
:1002600001967C016E0196E0C90ED11C21B7F70101
:10027000A1907F01B12C8091600090916100850177
:10028000020F111D801791070CF48C0120916A0058
:1002900030916B00021713070CF489010817190736
:1002A000E4F4802F62DF20916200309163008217B6
:1002B000930738F421B730E030936B0020936A0045
:1002C00032C02817390730F41093610000936000A2
:1002D0006CE301C06AE2802F72DF01B710E0809109
:1002E0006000909161000A191B09801791070CF4B6
:1002F0008C0180916A0090916B00081719070CF42B
:100300008C018017910724F5802F2FDF2091620048
:10031000309163008217930778F421B730E030936F
:1003200061002093600001BF90936300809362009E
:100330006EE7802F44DF2DC02817390730F4109363
:100340006B0000936A006EE301C06AE2802F37DF22
:10035000EC14FD0409F08ACF809162009091630053
:100360008697C8F081B761E22ADF80916C008F59CF
:1003700081BF8FEF9FEF9093630080936200109294
:100380006B0010926A008EEF90E090936100809372
:10039000600081E001C080E0CB5FCDBFDF91CF91F5
:1003A0001F910F91FF90EF90DF90CF90BF90AF9093
:1003B0000895D19AD99A80E890E09ADEA8DE20DFED
:1003C0008111FDCF8AE086DE83E690E091DE9FDE3C
:1003D00084E087BF21B7922F8FEFECEFF7E021E0A9
:1003E0000C0127BFE8951124ECEFF7E085E087BF0B
:1003F000E89507B600FCFDCF8FE490E079DE8DE252
:1004000090E076DEFFCFD5DF0024552704C0080E2C
:10041000591F880F991F009729F076956795B8F3B3
:100420007105B9F7802D952F0895E62FF72F2E2F00
:100430003F2F423074F0453264F4642F77271FD089
:10044000805D8A330CF0895D8193862F972F00970A
:10045000A1F71082822F932F00C0A82FB92FE82F69
:10046000F92F672F71917723E1F7329704C07C91C0
:100470006D9370836291AE17BF07C8F30895AA1BEE
:10048000BB1B51E107C0AA1FBB1FA617B70710F07F
:10049000A61BB70B881F991F5A95A9F780959095B1
:0A04A000BC01CD010895F894FFCFD0
:0A04AA00FE00FFFF1E0F0503010016
:1005D2001124EDEFF7E0E491EF3F09F0E1BF84B7BA
:1005E20014BE982F9D7009F002D18EE0EDD0D19A01
:1005F20029EEE22E22E0F22E8FE0F822EF2DE06CBF
:10060200DE2EC0E0D0E033E0C32EBB24B39445E03D
:10061200A42EC6D0813471F4C3D0182FD9D0123889
:1006220011F482E005C0113811F486E001C083E0C4
:10063200A8D0A4C0823411F484E103C0853419F433
:1006420085E0CED09BC0853541F4AAD0C82FD0E03A
:10065200A7D0D82BCC0FDD1F90C0863521F484E0C3
:10066200BFD080E0E5CF843609F051C099D098D050
:10067200982E96D0882E00E610E080E6782E790C2F
:100682008FD0F80181938F017E12FACFA1D02097EB
:1006920001F5209160002093A40090916100909355
:1006A200A50080917C008093A60080917D008093BC
:1006B200A7009F7030E0392B2E5031093F702093F4
:1006C2007C00832F806C80937D00E0926000D0924A
:1006D2006100F5E48F1201C0FFCFFE01C7BEE895AD
:1006E20007B600FCFDCFFE01A0E6B0E09C0E2D9106
:1006F2003D910901B7BEE895112432969E12F7CFBB
:10070200FE01A7BEE89507B600FCFDCF37C08437CF
:1007120039F546D045D0982E43D05AD08E019C0E42
:100722000115110519F48091A40014C001301105BE
:1007320019F48091A5000EC00C31110519F48091B5
:10074200A60008C00D31110519F48091A70002C05E
:10075200F80184910F5F1F4F14D09012E1CF0EC0A9
:10076200853739F435D08EE10CD081E90AD08BE09F
:100772005FCF813511F488E027D02AD080E101D003
:1007820048CF2AE030E08095089410F4D99802C04E
:10079200D99A000015D014D086952A95B1F70895FC
:1007A200A89529E030E0CA99FECF0AD009D008D036
:1007B2008894CA9908942A9511F08795F7CF0895DD
:1007C20095E09A95F1F7089598E191BD81BD08955C
:1007D200E7DF803219F088E0F7DFFFCF84E1D1CF85
:1007E200CF93C82FDDDFC150E9F7CF91F1CF282E8B
:0A07F20080E0EADFEEE0FF27099443
:0107FD00FFFC
:0207FE000206F1
:04000003000005D222
:00000001FF
