:10000000E8C267C066C065C064C063C062C061C04A
:1000100060C05FC05EC05DC05CC05BC041C059C015
:1000200058C00D0A004F534343414C3D00596F7572
:100030002063616E2075706C6F616420796F7572DA
:1000400020736B65746368206E6F772E0D0A004312
:10005000616C6962726174696F6E20736176656448
:100060000D0A0054756E696E6720636F6D706C6564
:1000700074652C20736176696E672E2E2E0D0A0032
:1000800053656E6420782072657065617465646C78
:100090007920746F2074756E652E2E2E0D0A000067
:1000A00011241FBECFEDCDBF10E0A0E6B0E0E4E923
:1000B000F4E002C005900D92AA36B107D9F710E01E
:1000C000AAE6B0E001C01D92AD36B107E1F790D1CC
:1000D000DFC196CF2AE08095089410F4D99802C029
:1000E000D99A00003ED03DD086952A95B1F7089563
:1000F000CF93DF93FC018491EF012196882321F0B7
:10010000E9DFFE018491F9CFDF91CF910895CF937C
:10011000DF93CDB7DD27C450CDBF85E290E0E8DFA7
:1001200081B74AE050E0BE016F5F7F4F90E072D12F
:100130008981D0DF8A81CEDF8B81CCDF82E290E0C3
:10014000D7DFCC5FCDBFDF91CF910895CF93DF9301
:10015000EC018991882311F0BDDFFBCFDF91CF91B6
:10016000089596E89A95F1F7089521B781BF80E048
:1001700090E0CA99FECFF894000000000196CA9B57
:10018000FDCF0196CA99FDCF0196CA9BFDCF789409
:1001900021BF65E070E02DD18C549D4197FF03C0D5
:1001A00091958195910908951F93CF93DF93CDB7D2
:1001B000DD27C450CDBF162F4AE050E0BE016F5F6F
:1001C0007F4F90E027D1112311F0812F83DF8981A8
:1001D00081DF8A817FDF8B817DDF8AE07BDFCC5FFF
:1001E000CDBFDF91CF911F910895AF92BF92CF9273
:1001F000DF92EF92FF920F931F93CF93DF93CDB7D0
:10020000DD27C550CDBF80916200909163000196BB
:1002100049F481B780936C0081B7A7DF90936300A6
:10022000809362008091620090916300869780388D
:100230009E4008F086C085E0E4E6F0E0DE0111961D
:1002400001900D928A95E1F7CE0101967C016E0135
:1002500096E0C90ED11C21B7F701A1907F01B12C06
:1002600080916000909161008501020F111D80173F
:1002700091070CF48C0120916A0030916B000217F9
:1002800013070CF4890108171907E4F4802F6DDFB8
:1002900020916200309163008217930738F421B7F0
:1002A00030E030936B0020936A0032C02817390782
:1002B00030F410936100009360006CE301C06AE2C7
:1002C000802F72DF01B710E0809160009091610093
:1002D0000A191B09801791070CF48C0180916A00A0
:1002E00090916B00081719070CF48C018017910787
:1002F00024F5802F3ADF209162003091630082174D
:10030000930778F421B730E03093610020936000C8
:1003100001BF90936300809362006EE7802F44DFFB
:100320002DC02817390730F410936B0000936A0032
:100330006EE301C06AE2802F37DFEC14FD0409F0A0
:100340008ACF80916200909163008697C8F081B750
:1003500061E22ADF80916C008F5981BF8FEF9FEFA0
:10036000909363008093620010926B0010926A0079
:100370008EEF90E0909361008093600081E001C077
:1003800080E0CB5FCDBFDF91CF911F910F91FF90A8
:10039000EF90DF90CF90BF90AF900895D19AD99A07
:1003A00080E890E0A5DEB3DE20DF8111FDCF8AE09A
:1003B00091DE83E690E09CDEAADE84E087BF21B771
:1003C000922F8FEFECEFF7E021E00C0127BFE895CB
:1003D0001124ECEFF7E085E087BFE89507B600FC55
:1003E000FDCF8FE490E084DE8DE290E081DEFFCFF0
:1003F000D5DF0024552704C0080E591F880F991F08
:10040000009729F076956795B8F37105B9F7802DB7
:10041000952F0895E62FF72F2E2F3F2F423074F09F
:10042000453264F4642F77271FD0805D8A330CF047
:10043000895D8193862F972F0097A1F71082822FD5
:10044000932F00C0A82FB92FE82FF92F672F719194
:100450007723E1F7329704C07C916D9370836291AA
:10046000AE17BF07C8F30895AA1BBB1B51E107C015
:10047000AA1FBB1FA617B70710F0A61BB70B881F34
:10048000991F5A95A9F780959095BC01CD010895C3
:04049000F894FFCF0E
:0A049400FE00FFFF1E0F050301002C
:1005D2001124EDEFF7E0E491EF3F09F0E1BF84B7BA
:1005E20014BE982F9D7009F002D18EE0EDD0D19A01
:1005F20029EEE22E22E0F22E8FE0F822EF2DE06CBF
:10060200DE2EC0E0D0E033E0C32EBB24B39445E03D
:10061200A42EC6D0813471F4C3D0182FD9D0123889
:1006220011F482E005C0113811F486E001C083E0C4
:10063200A8D0A4C0823411F484E103C0853419F433
:1006420085E0CED09BC0853541F4AAD0C82FD0E03A
:10065200A7D0D82BCC0FDD1F90C0863521F484E0C3
:10066200BFD080E0E5CF843609F051C099D098D050
:10067200982E96D0882E00E610E080E6782E790C2F
:100682008FD0F80181938F017E12FACFA1D02097EB
:1006920001F5209160002093A40090916100909355
:1006A200A50080917C008093A60080917D008093BC
:1006B200A7009F7030E0392B2E5031093F702093F4
:1006C2007C00832F806C80937D00E0926000D0924A
:1006D2006100F5E48F1201C0FFCFFE01C7BEE895AD
:1006E20007B600FCFDCFFE01A0E6B0E09C0E2D9106
:1006F2003D910901B7BEE895112432969E12F7CFBB
:10070200FE01A7BEE89507B600FCFDCF37C08437CF
:1007120039F546D045D0982E43D05AD08E019C0E42
:100722000115110519F48091A40014C001301105BE
:1007320019F48091A5000EC00C31110519F48091B5
:10074200A60008C00D31110519F48091A70002C05E
:10075200F80184910F5F1F4F14D09012E1CF0EC0A9
:10076200853739F435D08EE10CD081E90AD08BE09F
:100772005FCF813511F488E027D02AD080E101D003
:1007820048CF2AE030E08095089410F4D99802C04E
:10079200D99A000015D014D086952A95B1F70895FC
:1007A200A89529E030E0CA99FECF0AD009D008D036
:1007B2008894CA9908942A9511F08795F7CF0895DD
:1007C20093E19A95F1F7089598E191BD81BD08955D
:1007D200E7DF803219F088E0F7DFFFCF84E1D1CF85
:1007E200CF93C82FDDDFC150E9F7CF91F1CF282E8B
:0A07F20080E0EADFEEE0FF27099443
:0107FD00FFFC
:0207FE000206F1
:04000003000005D222
:00000001FF
