:100DE000112484B714BE982F9D7009F002D18EE0B3
:100DF000EDD0D19A20EFE22E26E0F22E8FE0F822FD
:100E0000EF2DE06CDE2EC0E0D0E033E0C32EBB243B
:100E1000B39445E0A42EC6D0813471F4C3D0182F0A
:100E2000D9D0123811F482E005C0113811F486E0EF
:100E300001C083E0A8D0A4C0823411F484E103C0CF
:100E4000853419F485E0CED09BC0853541F4AAD015
:100E5000C82FD0E0A7D0D82BCC0FDD1F90C086358F
:100E600021F484E0BFD080E0E5CF843609F051C0A2
:100E700099D098D0982E96D0882E00E610E080E683
:100E8000782E790C8FD0F80181938F017E12FACFE2
:100E9000A1D0209701F5209160002093E40090916B
:100EA00061009093E50080917C008093E600809142
:100EB0007D008093E7009F7030E0392B2E50310980
:100EC0003F7020937C00832F806C80937D00E092A4
:100ED0006000D0926100F5E48F1201C0FFCFFE01E7
:100EE000C7BEE89507B600FCFDCFFE01A0E6B0E066
:100EF0009C0E2D913D910901B7BEE89511243296C3
:100F00009E12F7CFFE01A7BEE89507B600FCFDCF05
:100F100037C0843739F546D045D0982E43D05AD0C3
:100F20008E019C0E0115110519F48091E40014C086
:100F30000130110519F48091E5000EC00C31110546
:100F400019F48091E60008C00D31110519F4809163
:100F5000E70002C0F80184910F5F1F4F14D0901278
:100F6000E1CF0EC0853739F435D08EE10CD082E95F
:100F70000AD087E05FCF813511F488E027D02AD0EE
:100F800080E101D048CF2AE030E08095089410F449
:100F9000D99802C0D99A000015D014D086952A9508
:100FA000B1F70895A89529E030E0CA99FECF0AD09C
:100FB00009D008D08894CA9908942A9511F0879589
:100FC000F7CF08959FE19A95F1F7089598E191BDC3
:100FD00081BD0895E7DF803219F088E0F7DFFFCFA9
:100FE00084E1D1CFCF93C82FDDDFC150E9F7CF9196
:0E0FF000F1CF282E80E0EADFEEE0FF27099423
:020FFE000206E9
:0400000300000DE00C
:00000001FF
